jbiadmin01404 - Negative tests for runtime configuration [ Test fix for Issue 50 ]
  ERROR:(JBIMA2504)Failed to set attribute componentTimeout value being set : -1 is less than the minimum allowed value : 0
  ERROR:(JBIMA2504)Failed to set attribute deploymentTimeout value being set : -1 is less than the minimum allowed value : 0
  ERROR:(JBIMA2508)Failed to set attribute jbiHome. This is a read-only attribute and cannot be updated.
  ERROR:(UICMN2812)Can not convert attribute string value "xxx" to attribute type "boolean" for attribute "startOnDeploy".
    Caused by:(UICMN0000)xxx is not a valid boolean value string. Please specify either "true" or "false".
