testname is jbiadmin00003
IGNORE JBI_HOME is D:/nikita/dev/jsr208/asjbi/open-esb/install/as8/jbi
IGNORE JBI_DOMAIN_ROOT is D:/nikita/dev/jsr208/asjbi/open-esb/install/as8/domains/CAS
IGNORE jbi_instance_name is CAS
IGNORE jmx.provider is service:jmx:rmi:///jndi/rmi://Mystique01:23589/management/rmi-jmx-connector
##### Result of installSharedLibrary = TestSharedLibrary
##### Result of uninstallSharedLibrary = true
##### Result of loadNewInstaller = com.sun.jbi:Target=server,ServiceType=Installer,ComponentName=manage-binding-1
##### Result of install = com.sun.jbi:Target=server,ServiceType=ComponentLifeCycle,ComponentName=manage-binding-1
##### Result of isInstalled = true
##### Result of getInstallerConfigurationMBean = 
##### Result of getComponentByName = com.sun.jbi:Target=server,ServiceType=ComponentLifeCycle,ComponentName=manage-binding-1
##### Result of  getEngineComponents =
com.sun.jbi:Target=server,ServiceType=ComponentLifeCycle,ComponentName=sun-javaee-engine
##### Result of  getBindingComponents =
com.sun.jbi:Target=server,ServiceType=ComponentLifeCycle,ComponentName=manage-binding-1
com.sun.jbi:Target=server,ServiceType=ComponentLifeCycle,ComponentName=sun-http-binding
##### Result of unloadInstaller = true
##### Result of loadInstaller = com.sun.jbi:Target=server,ServiceType=Installer,ComponentName=manage-binding-1
##### Result of unloadInstaller = true

BUILD SUCCESSFUL
IGNORE Total time: 4 seconds
