jbiadmin01511 : Test for component upgrade in cluster
Command create-instance executed successfully.
Command start-instance executed successfully.
Command start-instance executed successfully.
install a component
Installed component Upgrade-Component.
deploy the SAs
Deployed service assembly Upgrade-SA1.
Deployed service assembly Upgrade-SA2.
shut-down the component
Shut Down component Upgrade-Component.
upgrade the component
Upgrading a component
IGNORE  jmx connection info: (host=localhost, port=4951, secure=false, username=admin)
  name=Upgrade-Component
IGNORE  file=C:/work/cygwin/home/annies/external/open-esb/runtime/esb-manage/bld/test-classes/dist/upgrade-modified.jar
Upgrade component succeeded. [
Upgrade-Component
]

BUILD SUCCESSFUL
IGNORE Total time: 3 seconds
verify if the component upgrades to workspace has been retained
verify the workspace dir has been preserved
verify that install root has been replaced
Started component Upgrade-Component.
undeploy the SAs
Undeployed service assembly Upgrade-SA1.
Undeployed service assembly Upgrade-SA2.
shutdown the component
Shut Down component Upgrade-Component.
uninstall the component
Uninstalled component Upgrade-Component.