testname is jbiadmin01203
test install form domain for shared libraries in cluster target after --keeparchive=true
sun-wsdl-library
Command list-jbi-shared-libraries executed successfully.
Instance: CAS-cluster1-inst1
  WARNING:(JBIFW1322)Shared Library sun-wsdl-library has been uninstalled, but the following components cannot be started until this Shared Library is reinstalled: Engine sun-javaee-engine.
CLI137 Command uninstall-jbi-shared-library failed.
Installing a shared library
IGNORE   jmx connection info: (host=localhost, port=5151, secure=true, username=admin, target=CAS-cluster1 )
  name=sun-wsdl-library
Install shared library succeeded.

BUILD SUCCESSFUL
IGNORE Total time: 3 seconds
