testname is jbiadmin00121
IGNORE JBI_HOME is C:/development/build/open-esb/install/as8/jbi
IGNORE JBI_DOMAIN_ROOT is C:/development/build/open-esb/install/as8/domains/CAS
jbi_instance_name is server
IGNORE jmx.provider is service:jmx:rmi:///jndi/rmi://orly:9889/management/rmi-jmx-connector

BUILD SUCCESSFUL
IGNORE Total time: 1 second
Installing a component
IGNORE   jmx connection info: (host=localhost, port=6051, secure=false, username=admin, target=instance1 )
IGNORE   file=C:/development/build/open-esb/runtime/esb-manage/bld/test-classes/dist/config-binding.jar
Install component succeeded. [
config-binding
]

BUILD SUCCESSFUL
IGNORE Total time: 1 second
============================================================
  List of Binding Components for Target "instance1"
============================================================
Name       : config-binding
State      : Shutdown
Description: Binding used to test configurable installers.
------------------------------------------------------------
Name       : sun-http-binding
State      : Shutdown
Description: HTTP binding component. Provides message processing capabilities over HTTP protocol in a JBI 1.0 compliant environment.
------------------------------------------------------------

BUILD SUCCESSFUL
IGNORE Total time: 0 seconds
Component was configured successfully.
Uninstalling a component
IGNORE   jmx connection info: (host=localhost, port=6051, secure=false, username=admin, target=instance1 )
  name=config-binding
Uninstall component succeeded. [
config-binding
]

BUILD SUCCESSFUL
IGNORE Total time: 0 seconds
Command create-instance executed successfully.
Installing a component
IGNORE   jmx connection info: (host=localhost, port=6051, secure=false, username=admin, target=configtest )
IGNORE   file=C:/development/build/open-esb/runtime/esb-manage/bld/test-classes/dist/config-binding.jar
Install component succeeded. [
config-binding
]

BUILD SUCCESSFUL
IGNORE Total time: 0 seconds
============================================================
  List of Binding Components for Target "configtest"
============================================================
Name       : config-binding
State      : Shutdown
Description: Binding used to test configurable installers.
------------------------------------------------------------
Name       : sun-http-binding
State      : Shutdown
Description: HTTP binding component. Provides message processing capabilities over HTTP protocol in a JBI 1.0 compliant environment.
------------------------------------------------------------

BUILD SUCCESSFUL
IGNORE Total time: 0 seconds
Uninstalling a component
IGNORE   jmx connection info: (host=localhost, port=6051, secure=false, username=admin, target=configtest )
  name=config-binding
Uninstall component succeeded. [
config-binding
]

BUILD SUCCESSFUL
IGNORE Total time: 0 seconds
Command delete-instance executed successfully.
