jbiadmin00012 : Test Deployment to a cluster - deploy/undeploy and life cycle operations.
Creating cluster : cluster1
Command create-cluster executed successfully.
Creating instance : instance2
Command create-instance executed successfully.
Starting instance : instance2
Command start-instance executed successfully.
IGNORE JBI_HOME is D:/nikita/dev/jsr208/main/open-esb/install/as8/jbi
IGNORE JBI_DOMAIN_ROOT is D:/nikita/dev/jsr208/main/open-esb/install/as8/domains/CAS
IGNORE jbi_instance_name is server
IGNORE jmx.provider is service:jmx:rmi:///jndi/rmi://Mystique01:10789/management/rmi-jmx-connector
##### Result of loadNewInstaller = com.sun.jbi:Target=cluster1,ServiceType=Installer,ComponentName=manage-binding-1
##### Result of install = com.sun.jbi:Target=cluster1,ServiceType=ComponentLifeCycle,ComponentName=manage-binding-1
##### Result of unloadInstaller = true
##### Result of start = 
##### Result of loadNewInstaller = com.sun.jbi:Target=cluster1,ServiceType=Installer,ComponentName=manage-binding-2
##### Result of install = com.sun.jbi:Target=cluster1,ServiceType=ComponentLifeCycle,ComponentName=manage-binding-2
##### Result of unloadInstaller = true
##### Result of start = 
##### Result of deploy = <jbi-task version="1.0" xmlns="http://java.sun.com/xml/ns/jbi/management-message"><jbi-task-result><frmwk-task-result><frmwk-task-result-details><task-result-details><task-id>deploy</task-id><task-result>SUCCESS</task-result><message-type>INFO</message-type><task-status-msg><msg-loc-info><loc-token>JBIMA0495</loc-token><loc-message>Deployment of service assembly esbadmin00089-sa succeeded.</loc-message></msg-loc-info></task-status-msg></task-result-details><locale>en_US</locale></frmwk-task-result-details></frmwk-task-result><component-task-result><component-name>manage-binding-1</component-name><component-task-result-details><task-result-details><task-id>deploy</task-id><task-result>SUCCESS</task-result><message-type>INFO</message-type></task-result-details></component-task-result-details></component-task-result><component-task-result><component-name>manage-binding-2</component-name><component-task-result-details><task-result-details><task-id>deploy</task-id><task-result>SUCCESS</task-result><message-type>INFO</message-type></task-result-details></component-task-result-details></component-task-result></jbi-task-result></jbi-task>
##### Result of getServiceUnitState = Shutdown
##### Result of getServiceUnitState = Shutdown
##### Result of start = <jbi-task version="1.0" xmlns="http://java.sun.com/xml/ns/jbi/management-message"><jbi-task-result><frmwk-task-result><frmwk-task-result-details><task-result-details><task-id>start</task-id><task-result>SUCCESS</task-result><message-type>INFO</message-type></task-result-details><locale>en_US</locale></frmwk-task-result-details></frmwk-task-result><component-task-result><component-name>manage-binding-1</component-name><component-task-result-details><task-result-details><task-id>start</task-id><task-result>SUCCESS</task-result><message-type>INFO</message-type><task-status-msg><msg-loc-info><loc-token>JBIMA0409</loc-token><loc-message>Lifecycle operation start succeeded for Service Unit esbadmin00089-su-1.</loc-message><loc-param>start</loc-param><loc-param>esbadmin00089-su-1</loc-param></msg-loc-info></task-status-msg></task-result-details></component-task-result-details></component-task-result><component-task-result><component-name>manage-binding-2</component-name><component-task-result-details><task-result-details><task-id>start</task-id><task-result>SUCCESS</task-result><message-type>INFO</message-type><task-status-msg><msg-loc-info><loc-token>JBIMA0409</loc-token><loc-message>Lifecycle operation start succeeded for Service Unit esbadmin00089-su-2.</loc-message><loc-param>start</loc-param><loc-param>esbadmin00089-su-2</loc-param></msg-loc-info></task-status-msg></task-result-details></component-task-result-details></component-task-result></jbi-task-result></jbi-task>
##### Result of getServiceUnitState = Started
##### Result of getServiceUnitState = Started
##### Result of stop = <jbi-task version="1.0" xmlns="http://java.sun.com/xml/ns/jbi/management-message"><jbi-task-result><frmwk-task-result><frmwk-task-result-details><task-result-details><task-id>stop</task-id><task-result>SUCCESS</task-result><message-type>INFO</message-type></task-result-details><locale>en_US</locale></frmwk-task-result-details></frmwk-task-result><component-task-result><component-name>manage-binding-1</component-name><component-task-result-details><task-result-details><task-id>stop</task-id><task-result>SUCCESS</task-result><message-type>INFO</message-type><task-status-msg><msg-loc-info><loc-token>JBIMA0409</loc-token><loc-message>Lifecycle operation stop succeeded for Service Unit esbadmin00089-su-1.</loc-message><loc-param>stop</loc-param><loc-param>esbadmin00089-su-1</loc-param></msg-loc-info></task-status-msg></task-result-details></component-task-result-details></component-task-result><component-task-result><component-name>manage-binding-2</component-name><component-task-result-details><task-result-details><task-id>stop</task-id><task-result>SUCCESS</task-result><message-type>INFO</message-type><task-status-msg><msg-loc-info><loc-token>JBIMA0409</loc-token><loc-message>Lifecycle operation stop succeeded for Service Unit esbadmin00089-su-2.</loc-message><loc-param>stop</loc-param><loc-param>esbadmin00089-su-2</loc-param></msg-loc-info></task-status-msg></task-result-details></component-task-result-details></component-task-result></jbi-task-result></jbi-task>
##### Result of getServiceUnitState = Stopped
##### Result of getServiceUnitState = Stopped
##### Result of shutDown = <jbi-task version="1.0" xmlns="http://java.sun.com/xml/ns/jbi/management-message"><jbi-task-result><frmwk-task-result><frmwk-task-result-details><task-result-details><task-id>shutDown</task-id><task-result>SUCCESS</task-result><message-type>INFO</message-type></task-result-details><locale>en_US</locale></frmwk-task-result-details></frmwk-task-result><component-task-result><component-name>manage-binding-1</component-name><component-task-result-details><task-result-details><task-id>shutDown</task-id><task-result>SUCCESS</task-result><message-type>INFO</message-type><task-status-msg><msg-loc-info><loc-token>JBIMA0409</loc-token><loc-message>Lifecycle operation shutDown succeeded for Service Unit esbadmin00089-su-1.</loc-message><loc-param>shutDown</loc-param><loc-param>esbadmin00089-su-1</loc-param></msg-loc-info></task-status-msg></task-result-details></component-task-result-details></component-task-result><component-task-result><component-name>manage-binding-2</component-name><component-task-result-details><task-result-details><task-id>shutDown</task-id><task-result>SUCCESS</task-result><message-type>INFO</message-type><task-status-msg><msg-loc-info><loc-token>JBIMA0409</loc-token><loc-message>Lifecycle operation shutDown succeeded for Service Unit esbadmin00089-su-2.</loc-message><loc-param>shutDown</loc-param><loc-param>esbadmin00089-su-2</loc-param></msg-loc-info></task-status-msg></task-result-details></component-task-result-details></component-task-result></jbi-task-result></jbi-task>
##### Result of getServiceUnitState = Shutdown
##### Result of getServiceUnitState = Shutdown
##### Result of undeploy = <jbi-task version="1.0" xmlns="http://java.sun.com/xml/ns/jbi/management-message"><jbi-task-result><frmwk-task-result><frmwk-task-result-details><task-result-details><task-id>undeploy</task-id><task-result>SUCCESS</task-result><message-type>INFO</message-type></task-result-details><locale>en_US</locale></frmwk-task-result-details></frmwk-task-result><component-task-result><component-name>manage-binding-1</component-name><component-task-result-details><task-result-details><task-id>undeploy</task-id><task-result>SUCCESS</task-result><message-type>INFO</message-type></task-result-details></component-task-result-details></component-task-result><component-task-result><component-name>manage-binding-2</component-name><component-task-result-details><task-result-details><task-id>undeploy</task-id><task-result>SUCCESS</task-result><message-type>INFO</message-type></task-result-details></component-task-result-details></component-task-result></jbi-task-result></jbi-task>
##### Result of stop = 
##### Result of stop = 
##### Result of shutDown = 
##### Result of shutDown = 
##### Result of loadInstaller = com.sun.jbi:Target=cluster1,ServiceType=Installer,ComponentName=manage-binding-1
##### Result of unloadInstaller = true
##### Result of loadInstaller = com.sun.jbi:Target=cluster1,ServiceType=Installer,ComponentName=manage-binding-2
##### Result of unloadInstaller = true

BUILD SUCCESSFUL
IGNORE Total time: 17 seconds
Stopping instance : instance2
Command stop-instance executed successfully.
Deleting instance : instance2
Command delete-instance executed successfully.
Deleting cluster : cluster1
Command delete-cluster executed successfully.
