jbiadmin01603 : Tests the facade Runtime Logger Configuration for target=cluster and target=cluster-instance
Command create-cluster executed successfully.
Command create-instance executed successfully.
Command start-instance executed successfully.
Command start-instance executed successfully.
Setting runtime logger
IGNORE   jmx connection info: (host=localhost, port=4851, secure=false, username=admin, target=rtcfg-cluster )
Set logger succeeded. [
  INFO:(UIANT6110)JBI Runtime logger set on Target "rtcfg-cluster"
]

BUILD SUCCESSFUL
IGNORE   Total time: 1 second
Listing runtime loggers
IGNORE   jmx connection info: (host=localhost, port=4851, secure=false, username=admin, target=rtcfg-cluster )
============================================================
Runtime Logger for Target "rtcfg-cluster"
============================================================
com.sun.jbi=INFO
com.sun.jbi.framework=INFO
com.sun.jbi.management=INFO
com.sun.jbi.management.AdminService=WARNING
com.sun.jbi.management.ConfigurationService=INFO
com.sun.jbi.management.DeploymentService=INFO
com.sun.jbi.management.InstallationService=INFO
com.sun.jbi.management.LoggingService=INFO
com.sun.jbi.messaging=INFO
------------------------------------------------------------

BUILD SUCCESSFUL
IGNORE   Total time: 0 seconds
Listing runtime loggers
IGNORE  jmx connection info: (host=localhost, port=4851, secure=false, username=admin, target=rtcfg-cluster-instance1 )
============================================================
Runtime Logger for Target "rtcfg-cluster-instance1"
============================================================
com.sun.jbi=INFO
com.sun.jbi.framework=INFO
com.sun.jbi.management=INFO
com.sun.jbi.management.AdminService=WARNING
com.sun.jbi.management.ConfigurationService=INFO
com.sun.jbi.management.DeploymentService=INFO
com.sun.jbi.management.InstallationService=INFO
com.sun.jbi.management.LoggingService=INFO
com.sun.jbi.messaging=INFO
------------------------------------------------------------

BUILD SUCCESSFUL
IGNORE   Total time: 0 seconds
Setting runtime logger
IGNORE   jmx connection info: (host=localhost, port=4851, secure=false, username=admin, target=rtcfg-cluster )
Set logger succeeded. [
  INFO:(UIANT6110)JBI Runtime logger set on Target "rtcfg-cluster"
]

BUILD SUCCESSFUL
IGNORE   Total time: 0 seconds
Listing runtime loggers
IGNORE  jmx connection info: (host=localhost, port=4851, secure=false, username=admin, target=rtcfg-cluster )
============================================================
Runtime Logger for Target "rtcfg-cluster"
============================================================
com.sun.jbi=INFO
com.sun.jbi.framework=INFO
com.sun.jbi.management=INFO
com.sun.jbi.management.AdminService=INFO
com.sun.jbi.management.ConfigurationService=INFO
com.sun.jbi.management.DeploymentService=INFO
com.sun.jbi.management.InstallationService=INFO
com.sun.jbi.management.LoggingService=INFO
com.sun.jbi.messaging=INFO
------------------------------------------------------------

BUILD SUCCESSFUL
IGNORE   Total time: 0 seconds
Setting runtime logger
IGNORE   jmx connection info: (host=localhost, port=4851, secure=false, username=admin, target=rtcfg-cluster-instance1 )
Set logger succeeded. [
  INFO:(UIANT6110)JBI Runtime logger set on Target "rtcfg-cluster-instance1"
]

BUILD SUCCESSFUL
IGNORE   Total time: 0 seconds
Listing runtime loggers
IGNORE  jmx connection info: (host=localhost, port=4851, secure=false, username=admin, target=rtcfg-cluster-instance1 )
============================================================
Runtime Logger for Target "rtcfg-cluster-instance1"
============================================================
com.sun.jbi=INFO
com.sun.jbi.framework=SEVERE
com.sun.jbi.management=INFO
com.sun.jbi.management.AdminService=INFO
com.sun.jbi.management.ConfigurationService=INFO
com.sun.jbi.management.DeploymentService=INFO
com.sun.jbi.management.InstallationService=INFO
com.sun.jbi.management.LoggingService=INFO
com.sun.jbi.messaging=INFO
------------------------------------------------------------

BUILD SUCCESSFUL
IGNORE   Total time: 0 seconds
Setting runtime logger
IGNORE   jmx connection info: (host=localhost, port=4851, secure=false, username=admin, target=rtcfg-cluster-instance1 )
Set logger succeeded. [
  INFO:(UIANT6110)JBI Runtime logger set on Target "rtcfg-cluster-instance1"
]

BUILD SUCCESSFUL
IGNORE   Total time: 0 seconds
Listing runtime loggers
IGNORE  jmx connection info: (host=localhost, port=4851, secure=false, username=admin, target=rtcfg-cluster-instance1 )
============================================================
Runtime Logger for Target "rtcfg-cluster-instance1"
============================================================
com.sun.jbi=INFO
com.sun.jbi.framework=INFO
com.sun.jbi.management=INFO
com.sun.jbi.management.AdminService=INFO
com.sun.jbi.management.ConfigurationService=INFO
com.sun.jbi.management.DeploymentService=INFO
com.sun.jbi.management.InstallationService=INFO
com.sun.jbi.management.LoggingService=INFO
com.sun.jbi.messaging=INFO
------------------------------------------------------------

BUILD SUCCESSFUL
IGNORE   Total time: 0 seconds
Test setting the log level to DEFAULT for target=cluster
Listing runtime loggers
IGNORE  jmx connection info: (host=localhost, port=4851, secure=false, username=admin, target=rtcfg-cluster )
============================================================
Runtime Logger for Target "rtcfg-cluster"
============================================================
  com.sun.jbi=INFO
  com.sun.jbi.framework=INFO
  com.sun.jbi.management=INFO
  com.sun.jbi.management.AdminService=INFO
  com.sun.jbi.management.ConfigurationService=INFO
  com.sun.jbi.management.DeploymentService=INFO
  com.sun.jbi.management.InstallationService=INFO
  com.sun.jbi.management.LoggingService=INFO
  com.sun.jbi.messaging=INFO
------------------------------------------------------------

BUILD SUCCESSFUL
IGNORETotal time: 0 seconds
Setting runtime logger
IGNORE  jmx connection info: (host=localhost, port=4851, secure=false, username=admin, target=rtcfg-cluster )
Set logger succeeded. [
  INFO:(UIANT6110)JBI Runtime logger set on Target "rtcfg-cluster"
]

BUILD SUCCESSFUL
IGNORE Total time: 0 seconds
Listing runtime loggers
IGNORE  jmx connection info: (host=localhost, port=4851, secure=false, username=admin, target=rtcfg-cluster )
============================================================
Runtime Logger for Target "rtcfg-cluster"
============================================================
  com.sun.jbi=INFO
  com.sun.jbi.framework=FINE
  com.sun.jbi.management=INFO
  com.sun.jbi.management.AdminService=INFO
  com.sun.jbi.management.ConfigurationService=INFO
  com.sun.jbi.management.DeploymentService=INFO
  com.sun.jbi.management.InstallationService=INFO
  com.sun.jbi.management.LoggingService=INFO
  com.sun.jbi.messaging=INFO
------------------------------------------------------------

BUILD SUCCESSFUL
IGNORE Total time: 0 seconds
Setting runtime logger
IGNORE  jmx connection info: (host=localhost, port=4851, secure=false, username=admin, target=rtcfg-cluster )
Set logger succeeded. [
  INFO:(UIANT6110)JBI Runtime logger set on Target "rtcfg-cluster"
]

BUILD SUCCESSFUL
IGNORE Total time: 0 seconds
Listing runtime loggers
IGNORE  jmx connection info: (host=localhost, port=4851, secure=false, username=admin, target=rtcfg-cluster )
============================================================
Runtime Logger for Target "rtcfg-cluster"
============================================================
  com.sun.jbi=INFO
  com.sun.jbi.framework=INFO
  com.sun.jbi.management=INFO
  com.sun.jbi.management.AdminService=INFO
  com.sun.jbi.management.ConfigurationService=INFO
  com.sun.jbi.management.DeploymentService=INFO
  com.sun.jbi.management.InstallationService=INFO
  com.sun.jbi.management.LoggingService=INFO
  com.sun.jbi.messaging=INFO
------------------------------------------------------------

BUILD SUCCESSFUL
IGNORE Total time: 0 seconds
Test setting the log level to DEFAULT for target=cluster-instance1
Listing runtime loggers
IGNORE  jmx connection info: (host=localhost, port=4851, secure=false, username=admin, target=rtcfg-cluster-instance1 )
============================================================
Runtime Logger for Target "rtcfg-cluster-instance1"
============================================================
  com.sun.jbi=INFO
  com.sun.jbi.framework=INFO
  com.sun.jbi.management=INFO
  com.sun.jbi.management.AdminService=INFO
  com.sun.jbi.management.ConfigurationService=INFO
  com.sun.jbi.management.DeploymentService=INFO
  com.sun.jbi.management.InstallationService=INFO
  com.sun.jbi.management.LoggingService=INFO
  com.sun.jbi.messaging=INFO
------------------------------------------------------------

BUILD SUCCESSFUL
IGNORE Total time: 0 seconds
Setting runtime logger
IGNORE  jmx connection info: (host=localhost, port=4851, secure=false, username=admin, target=rtcfg-cluster-instance1 )
Set logger succeeded. [
  INFO:(UIANT6110)JBI Runtime logger set on Target "rtcfg-cluster-instance1"
]

BUILD SUCCESSFUL
IGNORE Total time: 0 seconds
Listing runtime loggers
IGNORE  jmx connection info: (host=localhost, port=4851, secure=false, username=admin, target=rtcfg-cluster-instance1 )
============================================================
Runtime Logger for Target "rtcfg-cluster-instance1"
============================================================
  com.sun.jbi=INFO
  com.sun.jbi.framework=INFO
  com.sun.jbi.management=INFO
  com.sun.jbi.management.AdminService=INFO
  com.sun.jbi.management.ConfigurationService=INFO
  com.sun.jbi.management.DeploymentService=INFO
  com.sun.jbi.management.InstallationService=INFO
  com.sun.jbi.management.LoggingService=INFO
  com.sun.jbi.messaging=FINE
------------------------------------------------------------

BUILD SUCCESSFUL
IGNORE Total time: 0 seconds
Setting runtime logger
IGNORE  jmx connection info: (host=localhost, port=4851, secure=false, username=admin, target=rtcfg-cluster-instance1 )
Set logger succeeded. [
  INFO:(UIANT6110)JBI Runtime logger set on Target "rtcfg-cluster-instance1"
]

BUILD SUCCESSFUL
IGNORE Total time: 0 seconds
Listing runtime loggers
IGNORE  jmx connection info: (host=localhost, port=4851, secure=false, username=admin, target=rtcfg-cluster-instance1 )
============================================================
Runtime Logger for Target "rtcfg-cluster-instance1"
============================================================
  com.sun.jbi=INFO
  com.sun.jbi.framework=INFO
  com.sun.jbi.management=INFO
  com.sun.jbi.management.AdminService=INFO
  com.sun.jbi.management.ConfigurationService=INFO
  com.sun.jbi.management.DeploymentService=INFO
  com.sun.jbi.management.InstallationService=INFO
  com.sun.jbi.management.LoggingService=INFO
  com.sun.jbi.messaging=INFO
------------------------------------------------------------

BUILD SUCCESSFUL
IGNORE Total time: 0 seconds
Test setting the log level to DEFAULT for target=server
Listing runtime loggers
IGNORE  jmx connection info: (host=localhost, port=4851, secure=false, username=admin, target=server )
============================================================
Runtime Logger for Target "server"
============================================================
  com.sun.jbi=INFO
  com.sun.jbi.framework=INFO
  com.sun.jbi.management=INFO
  com.sun.jbi.management.AdminService=INFO
  com.sun.jbi.management.ConfigurationService=INFO
  com.sun.jbi.management.DeploymentService=INFO
  com.sun.jbi.management.InstallationService=INFO
  com.sun.jbi.management.LoggingService=INFO
  com.sun.jbi.messaging=INFO
------------------------------------------------------------

BUILD SUCCESSFUL
IGNORE Total time: 0 seconds
Setting runtime logger
IGNORE  jmx connection info: (host=localhost, port=4851, secure=false, username=admin, target=server )
Set logger succeeded. [
  INFO:(UIANT6110)JBI Runtime logger set on Target "server"
]

BUILD SUCCESSFUL
IGNORE Total time: 0 seconds
Listing runtime loggers
IGNORE  jmx connection info: (host=localhost, port=4851, secure=false, username=admin, target=server )
============================================================
Runtime Logger for Target "server"
============================================================
  com.sun.jbi=INFO
  com.sun.jbi.framework=INFO
  com.sun.jbi.management=FINE
  com.sun.jbi.management.AdminService=FINE
  com.sun.jbi.management.ConfigurationService=FINE
  com.sun.jbi.management.DeploymentService=FINE
  com.sun.jbi.management.InstallationService=FINE
  com.sun.jbi.management.LoggingService=FINE
  com.sun.jbi.messaging=INFO
------------------------------------------------------------

BUILD SUCCESSFUL
IGNORE Total time: 0 seconds
Setting runtime logger
IGNORE  jmx connection info: (host=localhost, port=4851, secure=false, username=admin, target=server )
Set logger succeeded. [
  INFO:(UIANT6110)JBI Runtime logger set on Target "server"
]

BUILD SUCCESSFUL
IGNORE Total time: 0 seconds
Listing runtime loggers
IGNORE  jmx connection info: (host=localhost, port=4851, secure=false, username=admin, target=server )
============================================================
Runtime Logger for Target "server"
============================================================
  com.sun.jbi=INFO
  com.sun.jbi.framework=INFO
  com.sun.jbi.management=INFO
  com.sun.jbi.management.AdminService=INFO
  com.sun.jbi.management.ConfigurationService=INFO
  com.sun.jbi.management.DeploymentService=INFO
  com.sun.jbi.management.InstallationService=INFO
  com.sun.jbi.management.LoggingService=INFO
  com.sun.jbi.messaging=INFO
------------------------------------------------------------

BUILD SUCCESSFUL
IGNORE Total time: 0 seconds
Test setting a logger which is not defined in the JBI Runtime
Setting runtime logger
IGNORE   jmx connection info: (host=localhost, port=4851, secure=false, username=admin, target=server )
Set logger failed. [
  ERROR:(UICMN2843)Logger com.sun.jbi.i.dont.exist does not exist in the JBI Runtime.
]

BUILD SUCCESSFUL
IGNORE Total time: 0 seconds
Test setting the com.sun.jbi logger in the JBI Runtime and getting the value from Glassfish
Command set-jbi-runtime-logger executed successfully.
server-config.log-service.module-log-levels.property.com.sun.jbi = WARNING
Command set-jbi-runtime-logger executed successfully.
instance1-config.log-service.module-log-levels.property.com.sun.jbi = SEVERE
Command set-jbi-runtime-logger executed successfully.
rtcfg-cluster-config.log-service.module-log-levels.property.com.sun.jbi = FINER
Test setting the com.sun.jbi logger in Glassfish and getting it from the JBI Runtime
Listing all the loggers for reference before the test.
Listing runtime loggers
IGNORE   jmx connection info: (host=localhost, port=4851, secure=false, username=admin, target=server )
============================================================
Runtime Logger for Target "server"
============================================================
  com.sun.jbi=WARNING
  com.sun.jbi.framework=WARNING
  com.sun.jbi.management=WARNING
  com.sun.jbi.management.AdminService=WARNING
  com.sun.jbi.management.ConfigurationService=WARNING
  com.sun.jbi.management.DeploymentService=WARNING
  com.sun.jbi.management.InstallationService=WARNING
  com.sun.jbi.management.LoggingService=WARNING
  com.sun.jbi.messaging=WARNING
------------------------------------------------------------

BUILD SUCCESSFUL
IGNORE Total time: 0 seconds
Listing runtime loggers
IGNORE   jmx connection info: (host=localhost, port=4851, secure=false, username=admin, target=instance1 )
============================================================
Runtime Logger for Target "instance1"
============================================================
  com.sun.jbi=SEVERE
  com.sun.jbi.framework=SEVERE
  com.sun.jbi.management=SEVERE
  com.sun.jbi.management.AdminService=SEVERE
  com.sun.jbi.management.ConfigurationService=SEVERE
  com.sun.jbi.management.DeploymentService=SEVERE
  com.sun.jbi.management.InstallationService=SEVERE
  com.sun.jbi.management.LoggingService=SEVERE
  com.sun.jbi.messaging=SEVERE
------------------------------------------------------------

BUILD SUCCESSFUL
IGNORE Total time: 0 seconds
Listing runtime loggers
IGNORE   jmx connection info: (host=localhost, port=4851, secure=false, username=admin, target=rtcfg-cluster )
============================================================
Runtime Logger for Target "rtcfg-cluster"
============================================================
  com.sun.jbi=FINER
  com.sun.jbi.framework=FINER
  com.sun.jbi.management=FINER
  com.sun.jbi.management.AdminService=INFO
  com.sun.jbi.management.ConfigurationService=FINER
  com.sun.jbi.management.DeploymentService=FINER
  com.sun.jbi.management.InstallationService=FINER
  com.sun.jbi.management.LoggingService=FINER
  com.sun.jbi.messaging=FINER
------------------------------------------------------------

BUILD SUCCESSFUL
IGNORE Total time: 0 seconds
server-config.log-service.module-log-levels.property.com.sun.jbi = FINE
Listing runtime loggers
IGNORE   jmx connection info: (host=localhost, port=4851, secure=false, username=admin, target=server )
============================================================
Runtime Logger for Target "server"
============================================================
  com.sun.jbi=FINE
  com.sun.jbi.framework=FINE
  com.sun.jbi.management=FINE
  com.sun.jbi.management.AdminService=FINE
  com.sun.jbi.management.ConfigurationService=FINE
  com.sun.jbi.management.DeploymentService=FINE
  com.sun.jbi.management.InstallationService=FINE
  com.sun.jbi.management.LoggingService=FINE
  com.sun.jbi.messaging=FINE
------------------------------------------------------------

BUILD SUCCESSFUL
IGNORE Total time: 0 seconds
instance1-config.log-service.module-log-levels.property.com.sun.jbi = FINE
Listing runtime loggers
IGNORE   jmx connection info: (host=localhost, port=4851, secure=false, username=admin, target=instance1 )
============================================================
Runtime Logger for Target "instance1"
============================================================
  com.sun.jbi=FINE
  com.sun.jbi.framework=FINE
  com.sun.jbi.management=FINE
  com.sun.jbi.management.AdminService=FINE
  com.sun.jbi.management.ConfigurationService=FINE
  com.sun.jbi.management.DeploymentService=FINE
  com.sun.jbi.management.InstallationService=FINE
  com.sun.jbi.management.LoggingService=FINE
  com.sun.jbi.messaging=FINE
------------------------------------------------------------

BUILD SUCCESSFUL
IGNORE Total time: 0 seconds
rtcfg-cluster-config.log-service.module-log-levels.property.com.sun.jbi = FINE
Listing runtime loggers
IGNORE   jmx connection info: (host=localhost, port=4851, secure=false, username=admin, target=rtcfg-cluster )
============================================================
Runtime Logger for Target "rtcfg-cluster"
============================================================
  com.sun.jbi=FINE
  com.sun.jbi.framework=FINE
  com.sun.jbi.management=FINE
  com.sun.jbi.management.AdminService=INFO
  com.sun.jbi.management.ConfigurationService=FINE
  com.sun.jbi.management.DeploymentService=FINE
  com.sun.jbi.management.InstallationService=FINE
  com.sun.jbi.management.LoggingService=FINE
  com.sun.jbi.messaging=FINE
------------------------------------------------------------

BUILD SUCCESSFUL
IGNORE Total time: 0 seconds
Command stop-instance executed successfully.
Command stop-instance executed successfully.
Command delete-instance executed successfully.
Command delete-cluster executed successfully.
