jbiadmin00140 : Test fix for Issue 47 : JBI Deployment service does not handle plain-text exception thrown by ServiceUnitManager.deploy()

BUILD SUCCESSFUL
Total time: 3 seconds
IGNORE JBI_HOME is /export/dev/nikita/jsr208/jnet/open-esb/install/as8/jbi
IGNORE JBI_DOMAIN_ROOT is /export/dev/nikita/jsr208/jnet/open-esb/install/as8/domains/CAS
IGNORE jbi_instance_name is server
IGNORE jmx.provider is service:jmx:rmi:///jndi/rmi://mystique09.SFBay.Sun.COM:10789/management/rmi-jmx-connector

BUILD SUCCESSFUL
IGNORE Total time: 3 seconds
Installing a component
IGNORE  jmx connection info: (host=localhost, port=6951, secure=false, username=admin, target=server )
IGNORE file=/export/dev/nikita/jsr208/jnet/open-esb/runtime/esb-manage/bld/test-classes/dist/component-binding-1.jar
Install component succeeded. [
manage-binding-1
]

BUILD SUCCESSFUL
IGNORE Total time: 3 seconds
Starting a component
IGNORE jmx connection info: (host=localhost, port=6951, secure=false, username=admin, target=server )
IGNORE name=manage-binding-1
Start component succeeded. [
manage-binding-1
]

BUILD SUCCESSFUL
IGNORE Total time: 1 second
Installing a component
IGNORE jmx connection info: (host=localhost, port=6951, secure=false, username=admin, target=server )
IGNORE  file=/export/dev/nikita/jsr208/jnet/open-esb/runtime/esb-manage/bld/test-classes/dist/component-binding-2.jar
Install component succeeded. [
manage-binding-2
]

BUILD SUCCESSFUL
IGNORE Total time: 4 seconds
Starting a component
IGNORE jmx connection info: (host=localhost, port=6951, secure=false, username=admin, target=server )
IGNORE   name=manage-binding-2
Start component succeeded. [
manage-binding-2
]

BUILD SUCCESSFUL
IGNORE Total time: 1 second
Deploying a service assembly
IGNORE jmx connection info: (host=localhost, port=6951, secure=false, username=admin, target=server )
IGNORE  file=/export/dev/nikita/jsr208/jnet/open-esb/runtime/esb-manage/bld/test-classes/dist/deploy-sa.jar
Service assembly deployment partially succeeded. [
  WARNING:(JBIMA0404)Deployment of service assembly esbadmin00089-sa succeeded partially; some service units failed to deploy.
  Component: manage-binding-1
    ERROR:()Deployment of service unit esbadmin00089-su-1 FAILED.
]

BUILD SUCCESSFUL
IGNORE Total time: 3 seconds
============================================================
  List of Service Assemblies for Target "server"
============================================================
Name       : esbadmin00089-sa
State      : Shutdown
Description: Test SA for shasta/manage tests
Service units in this service assembly [2]
  Service unit : esbadmin00089-su-1
    State      : Unknown
    Deployed on: manage-binding-1
    Description: Test service unit #1
  Service unit : esbadmin00089-su-2
    State      : Shutdown
    Deployed on: manage-binding-2
    Description: Test service unit #2
------------------------------------------------------------

BUILD SUCCESSFUL
IGNORE Total time: 1 second
Undeploying a service assembly
IGNORE  jmx connection info: (host=localhost, port=6951, secure=false, username=admin, target=server )
IGNORE  name=esbadmin00089-sa
Service assembly undeployment succeeded. [
esbadmin00089-sa
]

BUILD SUCCESSFUL
IGNORE Total time: 2 seconds
============================================================
  List of Service Assemblies for Target "server"
============================================================
The Service assemblies were not found for the specified query.
------------------------------------------------------------

BUILD SUCCESSFUL
IGNORE Total time: 1 second
Stopping a component
IGNORE jmx connection info: (host=localhost, port=6951, secure=false, username=admin, target=server )
IGNORE  name=manage-binding-1
Stop component succeeded. [
manage-binding-1
]

BUILD SUCCESSFUL
IGNORE Total time: 1 second
Shutting down a component
IGNORE jmx connection info: (host=localhost, port=6951, secure=false, username=admin, target=server )
IGNORE name=manage-binding-1
Shutdown component succeeded. [
manage-binding-1
]

BUILD SUCCESSFUL
IGNORE Total time: 1 second
Uninstalling a component
IGNORE jmx connection info: (host=localhost, port=6951, secure=false, username=admin, target=server )
IGNORE   name=manage-binding-1
Uninstall component succeeded. [
manage-binding-1
]

BUILD SUCCESSFUL
IGNORE Total time: 1 second
Stopping a component
IGNORE jmx connection info: (host=localhost, port=6951, secure=false, username=admin, target=server )
IGNORE  name=manage-binding-2
Stop component succeeded. [
manage-binding-2
]

BUILD SUCCESSFUL
IGNORE Total time: 1 second
Shutting down a component
IGNORE  jmx connection info: (host=localhost, port=6951, secure=false, username=admin, target=server )
IGNORE  name=manage-binding-2
Shutdown component succeeded. [
manage-binding-2
]

BUILD SUCCESSFUL
IGNORE Total time: 1 second
Uninstalling a component
IGNORE  jmx connection info: (host=localhost, port=6951, secure=false, username=admin, target=server )
IGNORE name=manage-binding-2
Uninstall component succeeded. [
manage-binding-2
]

BUILD SUCCESSFUL
IGNORE Total time: 1 second
