jbiadmin01511 : -ve test for component upgrade. component throws during upgrade.
install the component
Installed component Upgrade-Component.
deploy the SAs in server and instance1
Deployed service assembly Upgrade-SA1.
Deployed service assembly Upgrade-SA2.
shut-down the component in server and instance1
Shut Down component Upgrade-Component.
upgrade the component
Upgrading a component
IGNORE  jmx connection info: (host=localhost, port=4951, secure=false, username=admin)
  name=Upgrade-Component
IGNORE  file=C:/work/cygwin/home/annies/external/open-esb/runtime/esb-manage/bld/test-classes/dist/upgrade-modified.jar

BUILD FAILED
IGNORE C:\work\cygwin\gf\jbi\bin\jbi_admin.xml:471: Upgrade component failed. [
Instance: CAS-cluster1-inst1
  ERROR:(JBIFW1193)Upgrade failed for Binding Upgrade-Component. The component upgrade method threw javax.jbi.JBIException with the message: <component-task-result xmlns="http://java.sun.com/xml/ns/jbi/management-message"><component-name>null</component-name><component-task-result-details><task-result-details><task-id>upgrade</task-id><task-result>FAILED</task-result><message-type>ERROR</message-type><task-status-msg><msg-loc-info><loc-token>JBIWHOOPS</loc-token><loc-message>Component Upgrade failed</loc-message></msg-loc-info></task-status-msg></task-result-details></component-task-result-details></component-task-result>
    Caused by:(JBIMA0000)<component-task-result xmlns="http://java.sun.com/xml/ns/jbi/management-message"><component-name>null</component-name><component-task-result-details><task-result-details><task-id>upgrade</task-id><task-result>FAILED</task-result><message-type>ERROR</message-type><task-status-msg><msg-loc-info><loc-token>JBIWHOOPS</loc-token><loc-message>Component Upgrade failed</loc-message></msg-loc-info></task-status-msg></task-result-details></component-task-result-details></component-task-result>
Instance: inst2
  ERROR:(JBIFW1193)Upgrade failed for Binding Upgrade-Component. The component upgrade method threw javax.jbi.JBIException with the message: <component-task-result xmlns="http://java.sun.com/xml/ns/jbi/management-message"><component-name>null</component-name><component-task-result-details><task-result-details><task-id>upgrade</task-id><task-result>FAILED</task-result><message-type>ERROR</message-type><task-status-msg><msg-loc-info><loc-token>JBIWHOOPS</loc-token><loc-message>Component Upgrade failed</loc-message></msg-loc-info></task-status-msg></task-result-details></component-task-result-details></component-task-result>
    Caused by:(JBIMA0000)<component-task-result xmlns="http://java.sun.com/xml/ns/jbi/management-message"><component-name>null</component-name><component-task-result-details><task-result-details><task-id>upgrade</task-id><task-result>FAILED</task-result><message-type>ERROR</message-type><task-status-msg><msg-loc-info><loc-token>JBIWHOOPS</loc-token><loc-message>Component Upgrade failed</loc-message></msg-loc-info></task-status-msg></task-result-details></component-task-result-details></component-task-result>
]

IGNORE Total time: 4 seconds
SU1 root has been restored in CAS-cluster1-inst1
SU1 root has been restored in inst2
verify that component install root has been replaced
Started component Upgrade-Component.
undeploy the SAs
Undeployed service assembly Upgrade-SA1.
Undeployed service assembly Upgrade-SA2.
shutdown the component
Shut Down component Upgrade-Component.
uninstall the component
Uninstalled component Upgrade-Component.
Command stop-instance executed successfully.
Command stop-instance executed successfully.
Command delete-instance executed successfully.