jbiadmin03004 : Test fix for CR 6532519 - not able to start system components in standalone instance
Starting domain ESBTest
Deleting cluster esbcluster1
Starting sun-http-binding on target esbcluster1
  ERROR:(UICMN2817)Component with name sun-http-binding is not registered in target esbcluster1.
CLI137 Command start-jbi-component failed.
Stopping domain ESBTest
