jbiadmin00015 : Test SA redeployment in instance.
install the good component test-component1
Installed component test-component1.
install the bad component, test-component2 that throws on deploy.
Installed component test-component2.
deploy SA deployment - will be partial success because su1 is deployed and su2 is not deployed
Deployment of service assembly test-sa-for-redeploy succeeded partially; some service units failed to deploy.
  Component: test-component2
    ERROR:(JBIWHOOPS)SU deploy failed
redeploy SA - will be partial success because su1 is already deployed and su2 will not be deployed
Deployment of service assembly test-sa-for-redeploy succeeded partially; some service units failed to deploy.
  Component: test-component1
    INFO:(JBIMA0407)Service unit test-sa-for-redeploy-su1 is already deployed.
  Component: test-component2
    ERROR:(JBIWHOOPS)SU deploy failed
redeploy SA - this would fail because SA contents are not identical
  ERROR:(JBIMA1411)Deployment archive for service assembly test-sa-for-redeploy is not identical to the archive which already exists in the domain.
shut-down the bad component - this would have been started by autostart
Shut Down component test-component2.
uninstall the bad component
Uninstalled component test-component2.
install the corrected component with the same name
Installed component test-component2.
redeploy the sa - redeploy after partial deploy
Deployed service assembly test-sa-for-redeploy.
redeploy the sa - redeploy after successful deploy
Deployed service assembly test-sa-for-redeploy.
cleanup
Undeployed service assembly test-sa-for-redeploy.
Shut Down component test-component2.
Uninstalled component test-component2.
Shut Down component test-component1.
Uninstalled component test-component1.