jbiadmin00132 : Test fix for CR 6515975
IGNORE JBI_HOME is D:/nikita/dev/jsr208/main/open-esb/install/as8/jbi
IGNORE JBI_DOMAIN_ROOT is D:/nikita/dev/jsr208/main/open-esb/install/as8/domains/CAS
IGNORE jbi_instance_name is server
IGNORE jmx.provider is service:jmx:rmi:///jndi/rmi://Mystique01:10789/management/rmi-jmx-connector

BUILD SUCCESSFUL
IGNORE Total time: 4 seconds
Installing a shared library
IGNORE jmx connection info: (host=localhost, port=6951, secure=true, username=admin, target=server )
IGNORE file=D:/nikita/dev/jsr208/main/open-esb/runtime/esb-manage/bld/test-classes/dist/shared-library.jar
Install shared library succeeded. [
TestSharedLibrary
]

BUILD SUCCESSFUL
IGNORE Total time: 9 seconds
Installing a shared library
IGNORE jmx connection info: (host=localhost, port=6951, secure=true, username=admin, target=instance1 )
IGNORE file=D:/nikita/dev/jsr208/main/open-esb/runtime/esb-manage/bld/test-classes/dist/shared-library.jar
Install shared library succeeded. [
TestSharedLibrary
]

BUILD SUCCESSFUL
IGNORE Total time: 3 seconds
============================================================
  List of Shared Libraries for Target "domain"
============================================================
Name       : TestSharedLibrary
State      : Installed
Description: This is a test shared library.
------------------------------------------------------------
Name       : sun-wsdl-library
State      : Installed
Description: This library provides WSDL 1.1/2.0 parsing support and message-wrapping utilities used to send WSDL 1.1-defined messages over the Normalized Message Router (NMR).
------------------------------------------------------------

BUILD SUCCESSFUL
IGNORE Total time: 2 seconds
============================================================
  List of Shared Libraries for Target "server"
============================================================
Name       : TestSharedLibrary
State      : Installed
Description: This is a test shared library.
------------------------------------------------------------
Name       : sun-wsdl-library
State      : Installed
Description: This library provides WSDL 1.1/2.0 parsing support and message-wrapping utilities used to send WSDL 1.1-defined messages over the Normalized Message Router (NMR).
------------------------------------------------------------

BUILD SUCCESSFUL
IGNORE Total time: 2 seconds
============================================================
  List of Shared Libraries for Target "instance1"
============================================================
Name       : TestSharedLibrary
State      : Installed
Description: This is a test shared library.
------------------------------------------------------------
Name       : sun-wsdl-library
State      : Installed
Description: This library provides WSDL 1.1/2.0 parsing support and message-wrapping utilities used to send WSDL 1.1-defined messages over the Normalized Message Router (NMR).
------------------------------------------------------------

BUILD SUCCESSFUL
IGNORE Total time: 2 seconds
Uninstalling a shared library
IGNORE jmx connection info: (host=localhost, port=6951, secure=true, username=admin, target=instance1 )
IGNORE  name=TestSharedLibrary
Uninstall shared library succeeded. [
TestSharedLibrary
]

BUILD SUCCESSFUL
IGNORE Total time: 2 seconds
============================================================
  List of Shared Libraries for Target "server"
============================================================
Name       : TestSharedLibrary
State      : Installed
Description: This is a test shared library.
------------------------------------------------------------
Name       : sun-wsdl-library
State      : Installed
Description: This library provides WSDL 1.1/2.0 parsing support and message-wrapping utilities used to send WSDL 1.1-defined messages over the Normalized Message Router (NMR).
------------------------------------------------------------

BUILD SUCCESSFUL
IGNORE Total time: 2 seconds
============================================================
  List of Shared Libraries for Target "instance1"
============================================================
Name       : sun-wsdl-library
State      : Installed
Description: This library provides WSDL 1.1/2.0 parsing support and message-wrapping utilities used to send WSDL 1.1-defined messages over the Normalized Message Router (NMR).
------------------------------------------------------------

BUILD SUCCESSFUL
IGNORE Total time: 2 seconds
Uninstalling a shared library
IGNORE jmx connection info: (host=localhost, port=6951, secure=true, username=admin, target=domain )
IGNORE  name=TestSharedLibrary
Uninstall shared library failed. [
  ERROR:(JBIMA1331)Shared Library TestSharedLibrary is still installed on some targets.
]

BUILD SUCCESSFUL
IGNORE Total time: 2 seconds
============================================================
  List of Shared Libraries for Target "server"
============================================================
Name       : TestSharedLibrary
State      : Installed
Description: This is a test shared library.
------------------------------------------------------------
Name       : sun-wsdl-library
State      : Installed
Description: This library provides WSDL 1.1/2.0 parsing support and message-wrapping utilities used to send WSDL 1.1-defined messages over the Normalized Message Router (NMR).
------------------------------------------------------------

BUILD SUCCESSFUL
IGNORE Total time: 2 seconds
============================================================
  List of Shared Libraries for Target "instance1"
============================================================
Name       : sun-wsdl-library
State      : Installed
Description: This library provides WSDL 1.1/2.0 parsing support and message-wrapping utilities used to send WSDL 1.1-defined messages over the Normalized Message Router (NMR).
------------------------------------------------------------

BUILD SUCCESSFUL
IGNORE Total time: 2 seconds
Uninstalling a shared library
IGNORE jmx connection info: (host=localhost, port=6951, secure=true, username=admin, target=server )
IGNORE  name=TestSharedLibrary
Uninstall shared library succeeded. [
TestSharedLibrary
]

BUILD SUCCESSFUL
IGNORE Total time: 3 seconds
============================================================
  List of Shared Libraries for Target "domain"
============================================================
Name       : TestSharedLibrary
State      : Installed
Description: This is a test shared library.
------------------------------------------------------------
Name       : sun-wsdl-library
State      : Installed
Description: This library provides WSDL 1.1/2.0 parsing support and message-wrapping utilities used to send WSDL 1.1-defined messages over the Normalized Message Router (NMR).
------------------------------------------------------------

BUILD SUCCESSFUL
IGNORE Total time: 2 seconds
Uninstalling a shared library
IGNORE jmx connection info: (host=localhost, port=6951, secure=true, username=admin, target=domain )
IGNORE  name=TestSharedLibrary
Uninstall shared library succeeded. [
TestSharedLibrary
]

BUILD SUCCESSFUL
IGNORE Total time: 2 seconds
============================================================
  List of Shared Libraries for Target "domain"
============================================================
Name       : sun-wsdl-library
State      : Installed
Description: This library provides WSDL 1.1/2.0 parsing support and message-wrapping utilities used to send WSDL 1.1-defined messages over the Normalized Message Router (NMR).
------------------------------------------------------------

BUILD SUCCESSFUL
IGNORE Total time: 2 seconds
============================================================
  List of Shared Libraries for Target "server"
============================================================
Name       : sun-wsdl-library
State      : Installed
Description: This library provides WSDL 1.1/2.0 parsing support and message-wrapping utilities used to send WSDL 1.1-defined messages over the Normalized Message Router (NMR).
------------------------------------------------------------

BUILD SUCCESSFUL
IGNORE Total time: 2 seconds
============================================================
  List of Shared Libraries for Target "instance1"
============================================================
Name       : sun-wsdl-library
State      : Installed
Description: This library provides WSDL 1.1/2.0 parsing support and message-wrapping utilities used to send WSDL 1.1-defined messages over the Normalized Message Router (NMR).
------------------------------------------------------------

BUILD SUCCESSFUL
IGNORE Total time: 2 seconds
