jbiadmin01606 : Tests the facade Component Configuration MBean for target=server with the new configuration schema.
IGNORE JBI_HOME is /Users/nikki/dev/jbi/open-esb/install/as8/jbi
IGNORE JBI_DOMAIN_ROOT is /Users/nikki/dev/jbi/open-esb/install/as8/domains/CAS
jbi_instance_name is server
IGNORE jmx.provider is service:jmx:rmi:///jndi/rmi://nikita-sawants-computer.local:8689/management/rmi-jmx-connector

BUILD SUCCESSFUL
IGNORE Total time: 0 seconds
Installing a component
IGNORE  jmx connection info: (host=localhost, port=4851, secure=false, username=admin, target=server )
IGNORE   file=/Users/nikki/dev/jbi/open-esb/runtime/esb-manage/bld/test-classes/dist/component-with-new-config-mbean.jar
Install component succeeded. [
manage-binding-1
]

BUILD SUCCESSFUL
IGNORE Total time: 0 seconds
Starting a component
IGNORE  jmx connection info: (host=localhost, port=4851, secure=false, username=admin, target=server )
  name=manage-binding-1
Start component succeeded. [
manage-binding-1
]

BUILD SUCCESSFUL
IGNORE Total time: 0 seconds
IGNORE JBI_HOME is /Users/nikki/dev/jbi/open-esb/install/as8/jbi
IGNORE JBI_DOMAIN_ROOT is /Users/nikki/dev/jbi/open-esb/install/as8/domains/CAS
jbi_instance_name is server
IGNORE jmx.provider is service:jmx:rmi:///jndi/rmi://nikita-sawants-computer.local:8689/management/rmi-jmx-connector
##### Result of  setAttribute = SUCCESS
##### Result of  getAttribute = Mystique01
##### Result of  setAttribute = SUCCESS
##### Result of  getAttribute = secret
##### Result of  setAttributes = SUCCESS
##### Result of  getAttributes = HostName=Magnetto, Port=6789, 
##### Result of  setConfigurationAttribute = <?xml version="1.0" encoding="UTF-8" standalone="yes"?><jbi-task version="1.0" xmlns="http://java.sun.com/xml/ns/jbi/management-message"><jbi-task-result><frmwk-task-result><frmwk-task-result-details><task-result-details><task-id>setAttribute</task-id><task-result>SUCCESS</task-result><message-type>INFO</message-type><task-status-msg><msg-loc-info><loc-token>JBIMA1806</loc-token><loc-message>Successfully set attribute Port on component manage-binding-1.</loc-message><loc-param>Port</loc-param><loc-param>manage-binding-1</loc-param></msg-loc-info></task-status-msg></task-result-details><locale>en</locale></frmwk-task-result-details></frmwk-task-result></jbi-task-result></jbi-task>
##### Result of  getAttribute = 10789
##### Result of  setConfigurationAttributes = <?xml version="1.0" encoding="UTF-8" standalone="yes"?><jbi-task version="1.0" xmlns="http://java.sun.com/xml/ns/jbi/management-message"><jbi-task-result><frmwk-task-result><frmwk-task-result-details><task-result-details><task-id>setAttributes</task-id><task-result>SUCCESS</task-result><message-type>INFO</message-type><task-status-msg><msg-loc-info><loc-token>JBIMA1804</loc-token><loc-message>Successfully set attributes [ HostName, Port ] on component manage-binding-1.</loc-message><loc-param>[ HostName, Port ]</loc-param><loc-param>manage-binding-1</loc-param></msg-loc-info></task-status-msg></task-result-details><locale>en</locale></frmwk-task-result-details></frmwk-task-result></jbi-task-result></jbi-task>
##### Result of  getAttributes = HostName=Wolverine, Port=1234, ProxyPassword=secret, 
##### Result of  getApplicationVariables = 
      Name : default Value : defValue  Type : STRING
##### Result of  addApplicationVariable = <?xml version="1.0" encoding="UTF-8" standalone="yes"?><jbi-task version="1.0" xmlns="http://java.sun.com/xml/ns/jbi/management-message"><jbi-task-result><frmwk-task-result><frmwk-task-result-details><task-result-details><task-id>addApplicationVariable</task-id><task-result>SUCCESS</task-result></task-result-details><locale>en</locale></frmwk-task-result-details></frmwk-task-result></jbi-task-result></jbi-task>
##### Result of  addApplicationVariable = <?xml version="1.0" encoding="UTF-8" standalone="yes"?><jbi-task version="1.0" xmlns="http://java.sun.com/xml/ns/jbi/management-message"><jbi-task-result><frmwk-task-result><frmwk-task-result-details><task-result-details><task-id>addApplicationVariable</task-id><task-result>SUCCESS</task-result></task-result-details><locale>en</locale></frmwk-task-result-details></frmwk-task-result></jbi-task-result></jbi-task>
##### Result of  getApplicationVariables = 
      Name : default Value : defValue  Type : STRING
      Name : SecurityCredential Value : http://www.sun.com  Type : PASSWORD
      Name : Location Value : http://www.sun.com  Type : STRING
##### Result of  setApplicationVariable = <?xml version="1.0" encoding="UTF-8" standalone="yes"?><jbi-task version="1.0" xmlns="http://java.sun.com/xml/ns/jbi/management-message"><jbi-task-result><frmwk-task-result><frmwk-task-result-details><task-result-details><task-id>setApplicationVariable</task-id><task-result>SUCCESS</task-result></task-result-details><locale>en</locale></frmwk-task-result-details></frmwk-task-result></jbi-task-result></jbi-task>
##### Result of  getApplicationVariables = 
      Name : default Value : defValue  Type : STRING
      Name : SecurityCredential Value : http://www.sun.com  Type : PASSWORD
      Name : Location Value : http://www.google.com  Type : STRING
##### Result of  deleteApplicationVariable = <?xml version="1.0" encoding="UTF-8" standalone="yes"?><jbi-task version="1.0" xmlns="http://java.sun.com/xml/ns/jbi/management-message"><jbi-task-result><frmwk-task-result><frmwk-task-result-details><task-result-details><task-id>deleteApplicationVariable</task-id><task-result>SUCCESS</task-result></task-result-details><locale>en</locale></frmwk-task-result-details></frmwk-task-result></jbi-task-result></jbi-task>
##### Result of  getApplicationVariables = 
      Name : default Value : defValue  Type : STRING
      Name : SecurityCredential Value : http://www.sun.com  Type : PASSWORD
##### Result of  queryApplicationConfigurationType = javax.management.openmbean.CompositeType(name=ApplicationConfigurationComposite,items=((itemName=configurationName,itemType=javax.management.openmbean.SimpleType(name=java.lang.String)),(itemName=connectionURL,itemType=javax.management.openmbean.SimpleType(name=java.lang.String)),(itemName=jndienv,itemType=javax.management.openmbean.ArrayType(name=[Ljava.lang.String;,dimension=1,elementType=javax.management.openmbean.SimpleType(name=java.lang.String))),(itemName=securityCredential,itemType=javax.management.openmbean.SimpleType(name=java.lang.String)),(itemName=securityPrincipal,itemType=javax.management.openmbean.SimpleType(name=java.lang.String))))
##### Result of  getApplicationConfigurations = 
Application Configuration : defaultConfig
	connectionURL      = http://www.sun.com
	securityPrincipal  = administrator
	securityCredential = abc
	jndienv = 
		[ env1=value1 env2=value2  ]
##### Result of  addApplicationConfiguration = <?xml version="1.0" encoding="UTF-8" standalone="yes"?><jbi-task version="1.0" xmlns="http://java.sun.com/xml/ns/jbi/management-message"><jbi-task-result><frmwk-task-result><frmwk-task-result-details><task-result-details><task-id>addApplicationConfiguration</task-id><task-result>SUCCESS</task-result></task-result-details><locale>en</locale></frmwk-task-result-details></frmwk-task-result></jbi-task-result></jbi-task>
##### Result of  getApplicationConfigurations = 
Application Configuration : defaultConfig
	connectionURL      = http://www.sun.com
	securityPrincipal  = administrator
	securityCredential = abc
	jndienv = 
		[ env1=value1 env2=value2  ]
Application Configuration : newAppConfig
	connectionURL      = http://www.google.com
	securityPrincipal  = admin
	securityCredential = adminadmin
	jndienv = 
		[ var1 var2 var3  ]
##### Result of  setApplicationConfiguration = <?xml version="1.0" encoding="UTF-8" standalone="yes"?><jbi-task version="1.0" xmlns="http://java.sun.com/xml/ns/jbi/management-message"><jbi-task-result><frmwk-task-result><frmwk-task-result-details><task-result-details><task-id>setApplicationConfiguration</task-id><task-result>SUCCESS</task-result></task-result-details><locale>en</locale></frmwk-task-result-details></frmwk-task-result></jbi-task-result></jbi-task>
##### Result of  getApplicationConfigurations = 
Application Configuration : defaultConfig
	connectionURL      = http://www.sun.com
	securityPrincipal  = administrator
	securityCredential = abc
	jndienv = 
		[ env1=value1 env2=value2  ]
Application Configuration : newAppConfig
	connectionURL      = http://www.youtube.com
	securityPrincipal  = su
	securityCredential = suPass
	jndienv = 
		[ var1=value1 var2=value2 var3=value3  ]
##### Result of  deleteApplicationConfiguration = <?xml version="1.0" encoding="UTF-8" standalone="yes"?><jbi-task version="1.0" xmlns="http://java.sun.com/xml/ns/jbi/management-message"><jbi-task-result><frmwk-task-result><frmwk-task-result-details><task-result-details><task-id>deleteApplicationConfiguration</task-id><task-result>SUCCESS</task-result></task-result-details><locale>en</locale></frmwk-task-result-details></frmwk-task-result></jbi-task-result></jbi-task>
##### Result of  getApplicationConfigurations = 
Application Configuration : defaultConfig
	connectionURL      = http://www.sun.com
	securityPrincipal  = administrator
	securityCredential = abc
	jndienv = 
		[ env1=value1 env2=value2  ]

BUILD SUCCESSFUL
IGNORE Total time: 2 seconds
Creating application configuration
IGNORE   jmx connection info: (host=localhost, port=4851, secure=false, username=admin, target= )
Add application configuration failed. [
  ERROR:(JBIMA1832)"securityPrincipal" is a required application configuration parameter for component manage-binding-1, this field is either null or not defined in configuration testConfig.
]

BUILD SUCCESSFUL
IGNORE Total time: 0 seconds
Listing application configurations
IGNORE   jmx connection info: (host=localhost, port=4851, secure=false, username=admin, target= )
=====================================================================
Application Configuration for "manage-binding-1" on Target "server"
=====================================================================
Application Configuration Name : defaultConfig
	configurationName=defaultConfig
	connectionURL=http://www.sun.com
	jndienv:
		[0] env1=value1
		[1] env2=value2
	securityCredential=abc
	securityPrincipal=administrator

BUILD SUCCESSFUL
IGNORE Total time: 0 seconds
Creating application configuration
IGNORE   jmx connection info: (host=localhost, port=4851, secure=false, username=admin, target= )
Add application configuration succeeded.

BUILD SUCCESSFUL
IGNORE Total time: 0 seconds
Listing application configurations
IGNORE   jmx connection info: (host=localhost, port=4851, secure=false, username=admin, target= )
=====================================================================
Application Configuration for "manage-binding-1" on Target "server"
=====================================================================
Application Configuration Name : testConfig
	configurationName=testConfig
	connectionURL=jndi://
	jndienv:
		[0] com.sonicsw.jndi.mfcontext.domain=Domain1
		[1] com.sonicsw.jndi.mfcontext.idleTimeout=60000 
	securityCredential=myPassword
	securityPrincipal=Administrator
Application Configuration Name : defaultConfig
	configurationName=defaultConfig
	connectionURL=http://www.sun.com
	jndienv:
		[0] env1=value1
		[1] env2=value2
	securityCredential=abc
	securityPrincipal=administrator

BUILD SUCCESSFUL
IGNORE Total time: 0 seconds
Updating application configuration
IGNORE   jmx connection info: (host=localhost, port=4851, secure=false, username=admin, target= )
Set application configuration succeeded.

BUILD SUCCESSFUL
IGNORE Total time: 0 seconds
Listing application configurations
IGNORE   jmx connection info: (host=localhost, port=4851, secure=false, username=admin, target= )
=====================================================================
Application Configuration for "manage-binding-1" on Target "server"
=====================================================================
Application Configuration Name : testConfig
	configurationName=testConfig
	connectionURL=http://
	jndienv:
		[0] com.sonicsw.jndi.mfcontext.domain=Domain1
		[1] com.sonicsw.jndi.mfcontext.idleTimeout=60000 
	securityCredential=${sonic_sec_principal}
	securityPrincipal=admin
Application Configuration Name : defaultConfig
	configurationName=defaultConfig
	connectionURL=http://www.sun.com
	jndienv:
		[0] env1=value1
		[1] env2=value2
	securityCredential=abc
	securityPrincipal=administrator

BUILD SUCCESSFUL
IGNORE Total time: 0 seconds
Stopping a component
IGNORE  jmx connection info: (host=localhost, port=4851, secure=false, username=admin, target=server )
  name=manage-binding-1
Stop component succeeded. [
manage-binding-1
]

BUILD SUCCESSFUL
IGNORE Total time: 0 seconds
Shutting down a component
IGNORE  jmx connection info: (host=localhost, port=4851, secure=false, username=admin, target=server )
  name=manage-binding-1
Shutdown component succeeded. [
manage-binding-1
]

BUILD SUCCESSFUL
IGNORE Total time: 0 seconds
Uninstalling a component
IGNORE  jmx connection info: (host=localhost, port=4851, secure=false, username=admin, target=ccfg-cluster )
  name=manage-binding-1
Uninstall component succeeded. [
manage-binding-1
]

BUILD SUCCESSFUL
IGNORE Total time: 0 seconds