jbiadmin00130 : Test fix for CR 6514733
IGNORE JBI_HOME is D:/nikita/dev/jsr208/main/open-esb/install/as8/jbi
IGNORE JBI_DOMAIN_ROOT is D:/nikita/dev/jsr208/main/open-esb/install/as8/domains/CAS
IGNORE jbi_instance_name is server
IGNORE jmx.provider is service:jmx:rmi:///jndi/rmi://Mystique01:10789/management/rmi-jmx-connector

BUILD SUCCESSFUL
IGNORE Total time: 2 seconds
Installing a component
IGNORE jmx connection info: (host=localhost, port=6951, secure=true, username=admin, target=instance1 )
IGNORE file=D:/nikita/dev/jsr208/main/open-esb/install/as8/jbi/components/bindings/filebinding/installer/filebinding.jar
Install component succeeded. [
SunFileBinding
]

BUILD SUCCESSFUL
IGNORE Total time: 3 seconds
Uninstalling a component
IGNORE jmx connection info: (host=localhost, port=6951, secure=true, username=admin, target=instance1 )
IGNORE name=SunFileBinding
Uninstall component succeeded. [
SunFileBinding
]

BUILD SUCCESSFUL
IGNORE Total time: 2 seconds
============================================================
  List of Binding Components for Target "domain"
============================================================
Name       : SunFileBinding
State      : Shutdown
Description: Binding to send messages to sample engine.
------------------------------------------------------------
Name       : sun-http-binding
State      : Shutdown
Description: HTTP binding component. Provides message processing capabilities over HTTP protocol in a JBI 1.0 compliant environment.
------------------------------------------------------------

BUILD SUCCESSFUL
IGNORE Total time: 2 seconds
Uninstalling a component
IGNORE jmx connection info: (host=localhost, port=6951, secure=true, username=admin, target=domain )
IGNORE name=SunFileBinding
Uninstall component succeeded. [
SunFileBinding
]

BUILD SUCCESSFUL
IGNORE Total time: 3 seconds
============================================================
  List of Binding Components for Target "domain"
============================================================
Name       : sun-http-binding
State      : Shutdown
Description: HTTP binding component. Provides message processing capabilities over HTTP protocol in a JBI 1.0 compliant environment.
------------------------------------------------------------

BUILD SUCCESSFUL
IGNORE Total time: 2 seconds
Installing a component
IGNORE jmx connection info: (host=localhost, port=6951, secure=true, username=admin, target=instance1 )
IGNORE file=D:/nikita/dev/jsr208/main/open-esb/install/as8/jbi/components/bindings/filebinding/installer/filebinding.jar
Install component succeeded. [
SunFileBinding
]

BUILD SUCCESSFUL
IGNORE Total time: 3 seconds
Uninstalling a component
IGNORE jmx connection info: (host=localhost, port=6951, secure=true, username=admin, target=instance1 )
IGNORE name=SunFileBinding
Uninstall component succeeded. [
SunFileBinding
]

BUILD SUCCESSFUL
IGNORE Total time: 2 seconds
============================================================
  List of Binding Components for Target "domain"
============================================================
Name       : sun-http-binding
State      : Shutdown
Description: HTTP binding component. Provides message processing capabilities over HTTP protocol in a JBI 1.0 compliant environment.
------------------------------------------------------------

BUILD SUCCESSFUL
IGNORE Total time: 2 seconds
