testname is jbiadmin01202
list, start, stop test for cluster
sun-wsdl-library
Command list-jbi-shared-libraries executed successfully.
Nothing to list.
Command list-jbi-binding-components executed successfully.
sun-javaee-engine
Command list-jbi-service-engines executed successfully.
  ERROR:(JBIMA1323)Component sun-javaee-engine has been previously installed on target CAS-cluster1.
CLI137 Command install-jbi-component failed.
deploy test on cluster
Nothing to list.
Command list-jbi-service-engines executed successfully.
Deployed service assembly system-comps-javaee-su-sa.
sun-javaee-engine
Command list-jbi-service-engines executed successfully.
undeploy, uninstall test on cluster
Undeployed service assembly system-comps-javaee-su-sa.
Stopped component sun-javaee-engine.
Shut Down component sun-javaee-engine.
Uninstalled component sun-javaee-engine.
testing install from domain
Installing a component
IGNORE  jmx connection info: (host=localhost, port=5011, secure=true, username=admin, target=CAS-cluster1 )
  name=sun-javaee-engine
Install component succeeded. [
sun-javaee-engine
]

BUILD SUCCESSFUL
IGNORE Total time: 11 seconds
Shut Down component sun-javaee-engine.
Uninstalled component sun-javaee-engine.
Uninstalled component sun-javaee-engine.
Stopped component sun-javaee-engine.
Shut Down component sun-javaee-engine.
Uninstalled component sun-javaee-engine.
reinstall test on cluster
Installed component sun-javaee-engine.
