jbiadmin01400 - Test inheritence of global configuration in the Runtime Configuration MBeans
IGNORE JBI_HOME is D:/nikita/dev/jsr208/jnet/open-esb/install/as8/jbi
IGNORE JBI_DOMAIN_ROOT is D:/nikita/dev/jsr208/jnet/open-esb/install/as8/domains/CAS
IGNORE jbi_instance_name is server
IGNORE jmx.provider is service:jmx:rmi:///jndi/rmi://Mystique01:10789/management/rmi-jmx-connector
-----------------------------------------------------------------------
 Get the value of heartBeatInterval for target=domain             
##### Value of attribute heartBeatInterval = 5500
-----------------------------------------------------------------------
 Get the value of heartBeatInterval for target=server             
##### Value of attribute heartBeatInterval = 5500
-----------------------------------------------------------------------
 Get the value of heartBeatInterval for target=instance1          
##### Value of attribute heartBeatInterval = 5500
-----------------------------------------------------------------------
 Set the value of heartBeatInterval to 8000 for target=domain     
##### Value of attribute heartBeatInterval has been set to 8000
-----------------------------------------------------------------------
 Get the value of heartBeatInterval for target=server             
 Value should be 8000 since global domain value updated.               
##### Value of attribute heartBeatInterval = 8000
-----------------------------------------------------------------------
 Get the value of heartBeatInterval for target=instance1          
 Value should be 8000 since global domain value updated.               
##### Value of attribute heartBeatInterval = 8000
-----------------------------------------------------------------------
 Override the value of heartBeatInterval for target=instance1     
 Setting value to 9000                                                 
##### Value of attribute heartBeatInterval has been set to 9000
-----------------------------------------------------------------------
 Get the value of heartBeatInterval for target=server             
 Value should be 8000 since global domain value inherited              
##### Value of attribute heartBeatInterval = 8000
-----------------------------------------------------------------------
 Get the value of heartBeatInterval for target=instance1          
 Value should be 9000 since global domain value overriden              
##### Value of attribute heartBeatInterval = 9000
-----------------------------------------------------------------------
 Set the value of heartBeatInterval to 5000 for target=domain     
##### Value of attribute heartBeatInterval has been set to 5000
-----------------------------------------------------------------------
 Get the value of heartBeatInterval for target=server             
 Value should be 5000 since global domain value inherited              
##### Value of attribute heartBeatInterval = 5000
-----------------------------------------------------------------------
 Get the value of heartBeatInterval for target=instance1          
 Value should be 9000 since global domain value overriden              
##### Value of attribute heartBeatInterval = 9000
-----------------------------------------------------------------------
 Revert the value of heartBeatInterval for target=instance1       
 Setting value to 5000 ( similar to load default )                     
##### Value of attribute heartBeatInterval has been set to 5000
-----------------------------------------------------------------------
 Get the value of heartBeatInterval for target=instance1          
 Value should be 5000 since global domain value inherited now          
##### Value of attribute heartBeatInterval = 5000
-----------------------------------------------------------------------
 Set the value of heartBeatInterval to 7000 for target=domain     
##### Value of attribute heartBeatInterval has been set to 7000
-----------------------------------------------------------------------
 Get the value of heartBeatInterval for target=server             
 Value should be 7000 since global domain value inherited              
##### Value of attribute heartBeatInterval = 7000
-----------------------------------------------------------------------
 Get the value of heartBeatInterval for target=instance1          
 Value should be 7000 since global domain value inherited              
##### Value of attribute heartBeatInterval = 7000

BUILD SUCCESSFUL
IGNORE Total time: 5 seconds
