jbiadmin00141: Tests fix for Issue 292 : list service assemblies installed to a component for target = domain

BUILD SUCCESSFUL
IGNORE   Total time: 1 second

BUILD SUCCESSFUL
IGNORE   Total time: 1 second
Installing a component
IGNORE (host=localhost, port=4851, secure=false, username=admin, target=server )
IGNORE   file=/Users/nikki/dev/jbi/open-esb/runtime/esb-manage/bld/test-classes/dist/component-binding1.jar
Install component succeeded. [
manage-binding-1
]

BUILD SUCCESSFUL
IGNORE   Total time: 1 second
Starting a component
IGNORE (host=localhost, port=4851, secure=false, username=admin, target=server )
  name=manage-binding-1
Start component succeeded. [
manage-binding-1
]

BUILD SUCCESSFUL
IGNORE   Total time: 0 seconds
Installing a component
IGNORE (host=localhost, port=4851, secure=false, username=admin, target=server )
IGNORE   file=/Users/nikki/dev/jbi/open-esb/runtime/esb-manage/bld/test-classes/dist/component-binding2.jar
Install component succeeded. [
manage-binding-2
]

BUILD SUCCESSFUL
IGNORE   Total time: 0 seconds
Starting a component
IGNORE (host=localhost, port=4851, secure=false, username=admin, target=server )
  name=manage-binding-2
Start component succeeded. [
manage-binding-2
]

BUILD SUCCESSFUL
IGNORE   Total time: 0 seconds
Installing a component
IGNORE (host=localhost, port=4851, secure=false, username=admin, target=instance1 )
IGNORE   file=/Users/nikki/dev/jbi/open-esb/runtime/esb-manage/bld/test-classes/dist/component-binding2.jar
Install component succeeded. [
manage-binding-2
]

BUILD SUCCESSFUL
IGNORE   Total time: 0 seconds
Starting a component
IGNORE (host=localhost, port=4851, secure=false, username=admin, target=instance1 )
  name=manage-binding-2
Start component succeeded. [
manage-binding-2
]

BUILD SUCCESSFUL
IGNORE   Total time: 0 seconds
Installing a component
IGNORE (host=localhost, port=4851, secure=false, username=admin, target=instance1 )
IGNORE   file=/Users/nikki/dev/jbi/open-esb/runtime/esb-manage/bld/test-classes/dist/component-binding1.jar
Install component succeeded. [
manage-binding-1
]

BUILD SUCCESSFUL
IGNORE   Total time: 0 seconds
Starting a component
IGNORE (host=localhost, port=4851, secure=false, username=admin, target=instance1 )
  name=manage-binding-1
Start component succeeded. [
manage-binding-1
]

BUILD SUCCESSFUL
IGNORE   Total time: 0 seconds
Deploying a service assembly
IGNORE (host=localhost, port=4851, secure=false, username=admin, target=server )
IGNORE   file=/Users/nikki/dev/jbi/open-esb/runtime/esb-manage/bld/test-classes/dist/deploy-sa.jar
Service assembly deployment succeeded. [
esbadmin00089-sa
]

BUILD SUCCESSFUL
IGNORE   Total time: 1 second
============================================================
  List of Service Assemblies for Target "server"
============================================================
Name       : esbadmin00089-sa
State      : Shutdown
Description: Test SA for shasta/manage tests
Service units in this service assembly [2]
  Service unit : esbadmin00089-su-1
    State      : Shutdown
    Deployed on: manage-binding-1
    Description: Test service unit #1
  Service unit : esbadmin00089-su-2
    State      : Shutdown
    Deployed on: manage-binding-2
    Description: Test service unit #2
------------------------------------------------------------

BUILD SUCCESSFUL
IGNORE   Total time: 0 seconds
Deploying a service assembly
IGNORE (host=localhost, port=4851, secure=false, username=admin, target=instance1 )
IGNORE   file=/Users/nikki/dev/jbi/open-esb/runtime/esb-manage/bld/test-classes/dist/deploy-sa-renamed.jar
Service assembly deployment succeeded. [
TestServiceAssembly
]

BUILD SUCCESSFUL
IGNORE   Total time: 1 second
============================================================
  List of Service Assemblies for Target "instance1"
============================================================
Name       : TestServiceAssembly
State      : Shutdown
Description: Test SA for shasta/manage tests
Service units in this service assembly [2]
  Service unit : TestServiceAssembly-su-1
    State      : Shutdown
    Deployed on: manage-binding-1
    Description: Test service unit #1
  Service unit : TestServiceAssembly-su-2
    State      : Shutdown
    Deployed on: manage-binding-2
    Description: Test service unit #2
------------------------------------------------------------

BUILD SUCCESSFUL
IGNORE   Total time: 0 seconds
============================================================
  List of Service Assemblies for Target "domain"
============================================================
Name       : TestServiceAssembly
State      : Shutdown
Description: Test SA for shasta/manage tests
Service units in this service assembly [2]
  Service unit : TestServiceAssembly-su-1
    State      : Shutdown
    Deployed on: manage-binding-1
    Description: Test service unit #1
  Service unit : TestServiceAssembly-su-2
    State      : Shutdown
    Deployed on: manage-binding-2
    Description: Test service unit #2
------------------------------------------------------------
Name       : esbadmin00089-sa
State      : Shutdown
Description: Test SA for shasta/manage tests
Service units in this service assembly [2]
  Service unit : esbadmin00089-su-1
    State      : Shutdown
    Deployed on: manage-binding-1
    Description: Test service unit #1
  Service unit : esbadmin00089-su-2
    State      : Shutdown
    Deployed on: manage-binding-2
    Description: Test service unit #2
------------------------------------------------------------

BUILD SUCCESSFUL
IGNORE   Total time: 0 seconds
Undeploying a service assembly
IGNORE (host=localhost, port=4851, secure=false, username=admin, target=server )
  name=esbadmin00089-sa
Service assembly undeployment succeeded. [
esbadmin00089-sa
]

BUILD SUCCESSFUL
IGNORE   Total time: 0 seconds
Undeploying a service assembly
IGNORE (host=localhost, port=4851, secure=false, username=admin, target=server )
  name=TestServiceAssembly
Service assembly undeployment succeeded. [
TestServiceAssembly
]

BUILD SUCCESSFUL
IGNORE Total time: 0 seconds
Stopping a component
IGNORE (host=localhost, port=4851, secure=false, username=admin, target=server )
  name=manage-binding-1
Stop component succeeded. [
manage-binding-1
]

BUILD SUCCESSFUL
IGNORE   Total time: 0 seconds
Shutting down a component
IGNORE (host=localhost, port=4851, secure=false, username=admin, target=server )
  name=manage-binding-1
Shutdown component succeeded. [
manage-binding-1
]

BUILD SUCCESSFUL
IGNORE   Total time: 0 seconds
Uninstalling a component
IGNORE (host=localhost, port=4851, secure=false, username=admin, target=server )
  name=manage-binding-1
Uninstall component succeeded. [
manage-binding-1
]

BUILD SUCCESSFUL
IGNORE   Total time: 0 seconds
Stopping a component
IGNORE (host=localhost, port=4851, secure=false, username=admin, target=server )
  name=manage-binding-2
Stop component succeeded. [
manage-binding-2
]

BUILD SUCCESSFUL
IGNORE   Total time: 0 seconds
Shutting down a component
IGNORE (host=localhost, port=4851, secure=false, username=admin, target=server )
  name=manage-binding-2
Shutdown component succeeded. [
manage-binding-2
]

BUILD SUCCESSFUL
IGNORE   Total time: 0 seconds
Uninstalling a component
IGNORE (host=localhost, port=4851, secure=false, username=admin, target=server )
  name=manage-binding-2
Uninstall component succeeded. [
manage-binding-2
]

BUILD SUCCESSFUL
IGNORE   Total time: 0 seconds
Stopping a component
IGNORE (host=localhost, port=4851, secure=false, username=admin, target=instance1 )
  name=manage-binding-1
Stop component succeeded. [
manage-binding-1
]

BUILD SUCCESSFUL
IGNORE   Total time: 0 seconds
Shutting down a component
IGNORE (host=localhost, port=4851, secure=false, username=admin, target=instance1 )
  name=manage-binding-1
Shutdown component succeeded. [
manage-binding-1
]

BUILD SUCCESSFUL
IGNORE   Total time: 0 seconds
Uninstalling a component
IGNORE (host=localhost, port=4851, secure=false, username=admin, target=instance1 )
  name=manage-binding-1
Uninstall component succeeded. [
manage-binding-1
]

BUILD SUCCESSFUL
IGNORE Total time: 0 seconds
Stopping a component
IGNORE (host=localhost, port=4851, secure=false, username=admin, target=instance1 )
  name=manage-binding-2
Stop component succeeded. [
manage-binding-2
]

BUILD SUCCESSFUL
IGNORE   Total time: 0 seconds
Shutting down a component
IGNORE (host=localhost, port=4851, secure=false, username=admin, target=instance1 )
  name=manage-binding-2
Shutdown component succeeded. [
manage-binding-2
]

BUILD SUCCESSFUL
IGNORE   Total time: 0 seconds
Uninstalling a component
IGNORE (host=localhost, port=4851, secure=false, username=admin, target=instance1 )
  name=manage-binding-2
Uninstall component succeeded. [
manage-binding-2
]

BUILD SUCCESSFUL
IGNORE Total time: 0 seconds
