jbiadmin00114 : Test fixes for 6505606 and 6504358
IGNORE JBI_HOME is D:/nikita/dev/jsr208/main/open-esb/install/as8/jbi
IGNORE JBI_DOMAIN_ROOT is D:/nikita/dev/jsr208/main/open-esb/install/as8/domains/CAS
IGNORE jbi_instance_name is server
IGNORE jmx.provider is service:jmx:rmi:///jndi/rmi://Mystique01:10789/management/rmi-jmx-connector

BUILD SUCCESSFUL
IGNORE Total time: 2 seconds
IGNORE asant -emacs -q -f D:/nikita/dev/jsr208/main/open-esb/install/as8/jbi/bin/jbi_admin.xml -Djbi.username=admin -Djbi.password=adminadmin -Djbi.port=6951 -Djbi.secure=true -Djbi.task.fail.on.error=false
Starting a service assembly
IGNORE  jmx connection info: (host=localhost, port=6951, secure=true, username=admin, target=server )
IGNORE name=bogus-sa
Start service assembly failed. [
  ERROR:(JBIMA1406)Service assembly bogus-sa is not deployed on target server.
]

BUILD SUCCESSFUL
IGNORE Total time: 2 seconds
Stopping a service assembly
IGNORE  jmx connection info: (host=localhost, port=6951, secure=true, username=admin, target=server )
IGNORE  name=bogus-sa
Stop service assembly failed. [
  ERROR:(JBIMA1406)Service assembly bogus-sa is not deployed on target server.
]

BUILD SUCCESSFUL
IGNORE Total time: 2 seconds
Shutting down a service assembly
IGNORE  jmx connection info: (host=localhost, port=6951, secure=true, username=admin, target=server )
IGNORE  name=bogus-sa
Shutdown service assembly failed. [
  ERROR:(JBIMA1406)Service assembly bogus-sa is not deployed on target server.
]

BUILD SUCCESSFUL
IGNORE Total time: 2 seconds
Installing a component
IGNORE  jmx connection info: (host=localhost, port=6951, secure=true, username=admin, target=domain )
IGNORE  file=D:/nikita/dev/jsr208/main/open-esb/runtime/esb-manage/bld/test-classes/dist/component-binding1.jar
Install component succeeded. [
manage-binding-1
]

BUILD SUCCESSFUL
IGNORE Total time: 20 seconds
Starting a component
IGNORE  jmx connection info: (host=localhost, port=5651, secure=true, username=admin, target=domain )
IGNORE  name=manage-binding-1
Start component failed. [
  ERROR:(JBIMA1001)Operation start is not supported for target domain.
]

BUILD SUCCESSFUL
IGNORE Total time: 9 seconds
Stopping a component
IGNORE  jmx connection info: (host=localhost, port=5651, secure=true, username=admin, target=domain )
IGNORE  name=manage-binding-1
Stop component failed. [
  ERROR:(JBIMA1001)Operation stop is not supported for target domain.
]

BUILD SUCCESSFUL
IGNORE Total time: 14 seconds
Shutting down a component
IGNORE  jmx connection info: (host=localhost, port=5651, secure=true, username=admin, target=domain )
IGNORE  name=manage-binding-1
Shutdown component failed. [
  ERROR:(JBIMA1001)Operation shutDown is not supported for target domain.
]

BUILD SUCCESSFUL
IGNORE  Total time: 2 seconds
Uninstalling a component
IGNORE    jmx connection info: (host=localhost, port=6951, secure=true, username=admin, target=domain )
IGNORE    name=manage-binding-1
Uninstall component succeeded. [
manage-binding-1
]

BUILD SUCCESSFUL
IGNORE Total time: 2 seconds
