jbiem00000 - Test event management forwarding MBeans send event from DAS
IGNORE JBI_HOME is /bld/open-esb/install/as8/jbi
IGNORE JBI_DOMAIN_ROOT is /bld/open-esb/install/as8/domains/CAS
IGNORE jbi_instance_name is server
IGNORE jmx.provider is service:jmx:rmi:///jndi/rmi://RDamir-tecra.stc.com:8689/management/rmi-jmx-connector
IGNORE deployment of test support application successful
Added notification listener
Invoked test send event
verifying received event data
 element Server Type value : equal to INTEGRATION (OK)
 element Component Type value : equal to EventManagement (OK)
 element event Type value : equal to Alert (OK)
 element Severity value value : equal to 1 (OK)
 element Message Code value : equal to CUSTOM-00001 (OK)
 element Message Details value : equal to This is single event test (OK)
##### Result of  test event forwarding passed
Removed notification listener
undeployment of test support application successful

BUILD SUCCESSFUL
IGNORE Total time: 4 seconds
