
-------------------------------------------------------------------
 Test set-jbi-component-configuration
-------------------------------------------------------------------
set-jbi-component-configuration --target domain--component=sun-http-binding OutboundThreads=5
  ERROR:(UICMN2846)Target "domain" is not a supported target type for this operation.

-------------------------------------------------------------------
 Test create-jbi-application-configuration
-------------------------------------------------------------------
create-jbi-application-configuration --target domain --component=cli-config-binding --configname=testConfig testConfigData.properties
  ERROR:(UICMN3005)The target domain is not supported by component configuration operations.

-------------------------------------------------------------------
 Test update-jbi-application-configuration
-------------------------------------------------------------------
update-jbi-application-configuration --target domain --component=cli-config-binding --configname=testConfig testConfigData.properties
  ERROR:(UICMN3005)The target domain is not supported by component configuration operations.

-------------------------------------------------------------------
 Test create-jbi-application-variable
-------------------------------------------------------------------
create-jbi-application-variable --target domain --component=cli-config-binding FirstName=[String]Tom
  ERROR:(UICMN3005)The target domain is not supported by component configuration operations.

-------------------------------------------------------------------
 Test update-jbi-application-variable
-------------------------------------------------------------------
update-jbi-application-variable --target domain --component=cli-config-binding FirstName=[String]Steve,LastName=Jones
  ERROR:(UICMN3005)The target domain is not supported by component configuration operations.

-------------------------------------------------------------------
 Test delete-jbi-application-variable
-------------------------------------------------------------------
delete-jbi-application-configuration --target domain --component=cli-config-binding testConfig
  ERROR:(UICMN3005)The target domain is not supported by component configuration operations.

-------------------------------------------------------------------
 Test delete-jbi-application-configuration
-------------------------------------------------------------------
delete-jbi-application-configuration --target domain --component=cli-config-binding testConfig
  ERROR:(UICMN3005)The target domain is not supported by component configuration operations.

-------------------------------------------------------------------
 Test list-jbi-application-configuration
-------------------------------------------------------------------
list-jbi-application-configurations --target domain --component=cli-config-binding
  ERROR:(UICMN3005)The target domain is not supported by component configuration operations.

-------------------------------------------------------------------
 Test list-jbi-application-variables
-------------------------------------------------------------------
list-jbi-application-variables --target domain --component=cli-config-binding
  ERROR:(UICMN3005)The target domain is not supported by component configuration operations.

-------------------------------------------------------------------
 Test show-jbi-application-configuration
-------------------------------------------------------------------
show-jbi-application-configuration --target domain --component=cli-config-binding testConfig
  ERROR:(UICMN3005)The target domain is not supported by component configuration operations.

-------------------------------------------------------------------
 Test show-jbi-statistics
-------------------------------------------------------------------
show-jbi-statistics --target domain --framework
  ERROR:(UICMN3101)Target "domain" is not a supported target type for this operation.

-------------------------------------------------------------------
 Test verify-jbi-application-environment
-------------------------------------------------------------------
verify-jbi-application-environment --target domain sa2.jar
  ERROR:(UICMN3005)The target domain is not supported by component configuration operations.

-------------------------------------------------------------------
 Test export-jbi-application-environment
-------------------------------------------------------------------
export-jbi-application-environment --target domain SA2
  ERROR:(UICMN3005)The target domain is not supported by component configuration operations.
