
-------------------------------------------------------------------
 Start Test : jbi-admin-cli00023
 Description: Tests uninstall force with corrupted install_root
-------------------------------------------------------------------
-------------------------------------------------------------------
 Building the test artifacts
-------------------------------------------------------------------

-------------------------------------------------------------------
 Install shared library cli_test_sns1
-------------------------------------------------------------------
install-jbi-shared-library cli-test-sns1.jar
Installed shared library cli_test_sns1.

-------------------------------------------------------------------
 Install binding component cli_test_binding1
-------------------------------------------------------------------
install-jbi-component cli-test-binding1.jar
Installed component cli_test_binding1.

-------------------------------------------------------------------
 Shut Down the component cli_test_binding1
-------------------------------------------------------------------
shut-down-jbi-component cli_test_binding1
Shut Down component cli_test_binding1.

-------------------------------------------------------------------
Removing bootstrap jar file from install_root
-------------------------------------------------------------------
IGNORE rm C:/cygwin/d/main2/open-esb/install/as8/domains/JBITest/jbi/components/cli_test_binding1/install_root/cli-test-binding1-boot.jar

-------------------------------------------------------------------
 Uninstall the binding component cli_test_binding1
-------------------------------------------------------------------
uninstall-jbi-component  cli_test_binding1
  ERROR:(JBIFW1117)Uninstallation of Binding cli_test_binding1 failed. 
    Caused by:(JBIFW2002)Bootstrap implementation for cli_test_binding1 could not be loaded. JBIFW2004: Required class com.sun.jbi.ui.cli.test.binding1.boot.Binding1Installer was not found.

-------------------------------------------------------------------
 Uninstall the binding component cli_test_binding1 with force
-------------------------------------------------------------------
uninstall-jbi-component --force cli_test_binding1
Uninstalled component cli_test_binding1.

-------------------------------------------------------------------
 Uninstall the shared library cli_test_sns1
-------------------------------------------------------------------
uninstall-jbi-shared-library cli_test_sns1
Uninstalled shared library cli_test_sns1.

-------------------------------------------------------------------
 Show the binding component cli_test_binding1
-------------------------------------------------------------------
show-jbi-binding-component cli_test_binding1
CLI203 The specified component cli_test_binding1 does not exist.

-------------------------------------------------------------------
 Show the shared library cli_test_sns1
-------------------------------------------------------------------
show-jbi-shared-library cli_test_sns1
CLI204 The shared library specified cli_test_sns1 does not exist.
