filebinding00006.ksh- UNDEPLOY file binding test
Stopping a service assembly
IGNORE   jmx connection info: (host=localhost, port=14849, username=admin)
  name=9ae51feb-0fc3-4ff6-9104-cfd59d2a7815
Stop service assembly succeeded. [
9ae51feb-0fc3-4ff6-9104-cfd59d2a7815
]

BUILD SUCCESSFUL
IGNORE Total time: 0 seconds
Shutting down a service assembly
IGNORE   jmx connection info: (host=localhost, port=14849, username=admin)
  name=9ae51feb-0fc3-4ff6-9104-cfd59d2a7815
Shutdown service assembly succeeded. [
9ae51feb-0fc3-4ff6-9104-cfd59d2a7815
]

BUILD SUCCESSFUL
IGNORE Total time: 0 seconds
Undeploying a service assembly
IGNORE   jmx connection info: (host=localhost, port=14849, username=admin)
  name=9ae51feb-0fc3-4ff6-9104-cfd59d2a7815
Service assembly undeployment succeeded. [
9ae51feb-0fc3-4ff6-9104-cfd59d2a7815
]

BUILD SUCCESSFUL
IGNORE Total time: 0 seconds
Completed UnDeploying from file binding
