filebinding00005.ksh- Test MEPs - file binding test
added manifest
IGNORE ignoring entry META-INF/
IGNORE adding: META-INF/jbi.xml(in = 997) (out= 402)(deflated 59%)
IGNORE adding: testengine/(in = 0) (out= 0)(stored 0%)
IGNORE adding: testengine/FooEngine$Receiver.class(in = 2683) (out= 1255)(deflated 53%)
IGNORE adding: testengine/FooEngine.class(in = 10641) (out= 4549)(deflated 57%)
IGNORE adding: testengine/FooEngineBootstrap.class(in = 907) (out= 453)(deflated 50%)
IGNORE adding: testengine/Payload.class(in = 1813) (out= 924)(deflated 49%)
IGNORE adding: testengine/payload.xml(in = 75) (out= 48)(deflated 36%)
IGNORE adding: testengine/response.xml(in = 75) (out= 48)(deflated 36%)
IGNORE adding: testengine.xml(in = 1059) (out= 435)(deflated 58%)
Installing a component
IGNORE   jmx connection info: (host=localhost, port=31387, username=admin)
IGNORE   file=D:/chikkala/dev/jbi/dev/source/binding/file/bld/regress/testengine/testengine.jar
Install component succeeded. [
TESTENGINE_FOR_FILEBINDING
]

BUILD SUCCESSFUL
IGNORE Total time: 3 seconds
Starting a component
IGNORE   jmx connection info: (host=localhost, port=31387, username=admin)
  name=TESTENGINE_FOR_FILEBINDING
Start component succeeded. [
TESTENGINE_FOR_FILEBINDING
]

BUILD SUCCESSFUL
IGNORE Total time: 4 seconds

Testing out-only with valid message
      1 
      4 


Testing out-only with invalid message
      1 
      4 


Testing robust-out-only with valid message
      1 
      4 


Testing robust-out-only with invalid message
      1 
      4 


Testing in-out with valid message
      1 
      1 
      1 


Testing in-only with valid message
      1 
      2 
      2 


Testing robust-in-only with valid message
      1 
      3 
      3 

Stopping a component
IGNORE   jmx connection info: (host=localhost, port=31387, username=admin)
  name=TESTENGINE_FOR_FILEBINDING
Stop component succeeded. [
TESTENGINE_FOR_FILEBINDING
]

BUILD SUCCESSFUL
IGNORE Total time: 3 seconds
Shutting down a component
IGNORE   jmx connection info: (host=localhost, port=31387, username=admin)
  name=TESTENGINE_FOR_FILEBINDING
Shutdown component succeeded. [
TESTENGINE_FOR_FILEBINDING
]

BUILD SUCCESSFUL
IGNORE Total time: 3 seconds
Uninstalling a component
IGNORE   jmx connection info: (host=localhost, port=31387, username=admin)
  name=TESTENGINE_FOR_FILEBINDING
Uninstall component succeeded. [
TESTENGINE_FOR_FILEBINDING
]

BUILD SUCCESSFUL
IGNORE Total time: 3 seconds
Completed Testing file binding MEPs
