testing shared library invocation for engines/bindings
Building StockQuotesSharedLibrary.jar
Building SharedLibraryTestBinding.jar
Building SharedLibraryTestEngine.jar
Done Building the Components

BUILD SUCCESSFUL
IGNORE Total time: 1 second
Installing a shared library
IGNORE  jmx connection info: (host=localhost, port=4849, username=admin, target=server )
IGNORE  file=C:/d/main2/open-esb/runtime/framework/bld/test-classes/dist/StockQuotesSharedLibrary.jar
Install shared library succeeded. [
StockQuotesSharedLibrary
]

BUILD SUCCESSFUL
IGNORE Total time: 0 seconds
Installing a component
IGNORE  jmx connection info: (host=localhost, port=4849, username=admin, target=server )
IGNORE  file=C:/d/main2/open-esb/runtime/framework/bld/test-classes/dist/SharedLibraryTestBinding.jar
Install component succeeded. [
SharedLibraryTestBinding
]

BUILD SUCCESSFUL
IGNORE Total time: 0 seconds
Installing a component
IGNORE  jmx connection info: (host=localhost, port=4849, username=admin, target=server )
IGNORE  file=C:/d/main2/open-esb/runtime/framework/bld/test-classes/dist/SharedLibraryTestEngine.jar
Install component succeeded. [
SharedLibraryTestEngine
]

BUILD SUCCESSFUL
IGNORE Total time: 0 seconds
Starting a component
IGNORE  jmx connection info: (host=localhost, port=4849, username=admin, target=server )
  name=SharedLibraryTestBinding
Start component succeeded. [
SharedLibraryTestBinding
]

BUILD SUCCESSFUL
IGNORE Total time: 0 seconds
Starting a component
IGNORE  jmx connection info: (host=localhost, port=4849, username=admin, target=server )
  name=SharedLibraryTestEngine
Start component succeeded. [
SharedLibraryTestEngine
]

BUILD SUCCESSFUL
IGNORE Total time: 0 seconds
Shutting down a component
IGNORE  jmx connection info: (host=localhost, port=4849, username=admin, target=server )
  name=SharedLibraryTestBinding
Shutdown component succeeded. [
SharedLibraryTestBinding
]

BUILD SUCCESSFUL
IGNORE Total time: 0 seconds
Shutting down a component
IGNORE  jmx connection info: (host=localhost, port=4849, username=admin, target=server )
  name=SharedLibraryTestEngine
Shutdown component succeeded. [
SharedLibraryTestEngine
]

BUILD SUCCESSFUL
IGNORE Total time: 0 seconds
Uninstalling a component
IGNORE  jmx connection info: (host=localhost, port=4849, username=admin, target=server )
  name=SharedLibraryTestBinding
Uninstall component succeeded. [
SharedLibraryTestBinding
]

BUILD SUCCESSFUL
IGNORE Total time: 0 seconds
Uninstalling a component
IGNORE  jmx connection info: (host=localhost, port=4849, username=admin, target=server )
  name=SharedLibraryTestEngine
Uninstall component succeeded. [
SharedLibraryTestEngine
]

BUILD SUCCESSFUL
IGNORE Total time: 0 seconds
Uninstalling a shared library
IGNORE  jmx connection info: (host=localhost, port=4849, username=admin, target=server )
  name=StockQuotesSharedLibrary
Uninstall shared library succeeded. [
StockQuotesSharedLibrary
]

BUILD SUCCESSFUL
IGNORE Total time: 0 seconds
Engines Shared Library Invocation
      1 
Bindings Shared Library Invocation
      1 
