
BUILD SUCCESSFUL
IGNORE Total time: 0 seconds
Starting domain domain1
Installing a component
IGNORE   jmx connection info: (host=localhost, port=7748, secure=false, username=admin, target=server )
IGNORE   file=E:/cygwin/d/rtoesb/open-esb/runtime/framework/bld/test-classes/dist/slow-engine.jar
Install component succeeded. [
test-slow-engine
]

BUILD SUCCESSFUL
IGNORE Total time: 1 second
Installing a component
IGNORE   jmx connection info: (host=localhost, port=7748, secure=false, username=admin, target=server )
IGNORE   file=E:/cygwin/d/rtoesb/open-esb/runtime/framework/bld/test-classes/dist/fast-binding.jar
Install component succeeded. [
test-fast-binding
]

BUILD SUCCESSFUL
IGNORE Total time: 0 seconds
Starting a component
IGNORE   jmx connection info: (host=localhost, port=7748, secure=false, username=admin, target=server )
  name=test-slow-engine
Start component succeeded. [
test-slow-engine
]

BUILD SUCCESSFUL
IGNORE Total time: 0 seconds
Starting a component
IGNORE   jmx connection info: (host=localhost, port=7748, secure=false, username=admin, target=server )
  name=test-fast-binding
Start component succeeded. [
test-fast-binding
]

BUILD SUCCESSFUL
IGNORE Total time: 0 seconds
Deploying a service assembly
IGNORE   jmx connection info: (host=localhost, port=7748, secure=false, username=admin, target=server )
IGNORE   file=E:/cygwin/d/rtoesb/open-esb/runtime/framework/bld/test-classes/dist/restart-sa-1.jar
Service assembly deployment succeeded. [
restart-sa-1
]

BUILD SUCCESSFUL
IGNORE Total time: 1 second
Deploying a service assembly
IGNORE   jmx connection info: (host=localhost, port=7748, secure=false, username=admin, target=server )
IGNORE   file=E:/cygwin/d/rtoesb/open-esb/runtime/framework/bld/test-classes/dist/restart-sa-2.jar
Service assembly deployment succeeded. [
restart-sa-2
]

BUILD SUCCESSFUL
IGNORE Total time: 1 second
Starting a service assembly
IGNORE   jmx connection info: (host=localhost, port=7748, secure=false, username=admin, target=server )
  name=restart-sa-1
Start service assembly succeeded. [
restart-sa-1
]

BUILD SUCCESSFUL
IGNORE Total time: 10 seconds
Starting a service assembly
IGNORE   jmx connection info: (host=localhost, port=7748, secure=false, username=admin, target=server )
  name=restart-sa-2
Start service assembly succeeded. [
restart-sa-2
]

BUILD SUCCESSFUL
IGNORE Total time: 10 seconds
============================================================
  List of Binding Components for Target "server"
============================================================
Name       : test-fast-binding
State      : Started
Description: Binding used for restart tests.
------------------------------------------------------------

BUILD SUCCESSFUL
IGNORE Total time: 0 seconds
============================================================
  List of Service Engines for Target "server"
============================================================
Name       : test-slow-engine
State      : Started
Description: Binding used for restart tests.
------------------------------------------------------------

BUILD SUCCESSFUL
IGNORE Total time: 0 seconds
============================================================
  List of Service Assemblies for Target "server"
============================================================
Name       : restart-sa-1
State      : Started
Description: Service assembly used to test restart logic
Service units in this service assembly [2]
  Service unit : restart-su-1
    State      : Started
    Deployed on: test-fast-binding
    Description: Test service unit #1
  Service unit : restart-su-1
    State      : Started
    Deployed on: test-slow-engine
    Description: Test service unit #2
------------------------------------------------------------

BUILD SUCCESSFUL
IGNORE Total time: 0 seconds
============================================================
  List of Service Assemblies for Target "server"
============================================================
Name       : restart-sa-2
State      : Started
Description: Service assembly used to test restart logic
Service units in this service assembly [2]
  Service unit : restart-connected-endpoint
    State      : Started
    Deployed on: test-slow-engine
    Description: Test service unit #2
  Service unit : restart-su-2
    State      : Started
    Deployed on: test-fast-binding
    Description: Test service unit #1
------------------------------------------------------------

BUILD SUCCESSFUL
IGNORE Total time: 0 seconds
Stopping domain domain1
Starting domain domain1
============================================================
  List of Binding Components for Target "server"
============================================================
Name       : test-fast-binding
State      : Started
Description: Binding used for restart tests.
------------------------------------------------------------

BUILD SUCCESSFUL
IGNORE Total time: 3 seconds
============================================================
  List of Service Engines for Target "server"
============================================================
Name       : test-slow-engine
State      : Started
Description: Binding used for restart tests.
------------------------------------------------------------

BUILD SUCCESSFUL
IGNORE Total time: 0 seconds
============================================================
  List of Service Assemblies for Target "server"
============================================================
Name       : restart-sa-1
State      : Started
Description: Service assembly used to test restart logic
Service units in this service assembly [2]
  Service unit : restart-su-1
    State      : Started
    Deployed on: test-fast-binding
    Description: Test service unit #1
  Service unit : restart-su-1
    State      : Started
    Deployed on: test-slow-engine
    Description: Test service unit #2
------------------------------------------------------------

BUILD SUCCESSFUL
IGNORE Total time: 0 seconds
============================================================
  List of Service Assemblies for Target "server"
============================================================
Name       : restart-sa-2
State      : Started
Description: Service assembly used to test restart logic
Service units in this service assembly [2]
  Service unit : restart-connected-endpoint
    State      : Started
    Deployed on: test-slow-engine
    Description: Test service unit #2
  Service unit : restart-su-2
    State      : Started
    Deployed on: test-fast-binding
    Description: Test service unit #1
------------------------------------------------------------

BUILD SUCCESSFUL
IGNORE Total time: 0 seconds
Shutting down a service assembly
IGNORE   jmx connection info: (host=localhost, port=7748, secure=false, username=admin, target=server )
  name=restart-sa-1
Shutdown service assembly succeeded. [
restart-sa-1
]

BUILD SUCCESSFUL
IGNORE Total time: 0 seconds
Shutting down a service assembly
IGNORE   jmx connection info: (host=localhost, port=7748, secure=false, username=admin, target=server )
  name=restart-sa-2
Shutdown service assembly succeeded. [
restart-sa-2
]

BUILD SUCCESSFUL
IGNORE Total time: 0 seconds
Undeploying a service assembly
IGNORE   jmx connection info: (host=localhost, port=7748, secure=false, username=admin, target=server )
  name=restart-sa-1
Service assembly undeployment succeeded. [
restart-sa-1
]

BUILD SUCCESSFUL
IGNORE Total time: 0 seconds
Undeploying a service assembly
IGNORE   jmx connection info: (host=localhost, port=7748, secure=false, username=admin, target=server )
  name=restart-sa-2
Service assembly undeployment succeeded. [
restart-sa-2
]

BUILD SUCCESSFUL
IGNORE Total time: 0 seconds
Shutting down a component
IGNORE   jmx connection info: (host=localhost, port=7748, secure=false, username=admin, target=server )
  name=test-slow-engine
Shutdown component succeeded. [
test-slow-engine
]

BUILD SUCCESSFUL
IGNORE Total time: 0 seconds
Shutting down a component
IGNORE   jmx connection info: (host=localhost, port=7748, secure=false, username=admin, target=server )
  name=test-fast-binding
Shutdown component succeeded. [
test-fast-binding
]

BUILD SUCCESSFUL
IGNORE Total time: 0 seconds
Uninstalling a component
IGNORE   jmx connection info: (host=localhost, port=7748, secure=false, username=admin, target=server )
  name=test-slow-engine
Uninstall component succeeded. [
test-slow-engine
]

BUILD SUCCESSFUL
IGNORE Total time: 0 seconds
Uninstalling a component
IGNORE   jmx connection info: (host=localhost, port=7748, secure=false, username=admin, target=server )
  name=test-fast-binding
Uninstall component succeeded. [
test-fast-binding
]

BUILD SUCCESSFUL
IGNORE Total time: 0 seconds
Stopping domain domain1
