IGNORE asant -emacs -q -f C:/cygwin/home/yz72237/build/open-esb/install/as8/jbi/bin/jbi_admin.xml -Djbi.username=admin -Djbi.password=adminadmin -Djbi.port=4849 -Djbi.secure=false -Djbi.task.fail.on.error=false
Building ant-test-sns1.jar
Building ant-test-sns2.jar
Building ant-test-binding1.jar
Building ant-test-binding2.jar
Building ant-test-engine1.jar
Building ant-test-engine2.jar
Building ant-test-binding1-asa1.zip
Building ant-test-engine1-asa1.zip
Building ant-test-au1.zip
Building ant-test-engine1-asa2.zip
Building ant-test-au2.zip
Building ant-test-engine2-asa1.zip
Building ant-test-au3.zip
Done Building the Components
BUILD SUCCESSFUL
IGNORE Total time: 1 second
============================================================
  List of Shared Libraries for Target "server"
============================================================
Name        : sun-wsdl-library
State       : Installed
Description : This library provides WSDL 1.1/2.0 parsing support and message-wrapping utilities used to send WSDL 1.1-defined messages over the Normalized Message Router (NMR).
------------------------------------------------------------
BUILD SUCCESSFUL
IGNORE Total time: 0 seconds
============================================================
  List of Service Engines for Target "server"
============================================================
Name        : sun-javaee-engine
State       : Shutdown
Description : Java Enterprise Edition Service Engine
------------------------------------------------------------
BUILD SUCCESSFUL
IGNORE Total time: 0 seconds
============================================================
  List of Binding Components for Target "server"
============================================================
Name        : sun-http-binding
State       : Shutdown
Description : HTTP binding component. Provides message processing capabilities over HTTP protocol in a JBI 1.0 compliant environment.
------------------------------------------------------------
BUILD SUCCESSFUL
IGNORE Total time: 0 seconds
============================================================
  List of Service Assemblies for Target "server"
============================================================
No Service Assemblies were found for the specified query.
------------------------------------------------------------
BUILD SUCCESSFUL
IGNORE Total time: 0 seconds
Installing a shared library
IGNORE  jmx connection info: (host=localhost, port=4849, secure=false, username=admin, target=server )
IGNORE  file=C:/cygwin/home/yz72237/build/open-esb/ri-clients/jbi-ant-tasks/bld/test-classes/testdata/ant-test-sns1.jar
Install shared library succeeded. [
ant_test_sns1
]
BUILD SUCCESSFUL
IGNORE Total time: 0 seconds
Installing a component
IGNORE  jmx connection info: (host=localhost, port=4849, secure=false, username=admin, target=server )
IGNORE  file=C:/cygwin/home/yz72237/build/open-esb/ri-clients/jbi-ant-tasks/bld/test-classes/testdata/ant-test-binding1.jar
Install component succeeded. [
ant_test_binding1
]
BUILD SUCCESSFUL
IGNORE Total time: 1 second
Installing a component
IGNORE  jmx connection info: (host=localhost, port=4849, secure=false, username=admin, target=server )
IGNORE  file=C:/cygwin/home/yz72237/build/open-esb/ri-clients/jbi-ant-tasks/bld/test-classes/testdata/ant-test-engine3.jar
Install component succeeded. [
ant_test_engine3
]
BUILD SUCCESSFUL
IGNORE Total time: 1 second
============================================================
  List of Shared Libraries for Target "server"
============================================================
Name        : ant_test_sns1
Version     : 2.0
Build Number: 091709
State       : Installed
Description : This is a ant test shared namespace shared 
                between ant_test_engine1 and ant_test_binding1
------------------------------------------------------------
Name        : sun-wsdl-library
State       : Installed
Description : This library provides WSDL 1.1/2.0 parsing support and message-wrapping utilities used to send WSDL 1.1-defined messages over the Normalized Message Router (NMR).
------------------------------------------------------------
BUILD SUCCESSFUL
IGNORE Total time: 0 seconds
============================================================
  List of Binding Components for Target "server"
============================================================
Name        : ant_test_binding1
Version     : 1.0
Build Number: 080809
State       : Shutdown
Description : ant test binding with shared namespace.
------------------------------------------------------------
Name        : sun-http-binding
State       : Shutdown
Description : HTTP binding component. Provides message processing capabilities over HTTP protocol in a JBI 1.0 compliant environment.
------------------------------------------------------------
BUILD SUCCESSFUL
IGNORE Total time: 0 seconds
============================================================
  List of Service Engines for Target "server"
============================================================
Name        : ant_test_engine3
State       : Shutdown
Description : ant test engine.
------------------------------------------------------------
Name        : sun-javaee-engine
State       : Shutdown
Description : Java Enterprise Edition Service Engine
------------------------------------------------------------
BUILD SUCCESSFUL
IGNORE Total time: 0 seconds
Starting a component
IGNORE  jmx connection info: (host=localhost, port=4849, secure=false, username=admin, target=server )
  name=ant_test_binding1
Start component succeeded. [
ant_test_binding1
]
BUILD SUCCESSFUL
IGNORE Total time: 0 seconds
Starting a component
IGNORE  jmx connection info: (host=localhost, port=4849, secure=false, username=admin, target=server )
  name=ant_test_engine3
Start component succeeded. [
ant_test_engine3
]
BUILD SUCCESSFUL
IGNORE Total time: 0 seconds
============================================================
  List of Binding Components for Target "server"
============================================================
Name        : ant_test_binding1
Version     : 1.0
Build Number: 080809
State       : Started
Description : ant test binding with shared namespace.
------------------------------------------------------------
Name        : sun-http-binding
State       : Shutdown
Description : HTTP binding component. Provides message processing capabilities over HTTP protocol in a JBI 1.0 compliant environment.
------------------------------------------------------------
BUILD SUCCESSFUL
IGNORE Total time: 0 seconds
============================================================
  List of Service Engines for Target "server"
============================================================
Name        : ant_test_engine3
State       : Started
Description : ant test engine.
------------------------------------------------------------
Name        : sun-javaee-engine
State       : Shutdown
Description : Java Enterprise Edition Service Engine
------------------------------------------------------------
BUILD SUCCESSFUL
IGNORE Total time: 0 seconds
Deploying a service assembly
IGNORE  jmx connection info: (host=localhost, port=4849, secure=false, username=admin, target=server )
IGNORE  file=C:/cygwin/home/yz72237/build/open-esb/ri-clients/jbi-ant-tasks/bld/test-classes/testdata/ant-test-sa4.zip
Service assembly deployment partially succeeded. [
  WARNING:(JBIMA0404)Deployment of service assembly ant_test_sa4 succeeded partially; some service units failed to deploy.
  Component: ant_test_engine3
    ERROR:(ANT_E3_0003)ant_test_engine_3_su1 is not a valid SU. Deployment failed.
]
BUILD SUCCESSFUL
IGNORE Total time: 1 second
============================================================
  List of Service Assemblies for Target "server"
============================================================
Name       : ant_test_sa4
State      : Shutdown
Description: 
            This is an Ant Test Service Assembly which deploys the sub assemblies
            to ant test engine3 and binding1.
            
Service units in this service assembly [3]
  Service unit : ant_test_binding_1_su1
    State      : Shutdown
    Deployed on: ant_test_binding1
    Description: 
                This is an SU for ant test binding1
                
  Service unit : ant_test_engine_3_su1
    State      : Unknown
    Deployed on: ant_test_engine3
    Description: 
                    This is an SU1 for the ant test engine3
                
  Service unit : ant_test_engine_3_su2
    State      : Shutdown
    Deployed on: ant_test_engine3
    Description: 
                    This is an SU2 for the ant test engine3
                
------------------------------------------------------------
BUILD SUCCESSFUL
IGNORE Total time: 0 seconds
Starting a service assembly
IGNORE  jmx connection info: (host=localhost, port=4849, secure=false, username=admin, target=server )
  name=ant_test_sa4
Start service assembly succeeded. [
ant_test_sa4
]
BUILD SUCCESSFUL
IGNORE Total time: 0 seconds
============================================================
  List of Service Assemblies for Target "server"
============================================================
Name       : ant_test_sa4
State      : Started
Description: 
            This is an Ant Test Service Assembly which deploys the sub assemblies
            to ant test engine3 and binding1.
            
Service units in this service assembly [3]
  Service unit : ant_test_binding_1_su1
    State      : Started
    Deployed on: ant_test_binding1
    Description: 
                This is an SU for ant test binding1
                
  Service unit : ant_test_engine_3_su1
    State      : Unknown
    Deployed on: ant_test_engine3
    Description: 
                    This is an SU1 for the ant test engine3
                
  Service unit : ant_test_engine_3_su2
    State      : Started
    Deployed on: ant_test_engine3
    Description: 
                    This is an SU2 for the ant test engine3
                
------------------------------------------------------------
BUILD SUCCESSFUL
IGNORE Total time: 0 seconds
Stopping a service assembly
IGNORE  jmx connection info: (host=localhost, port=4849, secure=false, username=admin, target=server )
  name=ant_test_sa4
Stop service assembly succeeded. [
ant_test_sa4
]
BUILD SUCCESSFUL
IGNORE Total time: 0 seconds
============================================================
  List of Service Assemblies for Target "server"
============================================================
Name       : ant_test_sa4
State      : Stopped
Description: 
            This is an Ant Test Service Assembly which deploys the sub assemblies
            to ant test engine3 and binding1.
            
Service units in this service assembly [3]
  Service unit : ant_test_binding_1_su1
    State      : Stopped
    Deployed on: ant_test_binding1
    Description: 
                This is an SU for ant test binding1
                
  Service unit : ant_test_engine_3_su1
    State      : Unknown
    Deployed on: ant_test_engine3
    Description: 
                    This is an SU1 for the ant test engine3
                
  Service unit : ant_test_engine_3_su2
    State      : Stopped
    Deployed on: ant_test_engine3
    Description: 
                    This is an SU2 for the ant test engine3
                
------------------------------------------------------------
BUILD SUCCESSFUL
IGNORE Total time: 0 seconds
Shutting down a service assembly
IGNORE  jmx connection info: (host=localhost, port=4849, secure=false, username=admin, target=server )
  name=ant_test_sa4
Shutdown service assembly succeeded. [
ant_test_sa4
]
BUILD SUCCESSFUL
IGNORE Total time: 0 seconds
============================================================
  List of Service Assemblies for Target "server"
============================================================
Name       : ant_test_sa4
State      : Shutdown
Description: 
            This is an Ant Test Service Assembly which deploys the sub assemblies
            to ant test engine3 and binding1.
            
Service units in this service assembly [3]
  Service unit : ant_test_binding_1_su1
    State      : Shutdown
    Deployed on: ant_test_binding1
    Description: 
                This is an SU for ant test binding1
                
  Service unit : ant_test_engine_3_su1
    State      : Unknown
    Deployed on: ant_test_engine3
    Description: 
                    This is an SU1 for the ant test engine3
                
  Service unit : ant_test_engine_3_su2
    State      : Shutdown
    Deployed on: ant_test_engine3
    Description: 
                    This is an SU2 for the ant test engine3
                
------------------------------------------------------------
BUILD SUCCESSFUL
IGNORE Total time: 0 seconds
Undeploying a service assembly
IGNORE  jmx connection info: (host=localhost, port=4849, secure=false, username=admin, target=server )
  name=ant_test_sa4
Service assembly undeployment failed. [
  Component: ant_test_engine3
    ERROR:(ANT_E3_0003)ant_test_engine_3_su2 is not a valid SU. Undeployment Failed.
]
BUILD SUCCESSFUL
IGNORE Total time: 0 seconds
============================================================
  List of Service Assemblies for Target "server"
============================================================
Name       : ant_test_sa4
State      : Shutdown
Description: 
            This is an Ant Test Service Assembly which deploys the sub assemblies
            to ant test engine3 and binding1.
            
Service units in this service assembly [3]
  Service unit : ant_test_binding_1_su1
    State      : Unknown
    Deployed on: ant_test_binding1
    Description: 
                This is an SU for ant test binding1
                
  Service unit : ant_test_engine_3_su1
    State      : Unknown
    Deployed on: ant_test_engine3
    Description: 
                    This is an SU1 for the ant test engine3
                
  Service unit : ant_test_engine_3_su2
    State      : Shutdown
    Deployed on: ant_test_engine3
    Description: 
                    This is an SU2 for the ant test engine3
                
------------------------------------------------------------
BUILD SUCCESSFUL
IGNORE Total time: 0 seconds
Undeploying a service assembly
IGNORE  jmx connection info: (host=localhost, port=4849, secure=false, username=admin, target=server )
  name=ant_test_sa4
Service assembly undeployment succeeded. [
ant_test_sa4
]
BUILD SUCCESSFUL
IGNORE Total time: 0 seconds
============================================================
  List of Service Assemblies for Target "server"
============================================================
No Service Assemblies were found for the specified query.
------------------------------------------------------------
BUILD SUCCESSFUL
IGNORE Total time: 0 seconds
Stopping a component
IGNORE  jmx connection info: (host=localhost, port=4849, secure=false, username=admin, target=server )
  name=ant_test_binding1
Stop component succeeded. [
ant_test_binding1
]
BUILD SUCCESSFUL
IGNORE Total time: 0 seconds
Stopping a component
IGNORE  jmx connection info: (host=localhost, port=4849, secure=false, username=admin, target=server )
  name=ant_test_engine3
Stop component succeeded. [
ant_test_engine3
]
BUILD SUCCESSFUL
IGNORE Total time: 0 seconds
============================================================
  List of Binding Components for Target "server"
============================================================
Name        : ant_test_binding1
Version     : 1.0
Build Number: 080809
State       : Stopped
Description : ant test binding with shared namespace.
------------------------------------------------------------
Name        : sun-http-binding
State       : Shutdown
Description : HTTP binding component. Provides message processing capabilities over HTTP protocol in a JBI 1.0 compliant environment.
------------------------------------------------------------
BUILD SUCCESSFUL
IGNORE Total time: 0 seconds
============================================================
  List of Service Engines for Target "server"
============================================================
Name        : ant_test_engine3
State       : Stopped
Description : ant test engine.
------------------------------------------------------------
Name        : sun-javaee-engine
State       : Shutdown
Description : Java Enterprise Edition Service Engine
------------------------------------------------------------
BUILD SUCCESSFUL
IGNORE Total time: 0 seconds
Shutting down a component
IGNORE  jmx connection info: (host=localhost, port=4849, secure=false, username=admin, target=server )
  name=ant_test_binding1
Shutdown component succeeded. [
ant_test_binding1
]
BUILD SUCCESSFUL
IGNORE Total time: 0 seconds
Shutting down a component
IGNORE  jmx connection info: (host=localhost, port=4849, secure=false, username=admin, target=server )
  name=ant_test_engine3
Shutdown component succeeded. [
ant_test_engine3
]
BUILD SUCCESSFUL
IGNORE Total time: 0 seconds
============================================================
  List of Binding Components for Target "server"
============================================================
Name        : ant_test_binding1
Version     : 1.0
Build Number: 080809
State       : Shutdown
Description : ant test binding with shared namespace.
------------------------------------------------------------
Name        : sun-http-binding
State       : Shutdown
Description : HTTP binding component. Provides message processing capabilities over HTTP protocol in a JBI 1.0 compliant environment.
------------------------------------------------------------
BUILD SUCCESSFUL
IGNORE Total time: 0 seconds
============================================================
  List of Service Engines for Target "server"
============================================================
Name        : ant_test_engine3
State       : Shutdown
Description : ant test engine.
------------------------------------------------------------
Name        : sun-javaee-engine
State       : Shutdown
Description : Java Enterprise Edition Service Engine
------------------------------------------------------------
BUILD SUCCESSFUL
IGNORE Total time: 0 seconds
Uninstalling a component
IGNORE  jmx connection info: (host=localhost, port=4849, secure=false, username=admin, target=server )
  name=ant_test_engine3
Uninstall component succeeded. [
ant_test_engine3
]
BUILD SUCCESSFUL
IGNORE Total time: 0 seconds
Uninstalling a component
IGNORE  jmx connection info: (host=localhost, port=4849, secure=false, username=admin, target=server )
  name=ant_test_binding1
Uninstall component succeeded. [
ant_test_binding1
]
BUILD SUCCESSFUL
IGNORE Total time: 0 seconds
Uninstalling a shared library
IGNORE  jmx connection info: (host=localhost, port=4849, secure=false, username=admin, target=server )
  name=ant_test_sns1
Uninstall shared library succeeded. [
ant_test_sns1
]
BUILD SUCCESSFUL
IGNORE Total time: 0 seconds
============================================================
  List of Shared Libraries for Target "server"
============================================================
Name        : sun-wsdl-library
State       : Installed
Description : This library provides WSDL 1.1/2.0 parsing support and message-wrapping utilities used to send WSDL 1.1-defined messages over the Normalized Message Router (NMR).
------------------------------------------------------------
BUILD SUCCESSFUL
IGNORE Total time: 0 seconds
============================================================
  List of Service Engines for Target "server"
============================================================
Name        : sun-javaee-engine
State       : Shutdown
Description : Java Enterprise Edition Service Engine
------------------------------------------------------------
BUILD SUCCESSFUL
IGNORE Total time: 0 seconds
============================================================
  List of Binding Components for Target "server"
============================================================
Name        : sun-http-binding
State       : Shutdown
Description : HTTP binding component. Provides message processing capabilities over HTTP protocol in a JBI 1.0 compliant environment.
------------------------------------------------------------
BUILD SUCCESSFUL
IGNORE Total time: 0 seconds
============================================================
  List of Service Assemblies for Target "server"
============================================================
No Service Assemblies were found for the specified query.
------------------------------------------------------------
BUILD SUCCESSFUL
IGNORE Total time: 0 seconds
