IGNORE asant -emacs -q -f C:/cygwin/home/yz72237/build/open-esb/install/as8/jbi/bin/jbi_admin.xml -Djbi.username=admin -Djbi.password=adminadmin -Djbi.port=4849 -Djbi.secure=false -Djbi.task.fail.on.error=false
Building ant-test-sns1.jar
Building ant-test-sns2.jar
Building ant-test-binding1.jar
Building ant-test-binding2.jar
Building ant-test-engine1.jar
Building ant-test-engine2.jar
Building ant-test-binding1-asa1.zip
Building ant-test-engine1-asa1.zip
Building ant-test-au1.zip
Building ant-test-engine1-asa2.zip
Building ant-test-au2.zip
Building ant-test-engine2-asa1.zip
Building ant-test-au3.zip
Done Building the Components

BUILD SUCCESSFUL
IGNORE Total time: 1 second
============================================================
  List of Shared Libraries for Target "server"
============================================================
Name        : sun-wsdl-library
State       : Installed
Description : This library provides WSDL 1.1/2.0 parsing support and message-wrapping utilities used to send WSDL 1.1-defined messages over the Normalized Message Router (NMR).
------------------------------------------------------------

BUILD SUCCESSFUL
IGNORE Total time: 0 seconds
============================================================
  List of Service Engines for Target "server"
============================================================
Name        : sun-javaee-engine
State       : Shutdown
Description : Java Enterprise Edition Service Engine
------------------------------------------------------------

BUILD SUCCESSFUL
IGNORE Total time: 0 seconds
============================================================
  List of Binding Components for Target "server"
============================================================
Name        : sun-http-binding
State       : Shutdown
Description : HTTP binding component. Provides message processing capabilities over HTTP protocol in a JBI 1.0 compliant environment.
------------------------------------------------------------

BUILD SUCCESSFUL
IGNORE Total time: 0 seconds
============================================================
  List of Service Assemblies for Target "server"
============================================================
No Service Assemblies were found for the specified query.
------------------------------------------------------------

BUILD SUCCESSFUL
IGNORE Total time: 0 seconds
Installing a shared library
IGNORE   jmx connection info: (host=localhost, port=4849, secure=false, username=admin, target=server )
IGNORE  file=C:/cygwin/home/yz72237/build/open-esb/ri-clients/jbi-ant-tasks/bld/test-classes/testdata/ant-test-sns1.jar
Install shared library succeeded. [
ant_test_sns1
]

BUILD SUCCESSFUL
IGNORE Total time: 0 seconds
Installing a shared library
IGNORE   jmx connection info: (host=localhost, port=4849, secure=false, username=admin, target=server )
IGNORE  file=C:/cygwin/home/yz72237/build/open-esb/ri-clients/jbi-ant-tasks/bld/test-classes/testdata/ant-test-sns2.jar
Install shared library succeeded. [
ant_test_sns2
]

BUILD SUCCESSFUL
IGNORE Total time: 0 seconds
Installing a component
IGNORE   jmx connection info: (host=localhost, port=4849, secure=false, username=admin, target=server )
IGNORE  file=C:/cygwin/home/yz72237/build/open-esb/ri-clients/jbi-ant-tasks/bld/test-classes/testdata/ant-test-binding1.jar
Install component succeeded. [
ant_test_binding1
]

BUILD SUCCESSFUL
IGNORE Total time: 0 seconds
Installing a component
IGNORE   jmx connection info: (host=localhost, port=4849, secure=false, username=admin, target=server )
IGNORE  file=C:/cygwin/home/yz72237/build/open-esb/ri-clients/jbi-ant-tasks/bld/test-classes/testdata/ant-test-binding2.jar
Install component succeeded. [
ant_test_binding2
]

BUILD SUCCESSFUL
IGNORE Total time: 0 seconds
Installing a component
IGNORE   jmx connection info: (host=localhost, port=4849, secure=false, username=admin, target=server )
IGNORE  file=C:/cygwin/home/yz72237/build/open-esb/ri-clients/jbi-ant-tasks/bld/test-classes/testdata/ant-test-engine1.jar
Install component succeeded. [
ant_test_engine1
]

BUILD SUCCESSFUL
IGNORE Total time: 0 seconds
Installing a component
IGNORE   jmx connection info: (host=localhost, port=4849, secure=false, username=admin, target=server )
IGNORE  file=C:/cygwin/home/yz72237/build/open-esb/ri-clients/jbi-ant-tasks/bld/test-classes/testdata/ant-test-engine2.jar
Install component succeeded. [
ant_test_engine2
]

BUILD SUCCESSFUL
IGNORE Total time: 0 seconds
Starting a component
IGNORE   jmx connection info: (host=localhost, port=4849, secure=false, username=admin, target=server )
  name=ant_test_engine1
Start component succeeded. [
ant_test_engine1
]

BUILD SUCCESSFUL
IGNORE Total time: 0 seconds
Starting a component
IGNORE   jmx connection info: (host=localhost, port=4849, secure=false, username=admin, target=server )
  name=ant_test_binding1
Start component succeeded. [
ant_test_binding1
]

BUILD SUCCESSFUL
IGNORE Total time: 0 seconds
Starting a component
IGNORE   jmx connection info: (host=localhost, port=4849, secure=false, username=admin, target=server )
  name=ant_test_binding2
Start component succeeded. [
ant_test_binding2
]

BUILD SUCCESSFUL
IGNORE Total time: 0 seconds
Stopping a component
IGNORE   jmx connection info: (host=localhost, port=4849, secure=false, username=admin, target=server )
  name=ant_test_binding2
Stop component succeeded. [
ant_test_binding2
]

BUILD SUCCESSFUL
IGNORE Total time: 0 seconds
Deploying a service assembly
IGNORE   jmx connection info: (host=localhost, port=4849, secure=false, username=admin, target=server )
IGNORE  file=C:/cygwin/home/yz72237/build/open-esb/ri-clients/jbi-ant-tasks/bld/test-classes/testdata/ant-test-au1.zip
Service assembly deployment succeeded. [
ant_test_assembly_unit_1
]

BUILD SUCCESSFUL
IGNORE Total time: 1 second
============================================================
  List of Service Engines for Target "server"
============================================================
Name        : ant_test_engine1
Version     : 1.0
Build Number: 080809
State       : Started
Description : ant test engine with shared namespace.
------------------------------------------------------------

BUILD SUCCESSFUL
IGNORE Total time: 0 seconds
============================================================
  List of Service Engines for Target "server"
============================================================
No Service Engines were found for the specified query.
------------------------------------------------------------

BUILD SUCCESSFUL
IGNORE Total time: 0 seconds
============================================================
  List of Service Engines for Target "server"
============================================================
Name        : ant_test_engine2
State       : Shutdown
Description : ant test engine2 without shared namespace.
------------------------------------------------------------
Name        : sun-javaee-engine
State       : Shutdown
Description : Java Enterprise Edition Service Engine
------------------------------------------------------------

BUILD SUCCESSFUL
IGNORE Total time: 0 seconds
============================================================
  List of Binding Components for Target "server"
============================================================
Name        : ant_test_binding1
Version     : 1.0
Build Number: 080809
State       : Started
Description : ant test binding with shared namespace.
------------------------------------------------------------

BUILD SUCCESSFUL
IGNORE Total time: 0 seconds
============================================================
  List of Binding Components for Target "server"
============================================================
Name        : ant_test_binding2
State       : Stopped
Description : ant test binding 2 without shared libraries dependency.
------------------------------------------------------------

BUILD SUCCESSFUL
IGNORE Total time: 0 seconds
============================================================
  List of Binding Components for Target "server"
============================================================
Name        : sun-http-binding
State       : Shutdown
Description : HTTP binding component. Provides message processing capabilities over HTTP protocol in a JBI 1.0 compliant environment.
------------------------------------------------------------

BUILD SUCCESSFUL
IGNORE Total time: 0 seconds
============================================================
  List of Service Assemblies for Target "server"
============================================================
No Service Assemblies were found for the specified query.
------------------------------------------------------------

BUILD SUCCESSFUL
IGNORE Total time: 0 seconds
============================================================
  List of Service Assemblies for Target "server"
============================================================
No Service Assemblies were found for the specified query.
------------------------------------------------------------

BUILD SUCCESSFUL
IGNORE Total time: 0 seconds
============================================================
  List of Service Assemblies for Target "server"
============================================================
Name       : ant_test_assembly_unit_1
State      : Shutdown
Description: 
            This is an Ant Test Assembly Unit which deploys the sub assemblies
            to ant test engine and binding.
            
Service units in this service assembly [2]
  Service unit : ant_test_binding_1_asa1
    State      : Shutdown
    Deployed on: ant_test_binding1
    Description: 
                This is an ASA that will be deployed 
                to the ant test binding1
                
  Service unit : ant_test_engine_1_asa1
    State      : Shutdown
    Deployed on: ant_test_engine1
    Description: 
                    This is an ASA that will be deployed 
                    to the ant test engine1
                
------------------------------------------------------------

BUILD SUCCESSFUL
IGNORE Total time: 0 seconds
============================================================
  List of Shared Libraries for Target "server"
============================================================
Name        : ant_test_sns1
Version     : 2.0
Build Number: 091709
State       : Installed
Description : This is a ant test shared namespace shared 
                between ant_test_engine1 and ant_test_binding1
------------------------------------------------------------

Shared Library Installation Descriptor:
<?xml version="1.0" encoding="UTF-8"?>
<!--
 # BEGIN_HEADER - DO NOT EDIT
 #
 # The contents of this file are subject to the terms
 # of the Common Development and Distribution License
 # (the "License").  You may not use this file except
 # in compliance with the License.
 #
 # You can obtain a copy of the license at
 # https://open-esb.dev.java.net/public/CDDLv1.0.html.
 # See the License for the specific language governing
 # permissions and limitations under the License.
 #
 # When distributing Covered Code, include this CDDL
 # HEADER in each file and include the License file at
 # https://open-esb.dev.java.net/public/CDDLv1.0.html.
 # If applicable add the following below this CDDL HEADER,
 # with the fields enclosed by brackets "[]" replaced with
 # your own identifying information: Portions Copyright
 # [year] [name of copyright owner]
-->
<!--
 # @(#)jbi.xml
 # Copyright 2004-2007 Sun Microsystems, Inc. All Rights Reserved.
 #
 # END_HEADER - DO NOT EDIT
-->
<!-- Example jbi.xml for a SNS: -->
<jbi xmlns="http://java.sun.com/xml/ns/jbi" version="1.0" xmlns:xsi="http://www.w3.org/2001/XMLSchema-instance" xmlns:identification="http://www.sun.com/jbi/descriptor/identification">

<!-- identification information about this namespace -->
    <shared-library>
        <identification>
            <name>ant_test_sns1</name>
            <description>
                This is a ant test shared namespace shared 
                between ant_test_engine1 and ant_test_binding1
            </description>
            <identification:VersionInfo specification-version="2.0" build-number="091709"/>
        </identification>
        <shared-library-class-path>
            <path-element>.</path-element>
        </shared-library-class-path>
    </shared-library>
</jbi>


BUILD SUCCESSFUL
IGNORE Total time: 0 seconds
============================================================
  List of Service Engines for Target "server"
============================================================
Name        : ant_test_engine1
Version     : 1.0
Build Number: 080809
State       : Started
Description : ant test engine with shared namespace.
------------------------------------------------------------

Component Installation Descriptor:
<?xml version="1.0" encoding="UTF-8"?>
<!--
 # BEGIN_HEADER - DO NOT EDIT
 #
 # The contents of this file are subject to the terms
 # of the Common Development and Distribution License
 # (the "License").  You may not use this file except
 # in compliance with the License.
 #
 # You can obtain a copy of the license at
 # https://open-esb.dev.java.net/public/CDDLv1.0.html.
 # See the License for the specific language governing
 # permissions and limitations under the License.
 #
 # When distributing Covered Code, include this CDDL
 # HEADER in each file and include the License file at
 # https://open-esb.dev.java.net/public/CDDLv1.0.html.
 # If applicable add the following below this CDDL HEADER,
 # with the fields enclosed by brackets "[]" replaced with
 # your own identifying information: Portions Copyright
 # [year] [name of copyright owner]
-->
<!--
 # @(#)jbi.xml
 # Copyright 2004-2007 Sun Microsystems, Inc. All Rights Reserved.
 #
 # END_HEADER - DO NOT EDIT
-->
<!-- Example jbi.xml for a BC: -->
<jbi xmlns="http://java.sun.com/xml/ns/jbi" version="1.0" xmlns:xsi="http://www.w3.org/2001/XMLSchema-instance" xmlns:identification="http://www.sun.com/jbi/descriptor/identification/V1.0">

<!-- identification information about this binding -->
    <component type="service-engine">
        <identification>
            <name>ant_test_engine1</name>
            <description>
            ant test engine with shared namespace.
            </description>
            <identification:VersionInfo component-version="1.0" build-number="080809"/>
        </identification>
        <component-class-name description="The Component Lifecycle class">com.sun.jbi.ui.ant.test.engine1.rt.Engine1Runtime</component-class-name>
        <component-class-path>
            <path-element>lib/ant-test-engine1-rt.jar</path-element>
            <path-element>classes</path-element>
         </component-class-path>
        <bootstrap-class-name>com.sun.jbi.ui.ant.test.engine1.boot.Engine1Installer</bootstrap-class-name>
        <bootstrap-class-path>
           <path-element>ant-test-engine1-boot.jar</path-element>
        </bootstrap-class-path>
        <shared-library>ant_test_sns1</shared-library>        
    </component>
</jbi>


BUILD SUCCESSFUL
IGNORE Total time: 0 seconds
============================================================
  List of Binding Components for Target "server"
============================================================
Name        : ant_test_binding1
Version     : 1.0
Build Number: 080809
State       : Started
Description : ant test binding with shared namespace.
------------------------------------------------------------

Component Installation Descriptor:
<?xml version="1.0" encoding="UTF-8"?>
<!--
 # BEGIN_HEADER - DO NOT EDIT
 #
 # The contents of this file are subject to the terms
 # of the Common Development and Distribution License
 # (the "License").  You may not use this file except
 # in compliance with the License.
 #
 # You can obtain a copy of the license at
 # https://open-esb.dev.java.net/public/CDDLv1.0.html.
 # See the License for the specific language governing
 # permissions and limitations under the License.
 #
 # When distributing Covered Code, include this CDDL
 # HEADER in each file and include the License file at
 # https://open-esb.dev.java.net/public/CDDLv1.0.html.
 # If applicable add the following below this CDDL HEADER,
 # with the fields enclosed by brackets "[]" replaced with
 # your own identifying information: Portions Copyright
 # [year] [name of copyright owner]
-->
<!--
 # @(#)jbi.xml
 # Copyright 2004-2007 Sun Microsystems, Inc. All Rights Reserved.
 #
 # END_HEADER - DO NOT EDIT
-->
<!-- Example jbi.xml for a BC: -->
<jbi xmlns="http://java.sun.com/xml/ns/jbi" version="1.0" xmlns:xsi="http://www.w3.org/2001/XMLSchema-instance" xmlns:identification="http://www.sun.com/jbi/descriptor/identification/V1.0">

<!-- identification information about this binding -->
    <component type="binding-component">
        <identification>
            <name>ant_test_binding1</name>
            <description>
            ant test binding with shared namespace.
            </description>
            <identification:VersionInfo component-version="1.0" build-number="080809"/>
        </identification>
        <component-class-name description="The Component Lifecycle class">com.sun.jbi.ui.ant.test.binding1.rt.Binding1Runtime</component-class-name>
        <component-class-path>
            <path-element>lib/ant-test-binding1-rt.jar</path-element>
            <path-element>classes</path-element>
         </component-class-path>
        <bootstrap-class-name>com.sun.jbi.ui.ant.test.binding1.boot.Binding1Installer</bootstrap-class-name>
        <bootstrap-class-path>
           <path-element>ant-test-binding1-boot.jar</path-element>
        </bootstrap-class-path>
        <shared-library>ant_test_sns1</shared-library>        
    </component>
</jbi>


BUILD SUCCESSFUL
IGNORE Total time: 0 seconds
============================================================
  List of Service Assemblies for Target "server"
============================================================
Name       : ant_test_assembly_unit_1
State      : Shutdown
Description: 
            This is an Ant Test Assembly Unit which deploys the sub assemblies
            to ant test engine and binding.
            
Service units in this service assembly [2]
  Service unit : ant_test_binding_1_asa1
    State      : Shutdown
    Deployed on: ant_test_binding1
    Description: 
                This is an ASA that will be deployed 
                to the ant test binding1
                
  Service unit : ant_test_engine_1_asa1
    State      : Shutdown
    Deployed on: ant_test_engine1
    Description: 
                    This is an ASA that will be deployed 
                    to the ant test engine1
                
------------------------------------------------------------

Service Assembly Deployment Descriptor:
<?xml version="1.0" encoding="UTF-8"?>
<!--
 # BEGIN_HEADER - DO NOT EDIT
 #
 # The contents of this file are subject to the terms
 # of the Common Development and Distribution License
 # (the "License").  You may not use this file except
 # in compliance with the License.
 #
 # You can obtain a copy of the license at
 # https://open-esb.dev.java.net/public/CDDLv1.0.html.
 # See the License for the specific language governing
 # permissions and limitations under the License.
 #
 # When distributing Covered Code, include this CDDL
 # HEADER in each file and include the License file at
 # https://open-esb.dev.java.net/public/CDDLv1.0.html.
 # If applicable add the following below this CDDL HEADER,
 # with the fields enclosed by brackets "[]" replaced with
 # your own identifying information: Portions Copyright
 # [year] [name of copyright owner]
-->
<!--
 # @(#)jbi.xml
 # Copyright 2004-2007 Sun Microsystems, Inc. All Rights Reserved.
 #
 # END_HEADER - DO NOT EDIT
-->
<jbi xmlns="http://java.sun.com/xml/ns/jbi" version="1.0" xmlns:xsi="http://www.w3.org/2001/XMLSchema-instance">
    <service-assembly>
        <identification>
            <name>ant_test_assembly_unit_1</name>
            <description>
            This is an Ant Test Assembly Unit which deploys the sub assemblies
            to ant test engine and binding.
            </description>
        </identification>
        <service-unit>
            <identification>
                <name>ant_test_binding_1_asa1</name>
                <description>
                This is an ASA that will be deployed 
                to the ant test binding1
                </description>
            </identification>
            <target>
                <artifacts-zip>ant-test-binding1-asa1.zip</artifacts-zip>
                <component-name>ant_test_binding1</component-name>
            </target>
        </service-unit>
        <service-unit>
            <identification>
                <name>ant_test_engine_1_asa1</name>
                <description>
                    This is an ASA that will be deployed 
                    to the ant test engine1
                </description>
            </identification>
            <target>
                <artifacts-zip>ant-test-engine1-asa1.zip</artifacts-zip>
                <component-name>ant_test_engine1</component-name>
            </target>
        </service-unit>
    </service-assembly>
</jbi>


BUILD SUCCESSFUL
IGNORE Total time: 0 seconds
============================================================
  List of Shared Libraries for Target "server"
============================================================
No Shared Libraries were found for the specified query.
------------------------------------------------------------

BUILD SUCCESSFUL
IGNORE Total time: 0 seconds
============================================================
  List of Service Assemblies for Target "server"
============================================================
No Service Assemblies were found for the specified query.
------------------------------------------------------------

BUILD SUCCESSFUL
IGNORE Total time: 0 seconds
============================================================
  List of Service Engines for Target "server"
============================================================
Name        : ant_test_engine1
Version     : 1.0
Build Number: 080809
State       : Started
Description : ant test engine with shared namespace.
------------------------------------------------------------

BUILD SUCCESSFUL
IGNORE Total time: 0 seconds
============================================================
  List of Binding Components for Target "server"
============================================================
Name        : ant_test_binding1
Version     : 1.0
Build Number: 080809
State       : Started
Description : ant test binding with shared namespace.
------------------------------------------------------------

BUILD SUCCESSFUL
IGNORE Total time: 0 seconds
============================================================
  List of Service Engines for Target "server"
============================================================
Name        : ant_test_engine1
Version     : 1.0
Build Number: 080809
State       : Started
Description : ant test engine with shared namespace.
------------------------------------------------------------

BUILD SUCCESSFUL
IGNORE Total time: 0 seconds
============================================================
  List of Binding Components for Target "server"
============================================================
Name        : ant_test_binding1
Version     : 1.0
Build Number: 080809
State       : Started
Description : ant test binding with shared namespace.
------------------------------------------------------------

BUILD SUCCESSFUL
IGNORE Total time: 0 seconds
Undeploying a service assembly
IGNORE   jmx connection info: (host=localhost, port=4849, secure=false, username=admin, target=server )
  name=ant_test_assembly_unit_1
Service assembly undeployment succeeded. [
ant_test_assembly_unit_1
]

BUILD SUCCESSFUL
IGNORE Total time: 0 seconds
Stopping a component
IGNORE   jmx connection info: (host=localhost, port=4849, secure=false, username=admin, target=server )
  name=ant_test_binding1
Stop component succeeded. [
ant_test_binding1
]

BUILD SUCCESSFUL
IGNORE Total time: 0 seconds
Stopping a component
IGNORE   jmx connection info: (host=localhost, port=4849, secure=false, username=admin, target=server )
  name=ant_test_engine1
Stop component succeeded. [
ant_test_engine1
]

BUILD SUCCESSFUL
IGNORE Total time: 0 seconds
Shutting down a component
IGNORE   jmx connection info: (host=localhost, port=4849, secure=false, username=admin, target=server )
  name=ant_test_binding1
Shutdown component succeeded. [
ant_test_binding1
]

BUILD SUCCESSFUL
IGNORE Total time: 0 seconds
Shutting down a component
IGNORE   jmx connection info: (host=localhost, port=4849, secure=false, username=admin, target=server )
  name=ant_test_binding2
Shutdown component succeeded. [
ant_test_binding2
]

BUILD SUCCESSFUL
IGNORE Total time: 0 seconds
Shutting down a component
IGNORE   jmx connection info: (host=localhost, port=4849, secure=false, username=admin, target=server )
  name=ant_test_engine1
Shutdown component succeeded. [
ant_test_engine1
]

BUILD SUCCESSFUL
IGNORE Total time: 0 seconds
Shutting down a component
IGNORE   jmx connection info: (host=localhost, port=4849, secure=false, username=admin, target=server )
  name=ant_test_engine2
Shutdown component succeeded. [
ant_test_engine2
]

BUILD SUCCESSFUL
IGNORE Total time: 0 seconds
Uninstalling a component
IGNORE   jmx connection info: (host=localhost, port=4849, secure=false, username=admin, target=server )
  name=ant_test_engine2
Uninstall component succeeded. [
ant_test_engine2
]

BUILD SUCCESSFUL
IGNORE Total time: 0 seconds
Uninstalling a component
IGNORE   jmx connection info: (host=localhost, port=4849, secure=false, username=admin, target=server )
  name=ant_test_engine1
Uninstall component succeeded. [
ant_test_engine1
]

BUILD SUCCESSFUL
IGNORE Total time: 0 seconds
Uninstalling a component
IGNORE   jmx connection info: (host=localhost, port=4849, secure=false, username=admin, target=server )
  name=ant_test_binding2
Uninstall component succeeded. [
ant_test_binding2
]

BUILD SUCCESSFUL
IGNORE Total time: 0 seconds
Uninstalling a component
IGNORE   jmx connection info: (host=localhost, port=4849, secure=false, username=admin, target=server )
  name=ant_test_binding1
Uninstall component succeeded. [
ant_test_binding1
]

BUILD SUCCESSFUL
IGNORE Total time: 0 seconds
Uninstalling a shared library
IGNORE   jmx connection info: (host=localhost, port=4849, secure=false, username=admin, target=server )
  name=ant_test_sns2
Uninstall shared library succeeded. [
ant_test_sns2
]

BUILD SUCCESSFUL
IGNORE Total time: 0 seconds
Uninstalling a shared library
IGNORE   jmx connection info: (host=localhost, port=4849, secure=false, username=admin, target=server )
  name=ant_test_sns1
Uninstall shared library succeeded. [
ant_test_sns1
]

BUILD SUCCESSFUL
IGNORE Total time: 0 seconds
============================================================
  List of Shared Libraries for Target "server"
============================================================
Name        : sun-wsdl-library
State       : Installed
Description : This library provides WSDL 1.1/2.0 parsing support and message-wrapping utilities used to send WSDL 1.1-defined messages over the Normalized Message Router (NMR).
------------------------------------------------------------

BUILD SUCCESSFUL
IGNORE Total time: 0 seconds
============================================================
  List of Service Engines for Target "server"
============================================================
Name        : sun-javaee-engine
State       : Shutdown
Description : Java Enterprise Edition Service Engine
------------------------------------------------------------

BUILD SUCCESSFUL
IGNORE Total time: 0 seconds
============================================================
  List of Binding Components for Target "server"
============================================================
Name        : sun-http-binding
State       : Shutdown
Description : HTTP binding component. Provides message processing capabilities over HTTP protocol in a JBI 1.0 compliant environment.
------------------------------------------------------------

BUILD SUCCESSFUL
IGNORE Total time: 0 seconds
============================================================
  List of Service Assemblies for Target "server"
============================================================
No Service Assemblies were found for the specified query.
------------------------------------------------------------

BUILD SUCCESSFUL
IGNORE Total time: 0 seconds
