IGNOREasant -emacs -q -f C:/d/open4/open-esb/install/as8/jbi/bin/jbi_admin.xml -Djbi.username=admin -Djbi.password=adminadmin -Djbi.port=5049 -Djbi.secure=false -Djbi.task.fail.on.error=false
Building ant-test-sns1.jar
Building ant-test-sns2.jar
Building ant-test-binding1.jar
Building ant-test-binding2.jar
Building ant-test-engine1.jar
Building ant-test-engine2.jar
Building ant-test-binding1-asa1.zip
Building ant-test-engine1-asa1.zip
Building ant-test-au1.zip
Building ant-test-engine1-asa2.zip
Building ant-test-au2.zip
Building ant-test-engine2-asa1.zip
Building ant-test-au3.zip
Done Building the Components
BUILD SUCCESSFUL
Total time: 1 second
Installing a component
IGNORE  jmx connection info: (host=localhost, port=5049, secure=false, username=admin, target=server )
IGNORE  file=C:/d/open4/open-esb/ri-clients/jbi-ant-tasks/bld/test-classes/testdata/ant-test-engine4.jar
Install component succeeded. [
ant_test_engine4
]
BUILD SUCCESSFUL
Total time: 1 second
Uninstalling a component
IGNORE  jmx connection info: (host=localhost, port=5049, secure=false, username=admin, target=server )
  name=ant_test_engine4
Uninstall component failed. [
  ERROR:(JBIFW1117)Uninstallation of Engine ant_test_engine4 failed. 
    Caused by:(JBIFW2002)Bootstrap implementation for ant_test_engine4 could not be loaded. JBIFW2004: Required class com.sun.jbi.ui.ant.test.engine4.boot.Engine4Installer was not found.
]
BUILD SUCCESSFUL
Total time: 0 seconds
Uninstalling a component
IGNORE  jmx connection info: (host=localhost, port=5049, secure=false, username=admin, target=server )
  name=ant_test_engine4
Uninstall component succeeded. [
ant_test_engine4
]
BUILD SUCCESSFUL
Total time: 0 seconds
============================================================
  List of Service Engines for Target "server"
============================================================
Name       : sun-javaee-engine
State      : Shutdown
Description: Java Enterprise Edition Service Engine
------------------------------------------------------------
BUILD SUCCESSFUL
Total time: 0 seconds
