ui00014 : Verify application and export application configuration.
added manifest
ignoring entry META-INF/
IGNORE adding: META-INF/jbi.xml(in = 1288) (out= 706)(deflated 45%)
IGNORE adding: WSDL/(in = 0) (out= 0)(stored 0%)
IGNORE adding: WSDL/sa1-su1.wsdl(in = 2948) (out= 1192)(deflated 59%)
IGNORE added manifest
ignoring entry META-INF/
IGNORE adding: META-INF/jbi.xml(in = 1875) (out= 846)(deflated 54%)
IGNORE adding: WSDL/(in = 0) (out= 0)(stored 0%)
IGNORE adding: WSDL/sa1-su2.wsdl(in = 2993) (out= 1203)(deflated 59%)
added manifest
ignoring entry META-INF/
IGNORE adding: META-INF/jbi.xml(in = 1982) (out= 823)(deflated 58%)
IGNORE adding: test-su1.jar(in = 2579) (out= 2279)(deflated 11%)
IGNORE adding: test-su2.jar(in = 2730) (out= 2437)(deflated 10%)
added manifest
ignoring entry META-INF/
IGNORE adding: META-INF/jbi.xml(in = 1875) (out= 846)(deflated 54%)
IGNORE adding: WSDL/(in = 0) (out= 0)(stored 0%)
IGNORE adding: WSDL/sa1-su2.wsdl(in = 2993) (out= 1203)(deflated 59%)
added manifest
ignoring entry META-INF/
IGNORE adding: META-INF/jbi.xml(in = 1674) (out= 810)(deflated 51%)
IGNORE adding: test-su2.jar(in = 2730) (out= 2437)(deflated 10%)
jbi_instance_name is server
IGNORE jmx.provider is service:jmx:rmi:///jndi/rmi://TOSHIBA-YUNPENG:8687/management/rmi-jmx-connector

BUILD SUCCESSFUL
IGNORE Total time: 0 seconds
Installing a component
IGNORE  jmx connection info: (host=localhost, port=4849, secure=false, username=admin, target=server )
IGNORE  file=C:/cygwin/home/yz72237/build/open-esb/ri-clients/jbi-ant-tasks/bld/regress/dist/test-component1.jar
Install component succeeded. [
test-component1
]

BUILD SUCCESSFUL
IGNORE Total time: 1 second
Verifying application environment
IGNORE  jmx connection info: (host=localhost, port=4849, secure=false, username=admin, target=server )
================================================
Service Assembly Information on target "server"
------------------------------------------------
Name: SA1
Service Units: 2
Description: Test SA
The following components are not installed: test-component

Endpoint Configuration
------------------------------------------------
Name: http://sun.com/transform-file.wsdl/,transformService,filetxEP2
Service Unit: SA1-SU2
Component: test-component1
Status: UNRESOLVED
Missing Application Variables 
	PROCESSED_LOCATION
	NEW_LOCATION

Missing Application Configurations 
	MyAppConfig3


Endpoint Configuration
------------------------------------------------
Name: http://sun.com/transform-file.wsdl/,transformService,filetxEP
Service Unit: SA1-SU1
Component: test-component
Status: UNKNOWN

------------------------------------------------
IGNORE The templates files have been created in "C:/cygwin/home/yz72237/build/open-esb/ri-clients/jbi-ant-tasks/bld/regress/testdata/tmp".  Please provide values in the template files and use "asant -f configure.xml".

BUILD SUCCESSFUL
IGNORE Total time: 1 second
Starting a component
IGNORE  jmx connection info: (host=localhost, port=4849, secure=false, username=admin, target=server )
  name=test-component1
Start component succeeded. [
test-component1
]

BUILD SUCCESSFUL
IGNORE Total time: 0 seconds
Creating application variables
IGNORE  jmx connection info: (host=localhost, port=4849, secure=false, username=admin, target=server )
Add application variable succeeded.

BUILD SUCCESSFUL
IGNORE Total time: 0 seconds
Creating application configuration
IGNORE  jmx connection info: (host=localhost, port=4849, secure=false, username=admin, target=server )
Add application configuration succeeded.

BUILD SUCCESSFUL
IGNORE Total time: 0 seconds
Verifying application environment
IGNORE  jmx connection info: (host=localhost, port=4849, secure=false, username=admin, target=server )
================================================
Service Assembly Information on target "server"
------------------------------------------------
Name: SA2
Service Units: 1
Description: Test SA Export

Endpoint Configuration
------------------------------------------------
Name: http://sun.com/transform-file.wsdl/,transformService,filetxEP2
Service Unit: SA1-SU2
Component: test-component1
Status: RESOLVED

------------------------------------------------
IGNORE The templates files have been created in "C:/cygwin/home/yz72237/build/open-esb/ri-clients/jbi-ant-tasks/bld/regress/testdata/tmp".  Please provide values in the template files and use "asant -f configure.xml".

BUILD SUCCESSFUL
IGNORE Total time: 0 seconds
Deploying a service assembly
IGNORE  jmx connection info: (host=localhost, port=4849, secure=false, username=admin, target=server )
IGNORE  file=C:/cygwin/home/yz72237/build/open-esb/ri-clients/jbi-ant-tasks/bld/regress/testdata/sa2/sa2.jar
Service assembly deployment succeeded. [
SA2
]

BUILD SUCCESSFUL
IGNORE Total time: 1 second
Exporting application environment
IGNORE  jmx connection info: (host=localhost, port=4849, secure=false, username=admin, target=server )
Export application environment succeeded. [
IGNORE Application Environment has been exported to "C:/cygwin/home/yz72237/build/open-esb/ri-clients/jbi-ant-tasks/bld/regress/testdata/tmp". 
]

BUILD SUCCESSFUL
IGNORE Total time: 0 seconds
Undeploying a service assembly
IGNORE  jmx connection info: (host=localhost, port=4849, secure=false, username=admin, target=server )
  name=SA2
Service assembly undeployment succeeded. [
SA2
]

BUILD SUCCESSFUL
IGNORE Total time: 0 seconds
Stopping a component
IGNORE  jmx connection info: (host=localhost, port=4849, secure=false, username=admin, target=server )
  name=test-component1
Stop component succeeded. [
test-component1
]

BUILD SUCCESSFUL
IGNORE Total time: 0 seconds
Shutting down a component
IGNORE  jmx connection info: (host=localhost, port=4849, secure=false, username=admin, target=server )
  name=test-component1
Shutdown component succeeded. [
test-component1
]

BUILD SUCCESSFUL
IGNORE Total time: 0 seconds
Uninstalling a component
IGNORE  jmx connection info: (host=localhost, port=4849, secure=false, username=admin, target=server )
  name=test-component1
Uninstall component succeeded. [
test-component1
]

BUILD SUCCESSFUL
IGNORE Total time: 0 seconds
Installing a component
IGNORE  jmx connection info: (host=localhost, port=4849, secure=false, username=admin, target=ant_cluster )
IGNORE  file=C:/cygwin/home/yz72237/build/open-esb/ri-clients/jbi-ant-tasks/bld/regress/dist/test-component1.jar
Install component succeeded. [
test-component1
]

BUILD SUCCESSFUL
IGNORE Total time: 1 second
Verifying application environment
IGNORE  jmx connection info: (host=localhost, port=4849, secure=false, username=admin, target=ant_cluster )
================================================
Service Assembly Information on target "ant_cluster"
------------------------------------------------
Name: SA1
Service Units: 2
Description: Test SA
The following components are not installed: test-component

Endpoint Configuration
------------------------------------------------
Name: http://sun.com/transform-file.wsdl/,transformService,filetxEP2
Service Unit: SA1-SU2
Component: test-component1
Status: UNRESOLVED
Missing Application Variables 
	PROCESSED_LOCATION
	NEW_LOCATION

Missing Application Configurations 
	MyAppConfig3


Endpoint Configuration
------------------------------------------------
Name: http://sun.com/transform-file.wsdl/,transformService,filetxEP
Service Unit: SA1-SU1
Component: test-component
Status: UNKNOWN

------------------------------------------------
IGNORE The templates files have been created in "C:/cygwin/home/yz72237/build/open-esb/ri-clients/jbi-ant-tasks/bld/regress/testdata/tmp".  Please provide values in the template files and use "asant -f configure.xml".

BUILD SUCCESSFUL
IGNORE Total time: 1 second
Starting a component
IGNORE  jmx connection info: (host=localhost, port=4849, secure=false, username=admin, target=ant_cluster )
  name=test-component1
Start component succeeded. [
test-component1
]

BUILD SUCCESSFUL
IGNORE Total time: 0 seconds
Creating application variables
IGNORE  jmx connection info: (host=localhost, port=4849, secure=false, username=admin, target=ant_cluster )
Add application variable succeeded.

BUILD SUCCESSFUL
IGNORE Total time: 0 seconds
Creating application configuration
IGNORE  jmx connection info: (host=localhost, port=4849, secure=false, username=admin, target=ant_cluster )
Add application configuration succeeded.

BUILD SUCCESSFUL
IGNORE Total time: 0 seconds
Verifying application environment
IGNORE  jmx connection info: (host=localhost, port=4849, secure=false, username=admin, target=ant_cluster )
================================================
Service Assembly Information on target "ant_cluster"
------------------------------------------------
Name: SA2
Service Units: 1
Description: Test SA Export

Endpoint Configuration
------------------------------------------------
Name: http://sun.com/transform-file.wsdl/,transformService,filetxEP2
Service Unit: SA1-SU2
Component: test-component1
Status: RESOLVED

------------------------------------------------
IGNORE The templates files have been created in "C:/cygwin/home/yz72237/build/open-esb/ri-clients/jbi-ant-tasks/bld/regress/testdata/tmp".  Please provide values in the template files and use "asant -f configure.xml".

BUILD SUCCESSFUL
IGNORE Total time: 0 seconds
Deploying a service assembly
IGNORE  jmx connection info: (host=localhost, port=4849, secure=false, username=admin, target=ant_cluster )
IGNORE  file=C:/cygwin/home/yz72237/build/open-esb/ri-clients/jbi-ant-tasks/bld/regress/testdata/sa2/sa2.jar
Service assembly deployment succeeded. [
SA2
]

BUILD SUCCESSFUL
IGNORE Total time: 1 second
Exporting application environment
IGNORE  jmx connection info: (host=localhost, port=4849, secure=false, username=admin, target=ant_cluster )
Export application environment succeeded. [
IGNORE Application Environment has been exported to "C:/cygwin/home/yz72237/build/open-esb/ri-clients/jbi-ant-tasks/bld/regress/testdata/tmp". 
]

BUILD SUCCESSFUL
IGNORE Total time: 0 seconds
Undeploying a service assembly
IGNORE  jmx connection info: (host=localhost, port=4849, secure=false, username=admin, target=ant_cluster )
  name=SA2
Service assembly undeployment succeeded. [
SA2
]

BUILD SUCCESSFUL
IGNORE Total time: 0 seconds
Stopping a component
IGNORE  jmx connection info: (host=localhost, port=4849, secure=false, username=admin, target=ant_cluster )
  name=test-component1
Stop component succeeded. [
test-component1
]

BUILD SUCCESSFUL
IGNORE Total time: 0 seconds
Shutting down a component
IGNORE  jmx connection info: (host=localhost, port=4849, secure=false, username=admin, target=ant_cluster )
  name=test-component1
Shutdown component succeeded. [
test-component1
]

BUILD SUCCESSFUL
IGNORE Total time: 0 seconds
Uninstalling a component
IGNORE  jmx connection info: (host=localhost, port=4849, secure=false, username=admin, target=ant_cluster )
  name=test-component1
Uninstall component succeeded. [
test-component1
]

BUILD SUCCESSFUL
IGNORE Total time: 0 seconds
Installing a component
IGNORE  jmx connection info: (host=localhost, port=4849, secure=false, username=admin, target=instance13 )
IGNORE  file=C:/cygwin/home/yz72237/build/open-esb/ri-clients/jbi-ant-tasks/bld/regress/dist/test-component1.jar
Install component succeeded. [
test-component1
]

BUILD SUCCESSFUL
IGNORE Total time: 1 second
Verifying application environment
IGNORE  jmx connection info: (host=localhost, port=4849, secure=false, username=admin, target=instance13 )
================================================
Service Assembly Information on target "instance13"
------------------------------------------------
Name: SA1
Service Units: 2
Description: Test SA
The following components are not installed: test-component

Endpoint Configuration
------------------------------------------------
Name: http://sun.com/transform-file.wsdl/,transformService,filetxEP2
Service Unit: SA1-SU2
Component: test-component1
Status: UNRESOLVED
Missing Application Variables 
	PROCESSED_LOCATION
	NEW_LOCATION

Missing Application Configurations 
	MyAppConfig3


Endpoint Configuration
------------------------------------------------
Name: http://sun.com/transform-file.wsdl/,transformService,filetxEP
Service Unit: SA1-SU1
Component: test-component
Status: UNKNOWN

------------------------------------------------
IGNORE The templates files have been created in "C:/cygwin/home/yz72237/build/open-esb/ri-clients/jbi-ant-tasks/bld/regress/testdata/tmp".  Please provide values in the template files and use "asant -f configure.xml".

BUILD SUCCESSFUL
IGNORE Total time: 1 second
Starting a component
IGNORE  jmx connection info: (host=localhost, port=4849, secure=false, username=admin, target=instance13 )
  name=test-component1
Start component succeeded. [
test-component1
]

BUILD SUCCESSFUL
IGNORE Total time: 0 seconds
Creating application variables
IGNORE  jmx connection info: (host=localhost, port=4849, secure=false, username=admin, target=instance13 )
Add application variable succeeded.

BUILD SUCCESSFUL
IGNORE Total time: 0 seconds
Creating application configuration
IGNORE  jmx connection info: (host=localhost, port=4849, secure=false, username=admin, target=instance13 )
Add application configuration succeeded.

BUILD SUCCESSFUL
IGNORE Total time: 0 seconds
Verifying application environment
IGNORE  jmx connection info: (host=localhost, port=4849, secure=false, username=admin, target=instance13 )
================================================
Service Assembly Information on target "instance13"
------------------------------------------------
Name: SA2
Service Units: 1
Description: Test SA Export

Endpoint Configuration
------------------------------------------------
Name: http://sun.com/transform-file.wsdl/,transformService,filetxEP2
Service Unit: SA1-SU2
Component: test-component1
Status: RESOLVED

------------------------------------------------
IGNORE The templates files have been created in "C:/cygwin/home/yz72237/build/open-esb/ri-clients/jbi-ant-tasks/bld/regress/testdata/tmp".  Please provide values in the template files and use "asant -f configure.xml".

BUILD SUCCESSFUL
IGNORE Total time: 0 seconds
Deploying a service assembly
IGNORE  jmx connection info: (host=localhost, port=4849, secure=false, username=admin, target=instance13 )
IGNORE  file=C:/cygwin/home/yz72237/build/open-esb/ri-clients/jbi-ant-tasks/bld/regress/testdata/sa2/sa2.jar
Service assembly deployment succeeded. [
SA2
]

BUILD SUCCESSFUL
IGNORE Total time: 1 second
Exporting application environment
IGNORE  jmx connection info: (host=localhost, port=4849, secure=false, username=admin, target=instance13 )
Export application environment succeeded. [
IGNORE Application Environment has been exported to "C:/cygwin/home/yz72237/build/open-esb/ri-clients/jbi-ant-tasks/bld/regress/testdata/tmp". 
]

BUILD SUCCESSFUL
IGNORE Total time: 0 seconds
Undeploying a service assembly
IGNORE  jmx connection info: (host=localhost, port=4849, secure=false, username=admin, target=instance13 )
  name=SA2
Service assembly undeployment succeeded. [
SA2
]

BUILD SUCCESSFUL
IGNORE Total time: 1 second
Stopping a component
IGNORE  jmx connection info: (host=localhost, port=4849, secure=false, username=admin, target=instance13 )
  name=test-component1
Stop component succeeded. [
test-component1
]

BUILD SUCCESSFUL
IGNORE Total time: 0 seconds
Shutting down a component
IGNORE  jmx connection info: (host=localhost, port=4849, secure=false, username=admin, target=instance13 )
  name=test-component1
Shutdown component succeeded. [
test-component1
]

BUILD SUCCESSFUL
IGNORE Total time: 0 seconds
Uninstalling a component
IGNORE  jmx connection info: (host=localhost, port=4849, secure=false, username=admin, target=instance13 )
  name=test-component1
Uninstall component succeeded. [
test-component1
]

BUILD SUCCESSFUL
IGNORE Total time: 0 seconds
