testname is manage00211
IGNORE JBI_HOME is /planer2/russt/rtoesb/build/open-esb/install/as8/jbi
IGNORE JBI_DOMAIN_ROOT is /planer2/russt/rtoesb/build/open-esb/install/as8/domains/domain1
jbi_instance_name is server
jbi_target_name is server
IGNORE jmx.provider is service:jmx:rmi:///jndi/rmi://planer:11586/management/rmi-jmx-connector
##### Result for getSystemService(ConfigurationService)='com.sun.jbi:JbiName=server,ServiceName=ConfigurationService,ControlType=ConfigurationService,ComponentType=System'
##### getSystemConfigMBeans='[com.sun.jbi:JbiName=domain,ServiceName=ConfigurationService,ControlType=InstallationService,ComponentType=System	com.sun.jbi:JbiName=server,ServiceName=ConfigurationService,ControlType=DeploymentService,ComponentType=System	com.sun.jbi:JbiName=server,ServiceName=ConfigurationService,ControlType=InstallationService,ComponentType=System	com.sun.jbi:JbiName=server,ServiceName=ConfigurationService,ControlType=ConfigurationService,ComponentType=System	com.sun.jbi:JbiName=domain,ServiceName=ConfigurationService,ControlType=System,ComponentType=System	com.sun.jbi:JbiName=domain,ServiceName=ConfigurationService,ControlType=DeploymentService,ComponentType=System	com.sun.jbi:JbiName=server,ServiceName=ConfigurationService,ControlType=LoggingService,ComponentType=System	com.sun.jbi:JbiName=server,ServiceName=ConfigurationService,ControlType=Logger,ComponentType=System,LoggerName=com.sun.jbi.management.ConfigurationService	com.sun.jbi:JbiName=server,ServiceName=ConfigurationService,ControlType=System,ComponentType=System	com.sun.jbi:JbiName=server,ServiceName=ConfigurationService,ControlType=Lifecycle,ComponentType=System	com.sun.jbi:JbiName=domain,ServiceName=ConfigurationService,ControlType=LoggingService,ComponentType=System]'
##### Result for getSystemConfigMBean(ConfigurationService)='[com.sun.jbi:JbiName=server,ServiceName=ConfigurationService,ControlType=ConfigurationService,ComponentType=System]'
##### Result for getSystemConfigMBean(DeploymentService)='[com.sun.jbi:JbiName=server,ServiceName=ConfigurationService,ControlType=DeploymentService,ComponentType=System	com.sun.jbi:JbiName=domain,ServiceName=ConfigurationService,ControlType=DeploymentService,ComponentType=System]'
##### Result for getSystemConfigMBean(InstallationService)='[com.sun.jbi:JbiName=domain,ServiceName=ConfigurationService,ControlType=InstallationService,ComponentType=System	com.sun.jbi:JbiName=server,ServiceName=ConfigurationService,ControlType=InstallationService,ComponentType=System]'
##### Result for getSystemConfigMBean(LoggingService)='[com.sun.jbi:JbiName=domain,ServiceName=ConfigurationService,ControlType=LoggingService,ComponentType=System	com.sun.jbi:JbiName=server,ServiceName=ConfigurationService,ControlType=LoggingService,ComponentType=System]'

BUILD SUCCESSFUL
IGNORE Total time: 1 second
