IGNORE JBI_HOME is C:\cygwin\home\kcbabo\gfmerge\build\open-esb\install\as8/jbi
IGNORE JBI_DOMAIN_ROOT is C:/cygwin/home/kcbabo/gfmerge/build/open-esb/install/as8/domains/domain1
IGNORE jbi_instance_name is domain1
IGNORE jbi_target_name is server
IGNORE jmx.provider is service:jmx:rmi:///jndi/rmi://nullset:18686/management/rmi-jmx-connector
IGNORE deployroot is NOT_USED
IGNORE filebindingAU is file:/C:\cygwin\home\kcbabo\gfmerge\build\open-esb\install\as8/jbi/components/bindings/filebinding/deployments/fileDeployWin.zip
serviceAssemblyName is SunFileBinding_SAMPLE_SERVICE_ASSEMBLY
about to invoke mbean.
Deployment result is '<jbi-task version="1.0" xmlns="http://java.sun.com/xml/ns/jbi/management-message" xmlns:xsi="http://www.w3.org/2001/XMLSchema-instance" xsi:schemaLocation="http://java.sun.com/xml/ns/jbi/management-message ./managementMessage.xsd"><jbi-task-result><frmwk-task-result><frmwk-task-result-details><task-result-details><task-id>deploy</task-id><task-result>SUCCESS</task-result><message-type>INFO</message-type><task-status-msg><msg-loc-info><loc-token>JBIMA0495</loc-token><loc-message>Deployment of service assembly SunFileBinding_SAMPLE_SERVICE_ASSEMBLY succeeded.</loc-message></msg-loc-info></task-status-msg></task-result-details><locale>en_US</locale></frmwk-task-result-details></frmwk-task-result><component-task-result><component-name>SunFileBinding</component-name><component-task-result-details><task-result-details><task-id>deploy</task-id><task-result>SUCCESS</task-result></task-result-details></component-task-result-details></component-task-result></jbi-task-result></jbi-task>'
about to invoke mbean.
Start result is '<jbi-task version="1.0" xmlns="http://java.sun.com/xml/ns/jbi/management-message" xmlns:xsi="http://www.w3.org/2001/XMLSchema-instance" xsi:schemaLocation="http://java.sun.com/xml/ns/jbi/management-message ./managementMessage.xsd"><jbi-task-result><frmwk-task-result><frmwk-task-result-details><task-result-details><task-id>start</task-id><task-result>SUCCESS</task-result></task-result-details><locale>en_US</locale></frmwk-task-result-details></frmwk-task-result><component-task-result><component-name>SunFileBinding</component-name><component-task-result-details><task-result-details><task-id>start</task-id><task-result>SUCCESS</task-result><message-type>INFO</message-type><task-status-msg><msg-loc-info><loc-token>JBIMA0409</loc-token><loc-message>Lifecycle operation start succeeded for Service Unit SunFileBinding_SAMPLE_SERVICE_UNIT.</loc-message><loc-param>start</loc-param><loc-param>SunFileBinding_SAMPLE_SERVICE_UNIT</loc-param></msg-loc-info></task-status-msg></task-result-details></component-task-result-details></component-task-result></jbi-task-result></jbi-task>'

BUILD SUCCESSFUL
IGNORE Total time: 4 seconds
has been deployed
1
