IGNORE JBI_HOME is D:/nikita/dev/jsr208/esb/install/as8/jbi
IGNORE JBI_DOMAIN_ROOT is D:/nikita/dev/jsr208/esb/install/as8/domains/domain1
IGNORE jbi_instance_name is domain1@Mystique01.0
IGNORE jmx.provider is service:jmx:rmi:///jndi/rmi://Mystique01:8686/management/rmi-jmx-connector

BUILD SUCCESSFUL
IGNORE Total time: 2 seconds
IGNORE JBI_HOME is D:/nikita/dev/jsr208/esb/install/as8/jbi
IGNORE JBI_DOMAIN_ROOT is D:/nikita/dev/jsr208/esb/install/as8/domains/domain1
IGNORE jbi_instance_name is domain1@Mystique01.0
IGNORE jmx.provider is service:jmx:rmi:///jndi/rmi://Mystique01:8686/management/rmi-jmx-connector
IGNORE Deploying the Service Assembly jar:http://MYSTIQUE01:8084/fileDeployWin.zip!/.
Deployment result is '<jbi-task version="1.0" xmlns="http://java.sun.com/xml/ns/jbi/management-message" xmlns:xsi="http://www.w3.org/2001/XMLSchema-instance" xsi:schemaLocation="http://java.sun.com/xml/ns/jbi/management-message ./managementMessage.xsd"><jbi-task-result><frmwk-task-result><frmwk-task-result-details><task-result-details><task-id>deploy</task-id><task-result>SUCCESS</task-result><message-type>INFO</message-type><task-status-msg><msg-loc-info><loc-token>JBIMA0495</loc-token><loc-message>Deployment of service assembly SunFileBinding_SAMPLE_SERVICE_ASSEMBLY succeeded.</loc-message></msg-loc-info></task-status-msg></task-result-details><locale>en_US</locale></frmwk-task-result-details></frmwk-task-result><component-task-result><component-name>SunFileBinding</component-name><component-task-result-details><task-result-details><task-id>deploy</task-id><task-result>SUCCESS</task-result></task-result-details></component-task-result-details></component-task-result></jbi-task-result></jbi-task>'

BUILD SUCCESSFUL
IGNORE Total time: 3 seconds
has been deployed
      2 
IGNORE JBI_HOME is D:/nikita/dev/jsr208/esb/install/as8/jbi
IGNORE JBI_DOMAIN_ROOT is D:/nikita/dev/jsr208/esb/install/as8/domains/domain1
IGNORE jbi_instance_name is domain1@Mystique01.0
IGNORE jmx.provider is service:jmx:rmi:///jndi/rmi://Mystique01:8686/management/rmi-jmx-connector
IGNORE about to invoke mbean.
Undeployment result is '<jbi-task version="1.0" xmlns="http://java.sun.com/xml/ns/jbi/management-message" xmlns:xsi="http://www.w3.org/2001/XMLSchema-instance" xsi:schemaLocation="http://java.sun.com/xml/ns/jbi/management-message ./managementMessage.xsd"><jbi-task-result><frmwk-task-result><frmwk-task-result-details><task-result-details><task-id>undeploy</task-id><task-result>SUCCESS</task-result></task-result-details><locale>en_US</locale></frmwk-task-result-details></frmwk-task-result><component-task-result><component-name>SunFileBinding</component-name><component-task-result-details><task-result-details><task-id>undeploy</task-id><task-result>SUCCESS</task-result></task-result-details></component-task-result-details></component-task-result></jbi-task-result></jbi-task>'

BUILD SUCCESSFUL
IGNORE Total time: 3 seconds
has been undeployed
      2 
IGNORE JBI_HOME is D:/nikita/dev/jsr208/esb/install/as8/jbi
IGNORE JBI_DOMAIN_ROOT is D:/nikita/dev/jsr208/esb/install/as8/domains/domain1
IGNORE jbi_instance_name is domain1@Mystique01.0
IGNORE jmx.provider is service:jmx:rmi:///jndi/rmi://Mystique01:8686/management/rmi-jmx-connector

BUILD SUCCESSFUL
IGNORE Total time: 2 seconds
