
BUILD SUCCESSFUL
IGNORE Total time: 0 seconds

BUILD SUCCESSFUL
IGNORE Total time: 1 second

BUILD SUCCESSFUL
IGNORE Total time: 1 second

BUILD SUCCESSFUL
IGNORE Total time: 1 second
Deploying the TestSecurityServlet.
Successfully deployed the TestSecurityServlet.
