sequencingengine00004.ksh- DEPLOY to sequencing engine test
Deploying a service assembly
IGNORE  jmx connection info: (host=localhost, port=14849, username=admin)
IGNORE   file=C:/cygwin/home/kcbabo/build/open-esb/install/as8/jbi/components/engines/sequencingengine/deployments/seq-two-services.zip
Service assembly deployment succeeded. [
SEQ_ENGINE_TWO_SERVICE_TEST
]

BUILD SUCCESSFUL
IGNORE Total time: 0 seconds
Starting a service assembly
IGNORE   jmx connection info: (host=localhost, port=14849, username=admin)
  name=SEQ_ENGINE_TWO_SERVICE_TEST
Start service assembly succeeded. [
SEQ_ENGINE_TWO_SERVICE_TEST
]

BUILD SUCCESSFUL
IGNORE Total time: 0 seconds
Completed Deploying to sequencing engine
