runtime-ui-00102 : Test Framework, NMR, Component, Endpoint, SA Stats in instance1.
Setup server for getting some stats
-----------------------------------
IGNORE JBI_HOME is /gf/jbi
IGNORE jmx.provider is service:jmx:rmi:///jndi/rmi://AABDULJAFFAR:8789/management/rmi-jmx-connector

BUILD SUCCESSFUL
IGNORE Total time: 0 seconds
Command set-jbi-runtime-configuration executed successfully.
Deployed service assembly PingApp.
Service Assembly stats in instance1
-----------------------------------
IGNORE JBI_HOME is /gf/jbi
IGNORE jmx.provider is service:jmx:rmi:///jndi/rmi://AABDULJAFFAR:8789/management/rmi-jmx-connector
	InstanceName=instance1
	ServiceAssemblyName=PingApp
	ServiceUnitStatistics:
		ServiceUnitName=PingApp-sun-http-binding

BUILD SUCCESSFUL
IGNORE Total time: 1 second
Started service assembly PingApp.
Installed component SimpleTestEngine.
Started component SimpleTestEngine.
Framework stats in instance1
----------------------------
IGNORE JBI_HOME is /gf/jbi
IGNORE jmx.provider is service:jmx:rmi:///jndi/rmi://AABDULJAFFAR:8789/management/rmi-jmx-connector
	InstanceName=instance1
IGNORE 	StartupTime (ms)=3000
IGNORE 	UpTime (ms)=1591640

BUILD SUCCESSFUL
IGNORE Total time: 1 second
NMR stats in instance1
----------------------
IGNORE JBI_HOME is /gf/jbi
IGNORE jmx.provider is service:jmx:rmi:///jndi/rmi://AABDULJAFFAR:8789/management/rmi-jmx-connector
	InstanceName=instance1
	ListActiveChannels:
		sun-http-binding
		SimpleTestEngine
	ListActiveEndpoints:
		http://www.sun.com/jbi/qos/redelivery,sun-http-binding,redeliveryLoopback
		http://ping,PingService,PingPort
		http://ping,PingService,ConsumingPingPort

BUILD SUCCESSFUL
IGNORE Total time: 1 second
Component stats in instance1
----------------------------
Started component sun-http-binding.
IGNORE JBI_HOME is /gf/jbi
IGNORE jmx.provider is service:jmx:rmi:///jndi/rmi://AABDULJAFFAR:8789/management/rmi-jmx-connector
		ConsumingEndpoints:
		PerformanceMeasurementCategories:
			Normalization
			Denormalization
		ProvisioningEndpoints:
			http://ping,PingService,PingPort,Provider
		ShortDisplayName=sun-http-binding
		TotalDone=0
		TotalErrors=0
		TotalReceivedDones=0
		TotalReceivedErrors=0
		TotalReceivedReplies=0
		TotalReceivedRequests=1
		TotalReplies=1
		TotalRequests=1
		TotalSentDones=0
		TotalSentErrors=0
		TotalSentReplies=1
		TotalSentRequests=0
IGNORE 	ComponentUpTime=14828
	InstanceName=instance1
IGNORE 	ME-ComponentTime-Avg=3.6981237E7
IGNORE 	ME-DeliveryChannelTime-Avg=38831.0
IGNORE 	ME-MessageServiceTime-Avg=803175.0
IGNORE 	ME-ResponseTime-Avg=3.7880513E7
IGNORE 	ME-StatusTime-Avg=3.7880513E7
	NumActivatedEndpoints=2
IGNORE 	NumActiveExchanges=1
IGNORE 	NumActiveExchangesMax=1
	NumCompletedExchanges=1
IGNORE 	NumErrorExchanges=1
IGNORE 	NumQueuedExchanges=1
IGNORE 	NumQueuedExchangesMax=1
	NumReceivedDONEs=0
	NumReceivedErrors=0
	NumReceivedFaults=0
	NumReceivedReplies=0
IGNORE 	NumReceivedRequests=1
IGNORE	NumSentDONEs=0
IGNORE 	NumSentErrors=1
	NumSentFaults=0
	NumSentReplies=0
	NumSentRequests=0

BUILD SUCCESSFUL
IGNORE Total time: 1 second
List of providing endpoint for component
----------------------------------------
IGNORE JBI_HOME is /gf/jbi
IGNORE jmx.provider is service:jmx:rmi:///jndi/rmi://AABDULJAFFAR:8789/management/rmi-jmx-connector
	Endpoints:
		http://ping,PingService,ConsumingPingPort
	InstanceName=instance1

BUILD SUCCESSFUL
IGNORE Total time: 1 second
List of consuming endpoints for component
-----------------------------------------
IGNORE JBI_HOME is /gf/jbi
IGNORE jmx.provider is service:jmx:rmi:///jndi/rmi://AABDULJAFFAR:8789/management/rmi-jmx-connector
	Endpoints:
		http://ping,PingService,PingPort
		http://www.sun.com/jbi/qos/redelivery,sun-http-binding,redeliveryLoopback
	InstanceName=instance1

BUILD SUCCESSFUL
IGNORE Total time: 2 seconds
Providing endpoint stats in instance1
-------------------------------------
IGNORE JBI_HOME is /gf/jbi
IGNORE jmx.provider is service:jmx:rmi:///jndi/rmi://AABDULJAFFAR:8789/management/rmi-jmx-connector
IGNORE 	ActivationTime=Wed Dec 05 08:16:29 PST 2007
	ComponentName=sun-http-binding
IGNORE	EndpointUpTime (ms)=16078
	InstanceName=instance1
IGNORE        MessageExchangeComponentTime Avg (ns)=137349021
IGNORE        MessageExchangeDeliveryTime Avg (ns)=33244
IGNORE        MessageExchangeNMRTime Avg (ns)=1290946
IGNORE        MessageExchangeResponseTime Avg (ns)=158115905
	NumActiveExchanges=0
	NumReceivedDONEs=0
	NumReceivedErrors=0
	NumReceivedFaults=0
	NumReceivedRequests=1
	NumSentDONEs=0
	NumSentErrors=1
	NumSentFaults=0
	NumSentReplies=0

	act=0
IGNORE 	average (ms)=16.502097
IGNORE 	average' (ms)=16.502097
IGNORE 	first (ms)=16.502097
IGNORE 	last-first (ms)=16.504051999999724
IGNORE	load=NaN
IGNORE 	median (ms)=14.481546878700492
IGNORE  n=1
	source=com.sun.jbi.httpsoapbc.OutboundMessageProcessor
	sub topic=Denormalization
IGNORE 	throughput (s-1)=60.59118088091438
	topic=http://ping,PingService,PingPort,Provider
IGNORE 	total time (ms)=16.502097

BUILD SUCCESSFUL
IGNORE Total time: 2 seconds
Consuming endpoint stats in instance1
-------------------------------------
IGNORE JBI_HOME is /gf/jbi
IGNORE jmx.provider is service:jmx:rmi:///jndi/rmi://AABDULJAFFAR:8789/management/rmi-jmx-connector
	ComponentName=SimpleTestEngine
 	InstanceName=instance1
IGNORE	MessageExchangeComponentTime Avg (ns)=3.9001884E7
IGNORE	MessageExchangeDeliveryTime Avg (ns)=36038.0
IGNORE	MessageExchangeNMRTime Avg (ns)=718527.0
	MessageExchangeStatusTime Avg (ns)=0
	NumActiveExchanges=0
	NumReceivedDONEs=0
	NumReceivedErrors=1
	NumReceivedFaults=0
	NumReceivedReplies=0
	NumSentDONEs=0
	NumSentErrors=0
	NumSentFaults=0
	NumSentRequests=1

BUILD SUCCESSFUL
IGNORE Total time: 1 second
Service Assembly stats in instance1
-----------------------------------
IGNORE JBI_HOME is /gf/jbi
IGNORE jmx.provider is service:jmx:rmi:///jndi/rmi://AABDULJAFFAR:8789/management/rmi-jmx-connector
	InstanceName=instance1
IGNORE 	LastStartupTime=Wed Dec 05 08:16:30 PST 2007
	ServiceAssemblyName=PingApp
	ServiceUnitStatistics:
		ServiceUnitName=PingApp-sun-http-binding
IGNORE 		ServiceUnitStartupTime Avg (ms)=609.0
IGNORE 	StartupTime Avg (ms)=672.0
IGNORE 	UpTime=22312

BUILD SUCCESSFUL
IGNORE Total time: 1 second
Shut Down service assembly PingApp.
Service Assembly stats in instance1
-----------------------------------
IGNORE JBI_HOME is /gf/jbi
IGNORE jmx.provider is service:jmx:rmi:///jndi/rmi://annies.red.iplanet.com:8790/management/rmi-jmx-connector
	InstanceName=instance1
IGNORE 	LastStartupTime=Mon Mar 24 13:31:05 PDT 2008
	ServiceAssemblyName=PingApp
	ServiceUnitStatistics:
 		ServiceUnitName=PingApp-sun-http-binding
IGNORE 		ServiceUnitShutdownTime Avg (ms)=32
IGNORE 		ServiceUnitStartupTime Avg (ms)=1328
IGNORE 		ServiceUnitStopTime Avg (ms)=15
IGNORE 	ShutdownTime Avg (ms)=109
IGNORE 	StartupTime Avg (ms)=1437
IGNORE 	StopTime Avg (ms)=78
IGNORE 	UpTime (ms)=64359

BUILD SUCCESSFUL
IGNORE Total time: 4 seconds
Undeployed service assembly PingApp.
Shut Down component SimpleTestEngine.
Uninstalled component SimpleTestEngine.
