runtime-ui-00003 : Test Verifier.
prepare the artifacts
IGNORE JBI_HOME is C:/cygwin/home/yz72237/build/open-esb/install/jbise/jbi
IGNORE jmx.provider is service:jmx:rmi:///jndi/rmi://localhost:8699/jmxrmi

BUILD SUCCESSFUL
IGNORE Total time: 1 second
install the components
[i18n-echo] Installing a component
IGNORE [i18n-echo]   jmx connection info: (host=localhost, port=8699, secure=false, username=admin, target=server )
IGNORE [i18n-echo]   file=C:/cygwin/home/yz72237/build/open-esb/runtime/ui/bld/test-classes/dist/test-component.jar
[jbi-install-component] Install component succeeded. [
[jbi-install-component] test-component
[jbi-install-component] ]

BUILD SUCCESSFUL
IGNORE Total time: 2 seconds
[i18n-echo] Installing a component
IGNORE [i18n-echo]   jmx connection info: (host=localhost, port=8699, secure=false, username=admin, target=server )
IGNORE [i18n-echo]   file=C:/cygwin/home/yz72237/build/open-esb/runtime/ui/bld/test-classes/dist/test-component1.jar
[jbi-install-component] Install component succeeded. [
[jbi-install-component] test-component1
[jbi-install-component] ]

BUILD SUCCESSFUL
IGNORE Total time: 2 seconds
start the components
[i18n-echo] Starting a component
IGNORE [i18n-echo]   jmx connection info: (host=localhost, port=8699, secure=false, username=admin, target=server )
[i18n-echo]   name=test-component
[jbi-start-component] Start component succeeded. [
[jbi-start-component] test-component
[jbi-start-component] ]

BUILD SUCCESSFUL
IGNORE Total time: 2 seconds
[i18n-echo] Starting a component
IGNORE [i18n-echo]   jmx connection info: (host=localhost, port=8699, secure=false, username=admin, target=server )
[i18n-echo]   name=test-component1
[jbi-start-component] Start component succeeded. [
[jbi-start-component] test-component1
[jbi-start-component] ]

BUILD SUCCESSFUL
IGNORE Total time: 2 seconds
set some application variables
[i18n-echo] Creating application variables
IGNORE [i18n-echo]   jmx connection info: (host=localhost, port=8699, secure=false, username=admin, target=server )
[jbi-create-application-variables] Add application variable succeeded.

BUILD SUCCESSFUL
IGNORE Total time: 2 seconds
[i18n-echo] Creating application variables
IGNORE [i18n-echo]   jmx connection info: (host=localhost, port=8699, secure=false, username=admin, target=server )
[jbi-create-application-variables] Add application variable succeeded.

BUILD SUCCESSFUL
IGNORE Total time: 2 seconds
set some application configurations
[i18n-echo] Creating application configuration
IGNORE [i18n-echo]   jmx connection info: (host=localhost, port=8699, secure=false, username=admin, target=server )
[jbi-create-application-configuration] Add application configuration succeeded.

BUILD SUCCESSFUL
IGNORE Total time: 2 seconds
[i18n-echo] Creating application configuration
IGNORE [i18n-echo]   jmx connection info: (host=localhost, port=8699, secure=false, username=admin, target=server )
[jbi-create-application-configuration] Add application configuration succeeded.

BUILD SUCCESSFUL
IGNORE Total time: 2 seconds
verify the SA
IGNORE JBI_HOME is C:/cygwin/home/yz72237/build/open-esb/install/jbise/jbi
IGNORE jmx.provider is service:jmx:rmi:///jndi/rmi://localhost:8699/jmxrmi
================================================
Service Assembly Information on target "server"
------------------------------------------------
Name: SA1
Service Units: 2
Description: Test SA

Endpoint Configuration
------------------------------------------------
Name: http://sun.com/transform-file.wsdl/,transformService,VagueEndpoint
Service Unit: SA1-SU1
Component: test-component
Status: UNRESOLVED

Endpoint Configuration
------------------------------------------------
Name: http://sun.com/transform-file.wsdl/,transformService,AnotherEP2
Service Unit: SA1-SU2
Component: test-component1
Status: UNRESOLVED
Missing Application Variables 
	sonic_sec_principal


Endpoint Configuration
------------------------------------------------
Name: http://sun.com/transform-file.wsdl/,transformService,filetxEP2
Service Unit: SA1-SU2
Component: test-component1
Status: UNRESOLVED
Missing Application Variables 
	PROCESSED_LOCATION
	NEW_LOCATION

Missing Application Configurations 
	MyAppConfig3


Endpoint Configuration
------------------------------------------------
Name: http://sun.com/transform-file.wsdl/,transformService,filetxEP
Service Unit: SA1-SU1
Component: test-component
Status: UNRESOLVED
Missing Application Variables 
	INPUT_LOCATION

Missing Application Configurations 
	MyAppConfig1


Endpoint Configuration
------------------------------------------------
Name: http://sun.com/transform-file.wsdl/,transformService,AnotherEP
Service Unit: SA1-SU1
Component: test-component
Status: UNRESOLVED
Missing Application Variables 
	GREETINGS
	INPUT_LOCATION

Missing Application Configurations 
	MyAppConfig2


------------------------------------------------
IGNORE The template files have been created in "C:/cygwin/home/yz72237/build/open-esb/runtime/ui/bld/templates".  Please provide values in the template files and use "asant -f configure.xml".

BUILD SUCCESSFUL
IGNORE Total time: 3 seconds
dump the templates and scripts generated by verifier
# This file is generated by verifier. Please provide configuration values below.
IGNORE #Tue Jul 15 12:14:57 PDT 2008
GREETINGS=
INPUT_LOCATION=
# This file is generated by verifier. Please provide configuration values below.
IGNORE #Tue Jul 15 12:14:57 PDT 2008
PROCESSED_LOCATION=
NEW_LOCATION=
sonic_sec_principal=
# This file is generated by verifier. Please provide configuration values below.
IGNORE #Tue Jul 15 12:14:57 PDT 2008
securityCredential=
securityPrincipal=
jndienv=
connectionURL=
configurationName=MyAppConfig1
# This file is generated by verifier. Please provide configuration values below.
IGNORE #Tue Jul 15 12:14:57 PDT 2008
securityCredential=
securityPrincipal=
jndienv=
connectionURL=
configurationName=MyAppConfig2
# This file is generated by verifier. Please provide configuration values below.
IGNORE #Tue Jul 15 12:14:57 PDT 2008
securityCredential=
securityPrincipal=
jndienv=
connectionURL=
configurationName=MyAppConfig3
verify the SA for wsdl 2.0
IGNORE JBI_HOME is C:/cygwin/home/yz72237/build/open-esb/install/jbise/jbi
IGNORE jmx.provider is service:jmx:rmi:///jndi/rmi://localhost:8699/jmxrmi
================================================
Service Assembly Information on target "server"
------------------------------------------------
Name: SA1-wsdl20
Service Units: 2
Description: Test SA WSDL 2.0

Endpoint Configuration
------------------------------------------------
Name: http://sun.com/transform-file.wsdl/,transformService,VagueEndpoint
Service Unit: SA1-SU1-wsdl20
Component: test-component
Status: UNRESOLVED

Endpoint Configuration
------------------------------------------------
Name: http://sun.com/transform-file.wsdl/,transformService,AnotherEP2
Service Unit: SA1-SU2-wsdl20
Component: test-component1
Status: UNRESOLVED
Missing Application Variables 
	sonic_sec_principal


Endpoint Configuration
------------------------------------------------
Name: http://sun.com/transform-file.wsdl/,transformService,filetxEP
Service Unit: SA1-SU1-wsdl20
Component: test-component
Status: UNRESOLVED
Missing Application Variables 
	INPUT_LOCATION

Missing Application Configurations 
	MyAppConfig1


Endpoint Configuration
------------------------------------------------
Name: http://sun.com/transform-file.wsdl/,transformService,filetxEP2
Service Unit: SA1-SU2-wsdl20
Component: test-component1
Status: UNRESOLVED
Missing Application Variables 
	PROCESSED_LOCATION
	NEW_LOCATION

Missing Application Configurations 
	MyAppConfig3


Endpoint Configuration
------------------------------------------------
Name: http://sun.com/transform-file.wsdl/,transformService,AnotherEP
Service Unit: SA1-SU1-wsdl20
Component: test-component
Status: UNRESOLVED
Missing Application Variables 
	GREETINGS
	INPUT_LOCATION

Missing Application Configurations 
	MyAppConfig2


------------------------------------------------
The template files have been created in "C:/cygwin/home/yz72237/build/open-esb/runtime/ui/bld/templates-wsdl20".  Please provide values in the template files and use "asant -f configure.xml".

BUILD SUCCESSFUL
IGNORE Total time: 3 seconds
dump the templates and scripts generated by verifier for wsdl 2.0 tests
# This file is generated by verifier. Please provide configuration values below.
IGNORE #Tue Jul 15 12:15:02 PDT 2008
GREETINGS=
INPUT_LOCATION=
# This file is generated by verifier. Please provide configuration values below.
IGNORE #Tue Jul 15 12:15:02 PDT 2008
PROCESSED_LOCATION=
NEW_LOCATION=
sonic_sec_principal=
# This file is generated by verifier. Please provide configuration values below.
IGNORE #Tue Jul 15 12:15:02 PDT 2008
securityCredential=
securityPrincipal=
jndienv=
connectionURL=
configurationName=MyAppConfig1
# This file is generated by verifier. Please provide configuration values below.
IGNORE #Tue Jul 15 12:15:02 PDT 2008
securityCredential=
securityPrincipal=
jndienv=
connectionURL=
configurationName=MyAppConfig2
# This file is generated by verifier. Please provide configuration values below.
IGNORE #Tue Jul 15 12:15:02 PDT 2008
securityCredential=
securityPrincipal=
jndienv=
connectionURL=
configurationName=MyAppConfig3
populate values in the template files
IGNORE JBI_HOME is C:/cygwin/home/yz72237/build/open-esb/install/jbise/jbi
IGNORE jmx.provider is service:jmx:rmi:///jndi/rmi://localhost:8699/jmxrmi

BUILD SUCCESSFUL
IGNORE Total time: 0 seconds
execute the ant script generated by verifier
[jbi-create-application-variables] Add application variable succeeded.
[jbi-create-application-variables] Add application variable succeeded.
[jbi-create-application-configuration] Add application configuration succeeded.
[jbi-create-application-configuration] Add application configuration succeeded.
[jbi-create-application-configuration] Add application configuration succeeded.
[jbi-deploy-service-assembly] Service assembly deployment succeeded. [
[jbi-deploy-service-assembly] SA1
[jbi-deploy-service-assembly] ]

BUILD SUCCESSFUL
IGNORE Total time: 3 seconds
execute the ant script generated by verifier for wsdl 2.0
[jbi-deploy-service-assembly] Service assembly deployment succeeded. [
[jbi-deploy-service-assembly] SA1-wsdl20
[jbi-deploy-service-assembly] ]

BUILD SUCCESSFUL
IGNORE Total time: 2 seconds
undeploy the SA
[i18n-echo] Undeploying a service assembly
IGNORE [i18n-echo]   jmx connection info: (host=localhost, port=8699, secure=false, username=admin, target=server )
[i18n-echo]   name=SA1
[jbi-undeploy-service-assembly] Service assembly undeployment succeeded. [
[jbi-undeploy-service-assembly] SA1
[jbi-undeploy-service-assembly] ]

BUILD SUCCESSFUL
IGNORE Total time: 2 seconds
undeploy the SA-wsdl20
[i18n-echo] Undeploying a service assembly
IGNORE [i18n-echo]   jmx connection info: (host=localhost, port=8699, secure=false, username=admin, target=server )
[i18n-echo]   name=SA1-wsdl20
[jbi-undeploy-service-assembly] Service assembly undeployment succeeded. [
[jbi-undeploy-service-assembly] SA1-wsdl20
[jbi-undeploy-service-assembly] ]

BUILD SUCCESSFUL
IGNORE Total time: 2 seconds
uninstall the components
[i18n-echo] Shutting down a component
IGNORE [i18n-echo]   jmx connection info: (host=localhost, port=8699, secure=false, username=admin, target=server )
[i18n-echo]   name=test-component
[jbi-shut-down-component] Shutdown component succeeded. [
[jbi-shut-down-component] test-component
[jbi-shut-down-component] ]

BUILD SUCCESSFUL
IGNORE Total time: 2 seconds
[i18n-echo] Shutting down a component
IGNORE [i18n-echo]   jmx connection info: (host=localhost, port=8699, secure=false, username=admin, target=server )
[i18n-echo]   name=test-component1
[jbi-shut-down-component] Shutdown component succeeded. [
[jbi-shut-down-component] test-component1
[jbi-shut-down-component] ]

BUILD SUCCESSFUL
IGNORE Total time: 2 seconds
[i18n-echo] Uninstalling a component
IGNORE [i18n-echo]   jmx connection info: (host=localhost, port=8699, secure=false, username=admin, target=server )
[i18n-echo]   name=test-component
[jbi-uninstall-component] Uninstall component succeeded. [
[jbi-uninstall-component] test-component
[jbi-uninstall-component] ]

BUILD SUCCESSFUL
IGNORE Total time: 2 seconds
[i18n-echo] Uninstalling a component
IGNORE [i18n-echo]   jmx connection info: (host=localhost, port=8699, secure=false, username=admin, target=server )
[i18n-echo]   name=test-component1
[jbi-uninstall-component] Uninstall component succeeded. [
[jbi-uninstall-component] test-component1
[jbi-uninstall-component] ]

BUILD SUCCESSFUL
IGNORE Total time: 2 seconds
IGNORE JBI framework has been unloaded.
IGNORE Unloading JBI framework in response to VM termination.
IGNORE JBI framework shutdown complete.
