testing self first class loading for engines
Building SelfFirstTestEngine.jar
Done Building the Components

BUILD SUCCESSFUL
IGNORE Total time: 0 seconds
Installing a component
IGNORE  jmx connection info: (host=localhost, port=4849, username=admin, target=server )
IGNORE  file=C:/d/main2/open-esb/runtime/framework/bld/test-classes/dist/SelfFirstTestEngine.jar
Install component succeeded. [
SelfFirstTestEngine
]

BUILD SUCCESSFUL
IGNORE Total time: 0 seconds
Starting a component
IGNORE  jmx connection info: (host=localhost, port=4849, username=admin, target=server )
  name=SelfFirstTestEngine
Start component succeeded. [
SelfFirstTestEngine
]

BUILD SUCCESSFUL
IGNORE Total time: 0 seconds
Shutting down a component
IGNORE  jmx connection info: (host=localhost, port=4849, username=admin, target=server )
  name=SelfFirstTestEngine
Shutdown component succeeded. [
SelfFirstTestEngine
]

BUILD SUCCESSFUL
IGNORE Total time: 0 seconds
Uninstalling a component
IGNORE  jmx connection info: (host=localhost, port=4849, username=admin, target=server )
  name=SelfFirstTestEngine
Uninstall component succeeded. [
SelfFirstTestEngine
]

BUILD SUCCESSFUL
IGNORE Total time: 0 seconds
      1 
